Nome;Salario;Cargo;Vinculo;Ingresso;Mes;Ano
ACACIO SILVA CAMPOS FILHO;9.000,00;MEDICO(CONT INDIVIDUAIS);CONTRATADO (PGF);2017;Abril;2017;
ADAISA DANTAS DE MEDEIROS;3.045,92;PROF III-A PFIII-D (30H);Estatutário;2002;Abril;2017;
ADEILVA PEREIRA DA SILVA TRINDADE;937,00;CONSELHEIRO (40h);Eletivo;2017;Abril;2017;
ADELY CRISTINA MARTINS DE ARAUJO;1.526,50;COORD. ADMINISTRATIVO-EF (40Hs);Estatutário;2016;Abril;2017;
ADENILDA MARIA DE SOUZA;2.841,53;PROF. III-A PFIII-C (30H)*;N/A;N/A;Abril;2017;
ADERITO VITAL DE ARAUJO JUNIOR;968,07;CHEFE ADMINISTRATIVO DO ABATEDOURO;Comissionado;2017;Abril;2017;
ADONILSON DA SILVA;2.344,25;VIGIA (40h);Estatutário;1981;Abril;2017;
ADRIANO ALVES DA SILVA;1.403,00;TECNICO DE ENFERMAGEM (40H);Estatutário;2015;Abril;2017;
AECIO NOGUEIRA MORAIS ROCHA;3.250,00;SECRETARIO MUNICIPAL;Comissionado;2017;Abril;2017;
AGEDILVA PEREIRA DA SILVA;2.261,84;AUX. DE ENFERMAGEM;Estatutário;1998;Abril;2017;
AGMAR DAYARA LOPES DE SÁ E SILVA;791,67;ASG EFETIVOS;Estatutário;2017;Abril;2017;
ALAIDE QUEIROZ DE OLIVEIRA;2.849,74;PROF. III-A PFIII-C (30H)*;Estatutário;1999;Abril;2017;
ALANE BEZERRA DA SILVA;601,67;ASG EFETIVOS;Estatutário;2017;Abril;2017;
ALBA LUCIA DOS SANTOS GOMES ARRUDA;2.849,74;PROF. III-A PFIII-C (30H)*;Estatutário;2000;Abril;2017;
ALBERTO CLEMENTE DE ARAÚJO;3.000,00;PROCURADOR GERAL;Comissionado;2017;Abril;2017;
ALCILENE MARIA DOS SANTOS;1.451,85;ASG EFETIVOS;Estatutário;1999;Abril;2017;
ALCINA COSTA DA SILVA OLIVEIRA;3.941,57;PROF. III-A PFIII-F (30)*;N/A;N/A;Abril;2017;
ALDENIR FERNANDES DE ARAUJO;2.849,74;PROF. III-A PFIII-C (30H)*;Estatutário;2000;Abril;2017;
ALDENORA BEZERRA DOS SANTOS;2.257,42;TELEFONISTA (40h);Estatutário;1986;Abril;2017;
ALDERISA MARIA DE SOUZA;1.416,34;ASG EFETIVOS;Estatutário;2003;Abril;2017;
ALDILENE RODRIGUES DE MENEZES SILVA;1.451,85;ASG EFETIVOS;Estatutário;1999;Abril;2017;
ALDO FERNANDES DE OLIVEIRA;4.424,11;SUPERVISOR II-A SP-III-D (40H);N/A;N/A;Abril;2017;
ALESSANDRA ARAUJO DE MEDEIROS;2.123,45;PROF POLIVAL ENS INFANTIL - II-A (30Hs);Estatutário;2015;Abril;2017;
ALEX NUNES DA SILVA;1.025,14;MOTORISTA (40h);Estatutário;2015;Abril;2017;
ALEXSANDRO FERNANDES DOS SANTOS;1.066,64;MOTORISTA (40h);Estatutário;2015;Abril;2017;
ALINE CRISTINA MOURA DE MEDEIROS ARAUJO;968,07;CHEFE DO SETOR DE GESTÃO DO TRABALHO;Comissionado;2017;Abril;2017;
ALISSON MEDEIROS DE OLIVEIRA;791,67;ASG EFETIVOS;Estatutário;2017;Abril;2017;
ALLANDERSON MATHEUS PAULO E SILVA;1.431,50;DIGITADOR (40h);Estatutário;2016;Abril;2017;
ALVANY SILVA DE SOUZA;999,14;CHEFE DO SETOR DE GESTAO DAS UNID ESPORT ESCOLARES;Comissionado;2017;Abril;2017;
AMANDA CORDEIRO DE MEDEIROS;2.123,45;PROF. ENS. FUNDAMENTAL - I (30Hs);Estatutário;2015;Abril;2017;
AMANDA DELAYNE LOPES PALHARES;1.390,50;FISCAL DE TRIBUTOS (40h);Estatutário;2016;Abril;2017;
AMARALINA DA SILVA SANTOS;791,67;ASG EFETIVOS;Estatutário;2017;Abril;2017;
AMINADABE LIRA RODRIGUES;2.453,90;PROF. ENS. FUNDAMENTAL - I (30Hs);Estatutário;2015;Abril;2017;
ANA CAROLINE DA SILVA;1.874,00;ENTREVISTADOR DO CADASTRO UNICO/PBF;CONTRATADO;2017;Abril;2017;
ANA FRANCISCA SANTANA DE LIMA;3.332,42;PROF III-A PFIII-D(30H);Estatutário;1999;Abril;2017;
ANA LUCIA ASSIS DE MEDEIROS;2.123,45;PROF. ENS. FUNDAMENTAL - I (30Hs);Estatutário;2015;Abril;2017;
ANA LUCIA BARBOSA DA SILVA;2.049,57;AGENTE COM. DE SAUDE (40h);Estatutário;1999;Abril;2017;
ANA MARIA LOPES BEZERRA;1.705,19;TECNICO DE CADASTRO;Estatutário;1999;Abril;2017;
ANA PAULA ALVES MUNIZ;2.519,99;PROF. ENS. FUNDAMENTAL - I (30Hs);Estatutário;2015;Abril;2017;
ANA PAULA DE MEDEIROS;937,00;ORIENTADOR SOCIAL (40H);CONTRATADO;2017;Abril;2017;
ANA PAULA DE MOURA;1.363,00;AUXILIAR DE SAUDE BUCAL (40Hs);Estatutário;2015;Abril;2017;
ANA SANTANA ALEXANDRE VALE;1.451,85;ASG EFETIVOS;Estatutário;1998;Abril;2017;
ANAILMA MARIA PEREIRA;1.451,85;ASG EFETIVOS;Estatutário;1998;Abril;2017;
ANALDETE AUGUSTA DE MORAIS SILVA;1.451,85;ASG EFETIVOS;Estatutário;1998;Abril;2017;
ANDRE LUIZ FIDELES CAMPOS;963,00;RECEPCIONISTA -EF (40Hs);Estatutário;2016;Abril;2017;
ANGEANIA PAULA DE LIMA;2.441,97;COORDENADOR PEDAGÓGICO II-A;N/A;N/A;Abril;2017;
ANGELA COSTA DE ARAUJO;638,95;ASG EFETIVOS;N/A;N/A;Abril;2017;
ANNE CAROLINE MONTEIRO ROQUE;4.800,00;ENFERMEIRO;Estatutário;2015;Abril;2017;
ANTENOR CASSIANO;2.054,26;GARI (40h);Estatutário;1998;Abril;2017;
ANTONIA BARBOSA DA SILVA;1.451,85;ASG EFETIVOS;Estatutário;1999;Abril;2017;
ANTONIA FELIPE DOS SANTOS CRUZ;1.451,85;ASG EFETIVOS;Estatutário;1998;Abril;2017;
ANTONIA LURDETE MENEZES DA FONSECA;1.451,85;ASG EFETIVOS;Estatutário;1998;Abril;2017;
ANTONIA OLIVEIRA BEZERRA;14.000,00;MEDICO;CONTRATADO (PGF);2016;Abril;2017;
ANTONIA OLIVEIRA DA SILVA FLORENCIO;1.704,35;ASG EFETIVOS;Estatutário;1998;Abril;2017;
ANTONIO ALVES DA SILVA;1.854,31;GARI (40h);Estatutário;1998;Abril;2017;
ANTONIO DOMINGOS DA SILVA FILHO;2.830,43;GARI (40h);Estatutário;1985;Abril;2017;
ANTONIO FRANCISCO DA FONSECA;3.547,84;PROF. III-A PFIII-C (40H)*;Estatutário;1999;Abril;2017;
ANTONIO GEANDRO ALVES DE SOUZA;4.000,00;MEDICO PLANTONISTA;N/A;N/A;Abril;2017;
ANTONIO MARCOS SARAIVA DE LIMA;2.507,97;PROF. II-A PFII-B (30H)*;N/A;N/A;Abril;2017;
ANTONIO PINHEIRO DE SOUZA;2.144,25;GARI (40h);Estatutário;1998;Abril;2017;
ANTONIO RANIERE SANTOS;1.631,12;AGENTE COM. DE SAUDE (40h);Estatutário;2006;Abril;2017;
ANTONIO ROBERTO LOPES DE MELO;1.311,47;CONSELHEIRO (40h);Eletivo;2016;Abril;2017;
ANTONIO SEBASTIÃO DA SILVA NETO ;937,00;CHEFE DE SETOR DE PROGRAMAS ESPECIAIS;Comissionado;2017;Abril;2017;
ANTONIO SEGUNDO CARLOS DE FREITAS;1.304,59;MOTORISTA (40h);Estatutário;2003;Abril;2017;
ARICIA RODRIGUES DIÓGENES;1.563,00;FARMACÊUTICO-EF (20HS);Estatutário;2015;Abril;2017;
ARINALDO LOPES DE ARAUJO;2.228,33;FISCAL DE URBANISMO (40h);Estatutário;1999;Abril;2017;
ARINALVA DA SILVA LIMA;1.451,85;AUX. DE ENFERMAGEM;Estatutário;1998;Abril;2017;
ARINALVA LOPES DE ARAUJO;1.578,33;AGENTE ADMINISTRATIVO (40h);Estatutário;1998;Abril;2017;
ARLENE BEZERRA DE ARAUJO;3.318,07;SUPERVISOR II-A SPIII-D (30)*;N/A;N/A;Abril;2017;
ARLETE ALICE DA SILVA;1.891,83;ASG EFETIVOS;Estatutário;1998;Abril;2017;
ARMANDO DANTAS DE CARVALHO NETO;1.363,64;OPERADOR DE MOTO NIVELADORA - EF;N/A;N/A;Abril;2017;
ARNILDO FELICIANO DA SILVA;3.332,42;PROF III-A PFIII-D(30H);Estatutário;1998;Abril;2017;
ARYAN PETRUS LOPES SOUZA ARAUJO;963,00;MOTORISTA (40h);Estatutário;2015;Abril;2017;
AURENI CANDIDA DA SILVA;2.473,04;COORDENADOR PEDAGÓGICO II-A;Estatutário;2015;Abril;2017;
BENEDITA MARIA JOSE MELO BARRA;2.652,17;PROF POLIVAL ENS INFANTIL - II-A (30Hs);Estatutário;2015;Abril;2017;
BETANIA FRANCISCA DA SILVA;2.076,68;AGENTE COM. DE SAUDE (40h);Estatutário;1996;Abril;2017;
BRUNO RAFAEL GOIS DE OLIVEIRA;696,67;ASG EFETIVOS;Estatutário;2017;Abril;2017;
CAINHARA LOPES BEZERRA;3.442,16;PROF. III-A PFIII-C (30H)*;Estatutário;2002;Abril;2017;
CARLA DEYSE SILVA;1.153,00;TECNICO DE ENFERMAGEM (40H);Estatutário;2016;Abril;2017;
CARLA LUCIO ALVES;2.123,45;PSICOPEDAGOGO - EF (30Hs);Estatutário;2015;Abril;2017;
CARLA NATALI DA SILVA SIMAO;963,00;CUIDADOR DE CRIANÇA (INFANTIL);Estatutário;2015;Abril;2017;
CARLA SIMONE IVO DE ARAUJO;2.453,90;PROF POLIVAL ENS INFANTIL - II-A (30Hs);Estatutário;2015;Abril;2017;
CARLOS ALBERTO RODRIGUES;1.944,29;GARI (40h);Estatutário;1998;Abril;2017;
CARLOS ANTONIO CASSIANO DA SILVA;994,07;MOTORISTA (40h);Estatutário;2015;Abril;2017;
CARLOS HENRIQUE DUARTE UBARANA;1.905,94;MOTORISTA (40h);Estatutário;2015;Abril;2017;
CASSIA VIRGINIA DE SOUZA;937,00;CHEFE DE SETOR DE HABITAÇÃO;Comissionado;2017;Abril;2017;
CELIA MARTINS BARROS VIANA;2.307,98;PROF. I-A PFI-F (SQ) (30H;Estatutário;1987;Abril;2017;
CELIA SUELLE DE MELO;963,00;AUXILIAR DE SAUDE BUCAL (40Hs);Estatutário;2015;Abril;2017;
CELINALDO BARBOSA DA SILVA;968,07;CHEFE DE SETOR DE PROTOCOLO E ARQUIVO;Comissionado;2017;Abril;2017;
CELIO ALVES DA SILVA;1.400,00;SECRETARIO ADJUNTO;Comissionado;2017;Abril;2017;
CESARIANA REJANE GOMES ALEXANDRE;1.601,81;ASG EFETIVOS;Estatutário;1999;Abril;2017;
CIRILO NOGUEIRA JUNIOR;1.982,72;PROF POLIVAL ENS INFANTIL - II-A (30Hs);Estatutário;2016;Abril;2017;
CLARISSA RACKEL BATISTA AZEVEDO;4.800,00;ODONTÓLOGO EF -(40Hs);Estatutário;2015;Abril;2017;
CLAUDIO PINHEIRO GOMES;1.876,84;MOTORISTA (40h);N/A;N/A;Abril;2017;
CLAUDISSEIA NERI DE MORAIS;2.088,07;AUX. DE ENFERMAGEM;Estatutário;1998;Abril;2017;
CLEDILSON AUGUSTO DE ARAUJO;1.451,85;ASG EFETIVOS;Estatutário;1998;Abril;2017;
CLEDINALVA FERNANDES DE SOUZA;3.799,69;PROF. III-A PFIII-C (40H)*;Estatutário;1998;Abril;2017;
CLEIDE BEZERRA DE MOURA SANTOS;1.807,53;PROF. I-A PFI-D (30H)*;N/A;N/A;Abril;2017;
CLEIDSON DANTAS BALBINO;2.123,45;PROF. DE EDUCAÇÃO FÍSICA - II-A (30Hs);Estatutário;2015;Abril;2017;
CLETO EUZEBIO DE ALMEIDA;2.590,68;PROF. II-A PFII-C (30H)*;Estatutário;1999;Abril;2017;
CLEUNICE CRISTINA SILVA ARAUJO;2.123,45;PROF. DE LINGUA PORTUGUESA - II-A (30Hs);Estatutário;2016;Abril;2017;
CLOVILMA MARIA SILVA OLIVEIRA;2.123,45;PROF. ENS. FUNDAMENTAL - I (30Hs);Estatutário;2015;Abril;2017;
CLOVIS MARTINS DA COSTA;1.708,47;FISCAL DE URBANISMO (40h);Estatutário;1999;Abril;2017;
CREDIMARIA MARIA DA FONSECA;2.405,86;PROF. II-A PFII-B (30H)*;Estatutário;2003;Abril;2017;
CYNARA CYBELE DE MEDEIROS GALVÃO LOPES;1.663,00;DIRETOR DO DEPARTAMENTO DE AGRICULTURA E PECUÁRIA;Comissionado;2017;Abril;2017;
CYNTHIANE LOUYSE MENEZES DE ARAUJO;2.050,00;FISIOTERAPEUTA EF - (20hS);Estatutário;2015;Abril;2017;
DALIANE ARAUJO DA CRUZ;696,67;ASG EFETIVOS;Estatutário;2017;Abril;2017;
DALVA MARIA DE MOURA;2.849,74;PROF. III-A PFIII-C (30H)*;Estatutário;2000;Abril;2017;
DALVACI BATISTA DE OLIVEIRA MARQUES;3.799,69;PROF. III-A PFIII-C (40H)*;Estatutário;1999;Abril;2017;
DALVACI BEZERRA ARAUJO DELGADO;3.306,20;AUX. DE ENFERMAGEM;Estatutário;1979;Abril;2017;
DAMIANA DA CONCEIÇÃO DA SILVA;1.589,85;TECNICO DE ENFERMAGEM (30);Estatutário;1998;Abril;2017;
DAMIANA DA CRUZ DOS SANTOS SILVA;1.791,83;ASG EFETIVOS;Estatutário;1999;Abril;2017;
DAMIAO DENER BEZERRA DE ARAUJO;1.273,52;GARI (40h);Estatutário;2004;Abril;2017;
DAMIAO FIDELIS DE ARAUJO;2.326,68;AGENTE COM. DE SAUDE (40h);N/A;N/A;Abril;2017;
DAMIAO JOSE DE ARAUJO;1.058,00;OPERADOR DE TRATOR DE PNEUS;Estatutário;2015;Abril;2017;
DAMIAO MARCIO DA SILVA;2.049,58;AGENTE COM. DE SAUDE (40h);Estatutário;2000;Abril;2017;
DANILO BEZERRA ARAÚJO;3.250,00;SECRETARIO MUNICIPAL;Comissionado;2017;Abril;2017;
DARCSON NOGUEIRA DANTAS FILHO;5.542,27;ENFERMEIRO;Estatutário;2015;Abril;2017;
DAVID FERNANDES BARROS;696,67;ASG EFETIVOS;Estatutário;2017;Abril;2017;
DAYANNE KALLYNE MORAIS DE ARAUJO OLIVEIRA;4.300,00;ENFERMEIRO;Estatutário;2016;Abril;2017;
DEBORA LIVIA DE QUEIROZ BANDEIRA;17.500,00;MEDICO;CONTRATADO (PGF);2016;Abril;2017;
DEILZA CARDOSO BATALHA;1.889,58;AGENTE COM. DE SAUDE (40h);Estatutário;2000;Abril;2017;
DENISE MARIA MELO DA SILVA;4.080,00;ASSISTENTE SOCIAL EF (30H);Estatutário;2015;Abril;2017;
DERLAN MOURA DOS SANTOS;1.481,18;MOTORISTA (40h);N/A;N/A;Abril;2017;
DINA AURELIA DE MORAIS ARAUJO;2.011,47;TELEFONISTA (40h);N/A;N/A;Abril;2017;
DINARTE MARTINS DA FONSECA JUNIOR;1.300,67;AGENTE COMUNITARIO DE COMBATE ÀS ENDEMIAS;Estatutário;2015;Abril;2017;
DINARTE SOBREIRA FORMIGA;963,00;MOTORISTA (40h);Estatutário;2016;Abril;2017;
EDILENE ARAUJO MOREIRA;2.453,90;PROF. ENS. FUNDAMENTAL - I (30Hs);Estatutário;2015;Abril;2017;
EDILENE PEREIRA DE MENEZES;3.286,19;PROF. III-A PFIII-E (30H)*;N/A;N/A;Abril;2017;
EDILEUZA FERREIRA RODRIGUES;2.199,58;AGENTE COM. DE SAUDE (40h);Estatutário;1998;Abril;2017;
EDILEUZA RUFINO DE MELO;2.590,68;PROF. II-A PFII-C (30H)*;Estatutário;2000;Abril;2017;
EDILSON PEREIRA DA SILVA;1.388,72;AGENTE ADMINISTRATIVO (40h);Estatutário;2004;Abril;2017;
EDILZA AUTA DE ARAUJO MELO;4.693,58;PROF. III-A PFIII-F (40)*;Estatutário;1985;Abril;2017;
EDINALVA BATISTA DA SILVA;1.378,26;ASG EFETIVOS;N/A;N/A;Abril;2017;
EDINALVA DANTAS DE ARAUJO SANTOS;994,07;CUIDADOR DE CRIANÇA (INFANTIL);Estatutário;2015;Abril;2017;
EDIVAN FERNANDES DA COSTA;2.223,15;MOTORISTA (40h);N/A;N/A;Abril;2017;
EDMAR SOARES PINHEIRO;1.451,85;VIG.SANITARIO (40h);Estatutário;1998;Abril;2017;
EDMILSON MARTINS DOS SANTOS;937,00;CHEFE DE SETOR DE PROTEÇÃO SOCIAL ESPECIAL;Comissionado;2017;Abril;2017;
EDNALDO BEZERRA DA SILVA;3.988,68;PROF. III-A PFIII-F (30)*;Estatutário;1984;Abril;2017;
EDNILSON DOS SANTOS SILVA;1.062,14;ASSESSOR ESPECIAL DE GABINETE;Comissionado;2017;Abril;2017;
EDNILZA FERREIRA DOS SANTOS LEITE;1.451,85;ASG EFETIVOS;Estatutário;1998;Abril;2017;
EIDER LOPES BARBOSA;2.091,94;MOTORISTA (40h);Estatutário;1986;Abril;2017;
ELANE MENDES DE CARVALHO LOPES;506,67;ASG EFETIVOS;Estatutário;2017;Abril;2017;
ELIANA MARIA DE FIGUEIREDO;3.799,69;PROF. III-A PFIII-C (40H)*;Estatutário;1998;Abril;2017;
ELIANA MARIA DE SOUZA;2.441,97;COORDENADOR PEDAGÓGICO II-A;N/A;N/A;Abril;2017;
ELIANE SOARES DE SOUZA;963,00;CUIDADOR DE CRIANÇA (INFANTIL);Estatutário;2015;Abril;2017;
ELIETE MARQUES DOS SANTOS FERNANDES;1.954,35;ASG EFETIVOS;Estatutário;1998;Abril;2017;
ELISANGELA PATRICIA NUNES ABRANTES;5.086,26;FISIOTERAPEUTA;Estatutário;2002;Abril;2017;
ELISANGELA SIQUEIRA;2.441,97;COORDENADOR PEDAGÓGICO II-A;N/A;N/A;Abril;2017;
ELITA SAMARA DAVI DA SILVA;963,00;CUIDADOR DE CRIANÇA (INFANTIL);Estatutário;2015;Abril;2017;
ELIZABETHE DIAS DE AZEVEDO;1.300,00;CHEFE DO SETOR DE ALMOXARIFADO E DISTRIBUIÇÃO;Comissionado;2017;Abril;2017;
ELIZIMAR BEZERRA DE SOUZA ARRUDA;3.200,14;PROF. II-A PFII-F (30H)*;N/A;N/A;Abril;2017;
ELMA GABRIELLA BEZERRA DE OLIVEIRA COSTA;1.025,14;ATENDENTE DE FARMACIA (40Hs);Estatutário;2015;Abril;2017;
ELVIRO FERREIRA NETO;1.982,72;INSPETOR ESCOLAR  II-A (30hs);Estatutário;2015;Abril;2017;
EMANUELLA SOARES GALVÃO;937,00;CHEFE DO SETOR ADMINISTRATIVO DO ESF/ACS/NASF;Comissionado;2017;Abril;2017;
ENICLEIDE AUGUSTO DE ARAUJO;2.199,58;AGENTE COM. DE SAUDE (40h);Estatutário;1998;Abril;2017;
ENOLEIDE FERREIRA DANTAS;2.123,45;PROF. ENS. FUNDAMENTAL - I (30Hs);Estatutário;2015;Abril;2017;
ERIDALVA TRINDADE DA SILVA;2.123,45;PROF POLIVAL ENS INFANTIL - II-A (30Hs);Estatutário;2015;Abril;2017;
ERIFRAN PAULO DE SOUZA;2.740,70;PROF III-A PFIII-D (30H);Estatutário;1998;Abril;2017;
ERIKA DANTAS DE MEDEIROS;937,00;CHEFE DO SETOR DE FINANÇAS;N/A;N/A;Abril;2017;
ERINALDA BATISTA SILVA;1.631,12;AGENTE COM. DE SAUDE (40h);Estatutário;2005;Abril;2017;
ERINEIDE BEZERRA DE AQUINO;3.235,37;PROF. III-A PFIII-C (30H)*;Estatutário;2000;Abril;2017;
ERINEIDE RAMALHO DA SILVA FELINTO;1.451,85;ASG EFETIVOS;Estatutário;1999;Abril;2017;
ERIVAN ALMEIDA DE BRITO;3.583,22;PROF. II-A PFII-F (30H)*;N/A;N/A;Abril;2017;
ERIVAN FERNANDES DE FREITAS;1.704,35;GARI (40h);Estatutário;1998;Abril;2017;
ERIZE DANTAS DA SILVA;1.053,00;AUXILIAR DE SAUDE BUCAL (40Hs);Estatutário;2015;Abril;2017;
ERONILSON JUSTINIANO DA SILVA;1.000,00;ASSESSOR ESPECIAL DE GABINETE;Comissionado;2017;Abril;2017;
ESTELA GARCIA DA SILVA MEDEIROS;3.400,00;PSICÓLOGO(A) - 40Hs;Estatutário;2015;Abril;2017;
EUDFRAN DA SILVA;538,33;ASG EFETIVOS;Estatutário;2017;Abril;2017;
EUKARINE DO NASCIMENTO DUDA AZEVEDO;2.123,45;PROFESSOR DE MATEMATTICA - II-A (30Hs);Estatutário;2015;Abril;2017;
EUNICE PEREIRA DE OLIVEIRA;3.699,45;PROF. II-A PFII-F (30H)*;N/A;N/A;Abril;2017;
EVA FRANCISCA DA SILVA;968,07;CONSELHEIRO (40h);Eletivo;2016;Abril;2017;
EVA VILMA BATALHA DA SILVA;3.913,64;PROF. III-A PFIII-D (40H);N/A;N/A;Abril;2017;
EVANDRO MACEDO DOS SANTOS;1.704,35;GARI (40h);Estatutário;1998;Abril;2017;
EXPEDITO SIMAO DA SILVA;1.704,35;GARI (40h);Estatutário;1998;Abril;2017;
FABIANA DE MORAIS QUEIROZ;1.400,00;DIRETOR DEPTO DE ATENÇÃO BÁSICA;Comissionado;2017;Abril;2017;
FABIANA MEDEIROS DA SILVA;937,00;CONSELHEIRO (40h);Eletivo;2017;Abril;2017;
FABIOLA DA COSTA ALVES;601,67;ASG EFETIVOS;Estatutário;2017;Abril;2017;
FABIOLA DA COSTA SILVA;963,00;AUXILIAR ADMINISTRATIVO (40Hs);Estatutário;2015;Abril;2017;
FATIMA LIDUINA CARDOSO DE SOUZA;1.451,85;ASG EFETIVOS;Estatutário;1999;Abril;2017;
FERNANDO DE OLIVEIRA CANO;8.816,67;PSIQUIATRA (20Hs);Estatutário;2015;Abril;2017;
FERNANDO LUIZ DA SILVA;1.889,58;AGENTE COM. DE SAUDE (40h);Estatutário;2000;Abril;2017;
FLAVIA NETHANIA GURGEL PEREIRA;2.123,45;PROF.(AEE) ATEND EDUC ESPECIALIZADO - II-A (30Hs);Estatutário;2015;Abril;2017;
FLAVIO LEYDSON PEREIRA DA SILVA;963,00;DIGITADOR (40h);Estatutário;2015;Abril;2017;
FRANCILENE PEREIRA DE MELO;2.935,22;PROF III-A PFIII-D (30H);Estatutário;1998;Abril;2017;
FRANCINEIDE BARROSO DE ARAUJO;2.199,58;AGENTE COM. DE SAUDE (40h);Estatutário;2000;Abril;2017;
FRANCINEIDE GOMES BEZERRA;1.704,35;ASG EFETIVOS;Estatutário;1998;Abril;2017;
FRANCINEIDE PEREIRA DA SILVA;2.476,84;ASG EFETIVOS;Estatutário;1998;Abril;2017;
FRANCINETE BEZERRA DE ARAÚJO;1.451,85;ASG EFETIVOS;Estatutário;2000;Abril;2017;
FRANCINETE MARIA DA SILVA;2.849,74;PROF. III-A PFIII-C (30H)*;Estatutário;2000;Abril;2017;
FRANCINETE PEREIRA GUIMARAES RIBEIRO;2.955,59;PARTEIRA;Estatutário;1998;Abril;2017;
FRANCINILDO FELICIANO DOS SANTOS;2.818,98;GARI (40h);Estatutário;1998;Abril;2017;
FRANCINILDO SILVESTRE DA SILVA;3.234,53;PROF. II-A PFII-C (30H)*;N/A;N/A;Abril;2017;
FRANCINILSON BATISTA DA SILVA;3.250,00;SECRETARIO MUNICIPAL;Comissionado;2017;Abril;2017;
FRANCISCA ALDENIR DA SILVA ALVES;1.529,85;TECNICO DE ENFERMAGEM (30);Estatutário;1998;Abril;2017;
FRANCISCA ALVES DE ARAUJO;2.484,34;AUX. DE ENFERMAGEM;Estatutário;1998;Abril;2017;
FRANCISCA ALVES DE MOURA;2.123,45;PROF POLIVAL ENS INFANTIL - II-A (30Hs);Estatutário;2015;Abril;2017;
FRANCISCA BEZERRA DE MEDEIROS ;1.451,85;ASG EFETIVOS;Estatutário;1998;Abril;2017;
FRANCISCA CRISTINA JESUINA DA SILVA;1.451,85;GARI (40h);Estatutário;1999;Abril;2017;
FRANCISCA DAS CHAGAS CARLOS DE FREITAS;1.451,85;DATILOGRAFO (40h);Estatutário;1998;Abril;2017;
FRANCISCA DOS SANTOS SILVA;4.217,10;PROF III-A PFIII-D (30H);Estatutário;1998;Abril;2017;
FRANCISCA FREITAS DA SILVA;1.756,84;AUX. DE ENFERMAGEM;N/A;N/A;Abril;2017;
FRANCISCA GILVANEIDE HOLANDA DO CARMO;6.742,27;ENFERMEIRO;Estatutário;2015;Abril;2017;
FRANCISCA HELENA DE VASCONCELOS;3.029,50;PROF II-A PFII-D (30H);Estatutário;1998;Abril;2017;
FRANCISCA MARIA CONSTANTINO DE OLIVEIRA;2.935,22;PROF III-A PFIII-D (30H);Estatutário;1998;Abril;2017;
FRANCISCA MARIA DANTAS;1.604,32;ASG EFETIVOS;Estatutário;1998;Abril;2017;
FRANCISCA MARIA DOS SANTOS FIGUEIREDO;3.941,57;PROF. III-A PFIII-F (30)*;N/A;N/A;Abril;2017;
FRANCISCA MARIA DOS SANTOS SILVA;1.649,85;TECNICO DE ENFERMAGEM (30);Estatutário;1999;Abril;2017;
FRANCISCA PEREIRA DAS CHAGAS;937,00;FACILITADOR DE OFICINAS DE RECREAÇÃO E LAZER DO SC;CONTRATADO;2017;Abril;2017;
FRANCISCA ROSANA DANTAS;1.451,85;ASG EFETIVOS;Estatutário;1998;Abril;2017;
FRANCISCA SOUZA LIMA;2.935,22;PROF III-A PFIII-D (30H);Estatutário;1998;Abril;2017;
FRANCISCA TEIXEIRA DA SILVA OLIVEIRA;1.273,52;ASG EFETIVOS;Estatutário;2003;Abril;2017;
FRANCISCO AVELINO DE BRITO;1.991,36;PROF. I-A PFI-F (30H)*;Estatutário;1982;Abril;2017;
FRANCISCO BALBINO DA C. FILHO;1.571,82;GARI (40h);Estatutário;1998;Abril;2017;
FRANCISCO CAMPANHA SILVA DE OLIVEIRA;1.785,61;MOTORISTA (40h);N/A;N/A;Abril;2017;
FRANCISCO CANINDE DE MEDEIROS SENA;3.800,00;MAESTRO;Estatutário;2016;Abril;2017;
FRANCISCO CANINDE FERREIRA;2.935,22;PROF III-A PFIII-D(30H);Estatutário;1998;Abril;2017;
FRANCISCO CANINDE SOARES;1.400,00;SECRETARIO ADJUNTO;Comissionado;2017;Abril;2017;
FRANCISCO DAS CHAGAS DE SOUZA;2.091,94;ASG EFETIVOS;Estatutário;1986;Abril;2017;
FRANCISCO DAS CHAGAS DE SOUZA;33,25;A.S.G - ADICIONAIS;Estatutário;2013;Abril;2017;
FRANCISCO DAS CHAGAS PEREIRA DA SILVA;2.406,69;GARI (40h);Estatutário;1998;Abril;2017;
FRANCISCO DE ASSIS DA SILVA;2.590,68;PROF. II-A PFII-C (30H)*;Estatutário;1999;Abril;2017;
FRANCISCO DE ASSIS DOS SANTOS;3.806,17;PROF. III-A PFIII-F (30)*;Estatutário;1988;Abril;2017;
FRANCISCO DE ASSIS JUNIOR;968,07;CHEFE DO SETOR DE POLIT AMB, LICENÇAS E OUTORGAS;Comissionado;2017;Abril;2017;
FRANCISCO DE ASSIS MARQUES;937,00;CHEFE DE SETOR DE CADASTRO ÚNICO E BOLSA FAMILIA;Comissionado;2017;Abril;2017;
FRANCISCO DE ASSIS SILVA;2.016,89;ELETRICISTA (40h);N/A;N/A;Abril;2017;
FRANCISCO DEGBERTO MEDEIROS DOS SANTOS;1.400,00;SECRETARIO ADJUNTO;Comissionado;2017;Abril;2017;
FRANCISCO DONIZETE DE SOUZA;2.849,74;PROF. III-A PFIII-C (30H)*;Estatutário;1999;Abril;2017;
FRANCISCO GEILSON SILVA DE ARRUDA;937,00;DIRETOR DEPTO DE MAQUINAS E FROTA;Comissionado;2017;Abril;2017;
FRANCISCO JEAN DA SILVA MORAIS;1.614,20;TECNICO EM RADIOLOGIA;Estatutário;2015;Abril;2017;
FRANCISCO LOURENCO FILHO;4.062,50;AG.F.TRIBUTOS;Estatutário;1988;Abril;2017;
FRANCISCO MARINHEIRO DE SOUZA FILHO;1.578,33;AGENTE ADMINISTRATIVO (40h);Estatutário;2000;Abril;2017;
FRANCISCO MONTEIRO;2.123,45;PROF. DE CIENCIAS DA NATUREZA - II-A (30Hs);Estatutário;2016;Abril;2017;
FRANCISCO RIVONALDO MENEZES FREITAS;1.646,96;DIGITADOR (40h);Estatutário;1996;Abril;2017;
FRANCKTO PEREIRA DA SILVA;963,00;CUIDADOR DE CRIANÇA (NECESSIDADES ESPECIAIS);Estatutário;2015;Abril;2017;
FYLIPPE FERNANDES DE MELO COSTA;3.250,00;SECRETARIO MUNICIPAL;Comissionado;2017;Abril;2017;
GABRIEL FIDELIS ALVES DE ARAUJO;538,33;ASG EFETIVOS;Estatutário;2017;Abril;2017;
GABRIELLE MORAIS ARRUDA COSTA;4.800,00;ENFERMEIRO;Estatutário;2015;Abril;2017;
GEISA MARCIA GOMES DE OLIVEIRA;1.304,59;ASG EFETIVOS;Estatutário;2003;Abril;2017;
GENILDA LIMA DOS SANTOS;3.166,69;PROF III-A PFIII-D (30H);N/A;N/A;Abril;2017;
GENILDO ASSIS DE MEDEIROS;2.935,22;PROF III-A PFIII-D (30H);Estatutário;1998;Abril;2017;
GENILIA LIMA DOS SANTOS;3.799,69;PROF. III-A PFIII-C (40H)*;Estatutário;1998;Abril;2017;
GENILMA PAULINO DOS SANTOS;968,07;PROF. CONTRATADO;CONTRATADO;2016;Abril;2017;
GEORGE REIS ARAUJO DE MELO;2.500,00;PROCURADOR ESPECIAL;Comissionado;2017;Abril;2017;
GERALDO GUTEMBERG PEREIRA;1.859,43;ELETRICISTA (40h);Estatutário;1998;Abril;2017;
GERALDO PEREIRA DOS SANTOS;1.400,00;SECRETARIO ADJUNTO;Comissionado;2017;Abril;2017;
GERVASIO BEZERRA DE MEDEIROS;1.859,91;ASG EFETIVOS;Estatutário;1987;Abril;2017;
GESSYCA DA SILVA LOPES SOUZA;2.123,45;PROF. ENS. FUNDAMENTAL - I (30Hs);Estatutário;2015;Abril;2017;
GILDEONE JERONIMO DE SOUZA;2.123,45;PROF. DE EDUCAÇÃO FÍSICA - II-A (30Hs);Estatutário;2015;Abril;2017;
GILDETE BEZERRA DE MEDEIROS TAVARES;1.785,50;AGENTE ADMINISTRATIVO (40h);Estatutário;1996;Abril;2017;
GILSON DE BRITO NERI;2.556,74;MOTORISTA (40h);Estatutário;1999;Abril;2017;
GILVAN FELIPE DA SILVA;1.704,35;GARI (40h);Estatutário;1998;Abril;2017;
GIRLANE LOPES DE ARAUJO;1.451,85;DATILOGRAFO (40h);Estatutário;1998;Abril;2017;
GISA CARLA GOMES DE OLIVEIRA MEDEIROS;3.227,16;PROF. III-A PFIII-C (30H)*;Estatutário;2002;Abril;2017;
GISLAN JUSTINO DE MEDEIROS;1.447,17;MOTORISTA (40h);N/A;N/A;Abril;2017;
GLADIANA LOPES DUARTE;2.076,68;AGENTE COM. DE SAUDE (40h);N/A;N/A;Abril;2017;
GLAUCIA FERNANDES DE AZEVEDO;4.300,00;ODONTÓLOGO EF -(40Hs);Estatutário;2015;Abril;2017;
GLEDSON MICHELL ALBERTO DE ARAUJO;1.025,14;MOTORISTA (40h);Estatutário;2015;Abril;2017;
GLENIO DE AZEVEDO ALVES;2.123,45;PROF. DE HISTÓRIA/CULTURA - II-A (30Hs);Estatutário;2016;Abril;2017;
GUSTAVO BASTOS MEI;994,07;MOTORISTA (40h);Estatutário;2015;Abril;2017;
GUSTAVO BATISTA DE ARAUJO;963,00;DIGITADOR (40h);Estatutário;2015;Abril;2017;
HÉBIA JANAÍNA NOBRE DE MEDEIROS;994,07;AUXILIAR DE SAUDE BUCAL (40Hs);Estatutário;2016;Abril;2017;
HELDER SHAKIELLY DE MEDEIROS;963,00;DIGITADOR (40h);Estatutário;2015;Abril;2017;
HELENA EUZEBIO DE ALMEIDA SANTOS;3.358,22;AUX. DE ENFERMAGEM;N/A;N/A;Abril;2017;
HELENA PINHEIRO DOS SANTOS;1.451,85;ASG EFETIVOS;Estatutário;1999;Abril;2017;
HELIMÁRIO MOREIRA PEREIRA ;3.250,00;SECRETARIO MUNICIPAL;Comissionado;2017;Abril;2017;
HERMINIO PEREIRA DE LUCENA NETO;2.500,00;CONTROLADOR(A);Comissionado;2017;Abril;2017;
HERVILA GABRIELA TAVARES DE MEDEIROS;3.400,00;ASSISTENTE SOCIAL EF (30H);Estatutário;2015;Abril;2017;
HIAGO VIEIRA GURGEL DE LIMA;2.123,45;PROF. DE HISTÓRIA/CULTURA - II-A (30Hs);Estatutário;2015;Abril;2017;
HISSA HAMYLLE MENEZES MOTA;3.400,00;ASSISTENTE SOCIAL EF (30H);Estatutário;2017;Abril;2017;
IAMANY LOPES GARCIA;5.142,27;ENFERMEIRO;Estatutário;2015;Abril;2017;
IARA KALIANE PINHEIRO DOS SANTOS;1.493,48;TECNICO DE ENFERMAGEM (40H);Estatutário;2015;Abril;2017;
IEDA SILVA DE LIMA;2.441,97;COORDENADOR PEDAGÓGICO II-A;N/A;N/A;Abril;2017;
ILANA CRUZ SILVA;963,00;CUIDADOR DE CRIANÇA (INFANTIL);Estatutário;2015;Abril;2017;
ILANY KELLE GOMES DE ARAUJO;937,00;CHEFE DO SETOR DE RECURSOS HUMANOS;Comissionado;2017;Abril;2017;
ILZA MARIA DE LIMA FERREIRA;1.578,33;AGENTE ADMINISTRATIVO (40h);Estatutário;1999;Abril;2017;
INÁCIA RIBEIRO MARIZ;2.123,45;INSPETOR ESCOLAR  II-A (30hs);Estatutário;2016;Abril;2017;
INACIO ELIZIARIO FERREIRA;1.704,35;GARI (40h);Estatutário;1998;Abril;2017;
INGRID INES DE AQUINO SANTOS;1.388,72;AGENTE ADMINISTRATIVO (30H);Estatutário;2005;Abril;2017;
IONARA DE SOUZA JANUARIO;4.800,00;ENFERMEIRO;Estatutário;2015;Abril;2017;
IRACEMA CAVALCANTE;1.403,00;TECNICO DE ENFERMAGEM (40H);Estatutário;2015;Abril;2017;
IRANILSA RAIMUNDA DOS SANTOS;3.583,22;PROF. II-A PFII-F (30H)*;N/A;N/A;Abril;2017;
IRANY DE BRITO LEITE CASSIANO;3.214,30;PROF. II-A PFII-C (30H)*;N/A;N/A;Abril;2017;
IRINEIDE ATANAZIO DE ARAÚJO SANTOS;1.451,85;ASG EFETIVOS;Estatutário;1999;Abril;2017;
ISA RAQUEL SOARES DE QUEIROZ;4.450,00;ENFERMEIRO;Estatutário;2016;Abril;2017;
ISABEL LIANA DE MEDEIROS AMARAL;1.387,60;AGENTE COM. DE SAUDE (40h);Estatutário;2015;Abril;2017;
ISMAEL ALMEIDA DA SILVA;1.163,80;MOTORISTA (40h);Estatutário;2015;Abril;2017;
IVAN DA SILVA MARINHO FILHO;2.000,00;ASSESSOR TECNICO NIV SUPERIOR;Comissionado;2017;Abril;2017;
IVANALDO RODRIGUES DE LIRA;2.194,70;GARI (40h);Estatutário;1986;Abril;2017;
IVANETE DA FONSECA DANTAS;2.123,45;INSPETOR ESCOLAR  II-A (30hs);Estatutário;2016;Abril;2017;
IVANETE MARIA DE MEDEIROS;2.159,91;ASG EFETIVOS;Estatutário;1988;Abril;2017;
IVO GOMES DA SILVA;2.935,22;PROF III-A PFIII-D (30H);Estatutário;1998;Abril;2017;
IVONALDO LOPES DE ARAÚJO;4.310,76;PROF. III-A PFIII-D (40H);Estatutário;1998;Abril;2017;
IVONALDO PEREIRA LOPES;1.578,33;AGENTE DE PORTARIA (40h);Estatutário;2000;Abril;2017;
IVONEIDE LOPES DE ARAUJO E SILVA;2.935,22;PROF III-A PFIII-D (30H);Estatutário;1998;Abril;2017;
IVONILDO LOPES DE ARAUJO;2.049,58;AGENTE COM. DE SAUDE (40h);Estatutário;1999;Abril;2017;
IZAMARA ALVES BEZERRA;963,00;AUXILIAR ADMINISTRATIVO (40Hs);Estatutário;2016;Abril;2017;
IZAURA MARIA BATISTA DE ARAUJO BEZERRA;937,00;CHEFE DO SETOR DE EPIDEMIOLOGIA;Comissionado;2017;Abril;2017;
JACILENE PEREIRA DE ARAUJO;963,00;CUIDADOR DE CRIANÇA (INFANTIL);Estatutário;2015;Abril;2017;
JAILMA RODRIGUES DE ARAUJO;1.756,84;AUX. DE ENFERMAGEM;N/A;N/A;Abril;2017;
JAILSON SERGIO DOS SANTOS;1.555,05;MOTORISTA (40h);Estatutário;2003;Abril;2017;
JAILSON SOUZA DO CARMO;2.514,63;PROF II-A PFII-D (30H);Estatutário;1998;Abril;2017;
JAIR MEDEIROS DE ARAUJO;760,00;ASG EFETIVOS;Estatutário;2017;Abril;2017;
JALMIR FERREIRA DE LIMA;3.913,64;PROF. III-A PFIII-D (40H);N/A;N/A;Abril;2017;
JAMISON GONZAGA DE SOUZA;1.400,00;SECRETARIO ADJUNTO;Comissionado;2017;Abril;2017;
JANAINA CRISTINA CÍCERO DE BRITO;968,07;VICE DIRETOR (A);Comissionado;2017;Abril;2017;
JANAINA DA SILVA TEIXEIRA;2.441,97;COORDENADOR PEDAGÓGICO II-A;N/A;N/A;Abril;2017;
JANAINA DE LIMA FERREIRA;2.123,45;PROF POLIVAL ENS INFANTIL - II-A (30Hs);Estatutário;2015;Abril;2017;
JANAINA TORRES DE ARAUJO;3.400,00;ADVOGADO;Estatutário;2015;Abril;2017;
JANAT ERIKA FERNANDES DE MEDEIROS;1.279,67;CUIDADOR DE CRIANÇA (INFANTIL);Estatutário;2015;Abril;2017;
JANE KECIA DE MEDEIROS;2.123,45;PROF POLIVAL ENS INFANTIL - II-A (30Hs);Estatutário;2015;Abril;2017;
JANILSON PAULO FERREIRA DA SILVA;1.300,00;DIRETOR DO DEPARTAMENTO DE ESPORTES;Comissionado;2017;Abril;2017;
JAURI DE FREITAS SANTOS;1.578,32;ELETRICISTA (40h);Estatutário;1998;Abril;2017;
JEANNE ALVES DO AMARAL;1.451,85;ASG EFETIVOS;Estatutário;1998;Abril;2017;
JECKSON PEREIRA DA SILVA MATIAS;1.279,67;MOTORISTA (40h);Estatutário;2015;Abril;2017;
JERLÂNIA FRANCISCA NERES;1.300,00;DIRETORA DO DPTO DE PLANEJAMENTO E REC HUMANOS;Comissionado;2017;Abril;2017;
JESSICA DANTAS XAVIER;3.400,00;NUTRICIONISTA EF (40Hs);Estatutário;2016;Abril;2017;
JESSICA FERNANDA DE MEDEIROS JUSTINIANO;2.123,45;PROF. DE LINGUA PORTUGUESA - II-A (30Hs);Estatutário;2016;Abril;2017;
JESSICA VICENTE DE SOUZA;1.058,00;AGENTE SOCIAL (40H);Estatutário;2015;Abril;2017;
JESSYCA LUANA SANTOS BRITO;4.233,33;PSICÓLOGO(A) - 40Hs;Estatutário;2015;Abril;2017;
JOAILSON LIMA DE ARAUJO;2.289,76;GARI (40h);Estatutário;1987;Abril;2017;
JOALSE ALVES DE BRITO;1.520,09;PROF. ENS. FUNDAMENTAL - I (30Hs);Estatutário;2017;Abril;2017;
JOANA DARC DE MOURA SILVA;1.335,66;DIGITADOR (40h);N/A;N/A;Abril;2017;
JOAO ALVES DE ARAÚJO;1.578,33;AGENTE ADMINISTRATIVO (40h);Estatutário;1998;Abril;2017;
JOAO BATISTA DE BRITO;20.000,00;MEDICO;CONTRATADO (PGF);2016;Abril;2017;
JOAO BATISTA DE SOUZA;937,00;VICE DIRETOR (A);Cedido;2017;Abril;2017;
JOAO BATISTA DUTRA;2.326,68;AGENTE COM. DE SAUDE (40h);N/A;N/A;Abril;2017;
JOAO FELICIANO DO CARMO JUNIOR;1.451,85;PEDREIRO (40h);Estatutário;2000;Abril;2017;
JOAO LOPES DE ARAUJO NETO;2.166,68;AGENTE COM. DE SAUDE (40h);N/A;N/A;Abril;2017;
JOAO MARIA PEREIRA;1.648,66;AGENTE SERV.ESPORTIVO;N/A;N/A;Abril;2017;
JOAO PAULO DA SILVA;1.249,33;CONSELHEIRO (40h);Eletivo;2016;Abril;2017;
JOAO PAULO SEGUNDO COSTA;841,38;ASG EFETIVOS;Estatutário;2017;Abril;2017;
JOAQUIM ALVES DA COSTA NETO;963,00;DIGITADOR (40h);Estatutário;2015;Abril;2017;
JOAQUIM BARROS DOS SANTOS;2.257,42;FISCAL DE TRIBUTOS (40h);Estatutário;1986;Abril;2017;
JOCIVAN CONSTANTINO PEREIRA;2.394,57;TECNICO DE ENFERMAGEM (30);N/A;N/A;Abril;2017;
JOELMA BATISTA DE ARAUJO;2.157,49;ASG EFETIVOS;Estatutário;1987;Abril;2017;
JOELMA DE FATIMA LOPES DE MEDEIROS;1.578,33;AGENTE ADMINISTRATIVO (20H);Estatutário;1998;Abril;2017;
JOELMA GALDINO DE ALENCAR ALEXANDRE;2.849,74;PROF. III-A PFIII-C (30H)*;Estatutário;1999;Abril;2017;
JOHNY LOPES DE ARAUJO;1.025,14;MOTORISTA (40h);Estatutário;2015;Abril;2017;
JOILMA ANTONIA DA SILVA ESTEVAM;1.451,85;ASG EFETIVOS;Estatutário;1999;Abril;2017;
JOILMA OLIVEIRA DE ARAÚJO;1.601,81;ASG EFETIVOS;Estatutário;1998;Abril;2017;
JONATHAN CLEMENTE DE OLIVEIRA E SILVA;963,00;AUXILIAR ADMINISTRATIVO (40Hs);Estatutário;2016;Abril;2017;
JONNHY VALE DE FIGUEIREDO;5.040,00;BIOQUIMICO-EF (40Hs);Estatutário;2016;Abril;2017;
JORGE LUIZ GURGEL GUERRA JUNIOR;963,00;MOTORISTA (40h);Estatutário;2015;Abril;2017;
JOSE ANTONIO BATISTA DE ARAUJO;2.326,68;AGENTE COM. DE SAUDE (40h);N/A;N/A;Abril;2017;
JOSE ANTONIO BATISTA DE ARAUJO;2.622,49;MOTORISTA (40h);Estatutário;1987;Abril;2017;
JOSE CARLOS DE ALMEIDA;937,00;FACILITADOR DE OFICINAS DE CAPOEIRA DO SCFV;CONTRATADO;2017;Abril;2017;
JOSE DE ANCHIETA ARAUJO MEDEIROS;1.451,85;ASG EFETIVOS;Estatutário;1998;Abril;2017;
JOSE DE ANCHIETA BATISTA DOS SANTOS;1.578,33;FISCAL DE TRIBUTOS (40h);Estatutário;1999;Abril;2017;
JOSE FRANCISCO DA SILVA;1.889,58;AGENTE COM. DE SAUDE (40h);Estatutário;2000;Abril;2017;
JOSE JOANILSON BEZERRA DE ALMEIDA;2.326,68;AGENTE COM. DE SAUDE (40h);N/A;N/A;Abril;2017;
JOSE JOAQUIM BEZERRA;2.091,94;ASG EFETIVOS;Estatutário;1984;Abril;2017;
JOSE JOAQUIM DOS SANTOS FILHO;1.966,79;GARI (40h);Estatutário;1998;Abril;2017;
JOSÉ JOSEMIR DA TRINDADE SILVA;1.706,14;MOTORISTA (40h);N/A;N/A;Abril;2017;
JOSE PEDRO DE ARAUJO NETO;7.800,00;VICE-PREFEITO;Comissionado;2017;Abril;2017;
JOSE PEREIRA DA SILVA;2.144,25;GARI (40h);Estatutário;1998;Abril;2017;
JOSÉ PETRÔNIO DANTAS DE ARAUJO;963,00;MOTORISTA (40h);Estatutário;2015;Abril;2017;
JOSE ROMUALDO DA CRUZ;1.451,85;ASG EFETIVOS;Estatutário;1999;Abril;2017;
JOSÉ TAIRONE COSTA DE MEDEIROS;1.269,60;AGENTE COMUNITARIO DE COMBATE ÀS ENDEMIAS;Estatutário;2015;Abril;2017;
JOSE VIANA DE SALES;2.363,15;MOTORISTA (40h);N/A;N/A;Abril;2017;
JOSE VIANA DE SALES JUNIOR;1.150,00;CHEFE DO SETOR DE COMPRAS;Comissionado;2017;Abril;2017;
JOSE VIEIRA FILHO;1.801,76;GARI (40h);Estatutário;1998;Abril;2017;
JOSEANE MARIA ESTEVAM DA SILVA;1.304,59;ASG EFETIVOS;Estatutário;2003;Abril;2017;
JOSEANE SARAIVA DE OLIVEIRA;1.400,00;SECRETARIO ADJUNTO;Comissionado;2017;Abril;2017;
JOSEFA BEZERRA DE BRITO ;1.917,60;PROF. I-A PFI-F (30H)*;Estatutário;1984;Abril;2017;
JOSEMIR LOPES DE ALMEIDA;1.451,85;ASG EFETIVOS;Estatutário;1998;Abril;2017;
JOSENILDA MARIA DA SILVA;1.578,33;AGENTE ADMINISTRATIVO (40h);Estatutário;1998;Abril;2017;
JOSILANE MARINHO QUEIROZ;1.799,58;AGENTE COM. DE SAUDE (40h);Estatutário;1997;Abril;2017;
JOSILENE MOURA DOS SANTOS;1.414,66;ASG EFETIVOS;Estatutário;1998;Abril;2017;
JOSILMA OLIVEIRA DA SILVA MOURA;2.590,68;PROF. II-A PFII-C (30H)*;Estatutário;1999;Abril;2017;
JOSIMAR MARQUES DE OLIVEIRA;1.837,54;AGENTE COM. DE SAUDE (40h);Estatutário;2002;Abril;2017;
JOSIMARIA SILVA DE ARAÚJO;2.935,22;PROF III-A PFIII-D(30H);Estatutário;1998;Abril;2017;
JOSINEIDE SOARES DO NASCIMENTO;1.273,52;ASG EFETIVOS;Estatutário;2004;Abril;2017;
JOSUE JOAO ALEXANDRE DA SILVA;999,14;CONSELHEIRO (40h);Eletivo;2016;Abril;2017;
JOSUE LUCIO DE ARAUJO;1.989,16;GARI (40h);N/A;N/A;Abril;2017;
JOYCE RAYMIZAM GOMES DOS SANTOS;963,00;RECEPCIONISTA -EF (40Hs);Estatutário;2015;Abril;2017;
JOZEILMA MATEUS DA SILVA;1.601,81;ASG EFETIVOS;Estatutário;1999;Abril;2017;
JUAREZ GARCIA DO AMARAL;1.451,85;MOTORISTA (40h);Estatutário;1998;Abril;2017;
JUCIARA DA SILVA TEIXEIRA;2.441,97;COORDENADOR PEDAGÓGICO II-A;N/A;N/A;Abril;2017;
JUCILENE MARIA DE ARAUJO TRIUNFO;2.935,22;PROF III-A PFIII-D (30H);Estatutário;1998;Abril;2017;
JUCIMAR PEREIRA DANTAS;3.250,00;SECRETARIO MUNICIPAL;Comissionado;2017;Abril;2017;
JULIANA GOMES CORTES;1.403,00;TECNICO DE ENFERMAGEM (40H);Estatutário;2015;Abril;2017;
JULIANNE GABRIELLE TAVARES DE MEDEIROS;728,33;ASG EFETIVOS;Estatutário;2017;Abril;2017;
JULIETA BATISTA DE ALMEIDA;1.601,81;ASG EFETIVOS;Estatutário;1998;Abril;2017;
JULIO GREGORIO DE AZEVEDO;8.800,00;MEDICO PLANTONISTA;CONTRATADO (PGF);2017;Abril;2017;
JULYANA COSTA CABRAL;2.050,00;FISIOTERAPEUTA EF - (20hS);Estatutário;2015;Abril;2017;
JURCELIA PEREIRA DANTAS;1.451,85;ASG EFETIVOS;Estatutário;1998;Abril;2017;
KATIA CILENE DA SILVA BARBOSA;2.935,22;PROF III-A PFIII-D (30H);Estatutário;1998;Abril;2017;
KATIENY MIRRAELLY DE PONTES DOS SANTOS;999,14;CHEFE DE SETOR DE ALMOXARIFADO;Comissionado;2017;Abril;2017;
KEDILVA ARAÚJO DE MEDEIROS CABRAL;4.513,05;PROF. III-A PFIII-F (40)*;Estatutário;1988;Abril;2017;
KELLY SOLANGE DE MEDEIROS;1.058,00;COORDENADOR ADMINISTRATIVO;Estatutário;2017;Abril;2017;
KENNIA KELLY DE BRITO ARAUJO;937,00;ORIENTADOR SOCIAL (40H);CONTRATADO;2017;Abril;2017;
KEYWERTON DE VASCONCELOS BRITO;994,07;MOTORISTA (40h);Estatutário;2015;Abril;2017;
LAIR FERNANDES DA SILVA;2.808,59;MOTORISTA (40h);Estatutário;1984;Abril;2017;
LAIS REGINA DA COSTA PEREIRA;4.300,00;ODONTÓLOGO EF -(40Hs);Estatutário;2015;Abril;2017;
LAUDECI OLIVEIRA DOS SANTOS;1.756,84;AUX. DE ENFERMAGEM;N/A;N/A;Abril;2017;
LAUDENISIA FERREIRA DA CRUZ;3.699,45;PROF. II-A PFII-F (30H)*;N/A;N/A;Abril;2017;
LAUDINEIDE CONSTANTINO DE ARAUJO;2.935,22;PROF III-A PFIII-D (30H);Estatutário;1998;Abril;2017;
LAVOISIER PEREIRA COSTA;1.335,66;DIGITADOR (40h);N/A;N/A;Abril;2017;
LAYANNE DE MEDEIROS COSTA ALMEIDA;2.123,45;PROF. ENS. FUNDAMENTAL - I (30Hs);Estatutário;2015;Abril;2017;
LAZARO DAMIAO DA SILVA;1.273,52;ASG EFETIVOS;Estatutário;2004;Abril;2017;
LEANDRO MORAIS GIFFONE OVIDIO;4.650,00;ODONTÓLOGO EF -(40Hs);Estatutário;2015;Abril;2017;
LEILANIA RODRIGUES DE SOUZA;783,82;ASG EFETIVOS;Estatutário;2017;Abril;2017;
LENI CAMPANHA DA SILVA;1.451,85;AUX. DE ENFERMAGEM;Estatutário;1999;Abril;2017;
LENI SOARES DE BRITO;4.512,05;PROF. III-A PFIII-F (40)*;Estatutário;1988;Abril;2017;
LENIRA FIRMINO DE SOUZA ARAÚJO;3.403,72;PROF III-A PFIII-D (30H);Estatutário;1998;Abril;2017;
LENIVANIA MARIA OLEGARIO DE OLIVEIRA;2.849,74;PROF. III-A PFIII-C (30H)*;Estatutário;1999;Abril;2017;
LEONILDES DA SILVA COSTA;2.591,95;COORDENADOR PEDAGÓGICO II-A;Estatutário;2015;Abril;2017;
LIDIA RODRIGUES DA COSTA;1.403,00;TECNICO DE ENFERMAGEM (40H);Estatutário;2015;Abril;2017;
LIDIANE CRISTINA DE ARAUJO;1.800,00;DIRETOR ADM DA UNIDADE HOSPITALAR;Comissionado;2017;Abril;2017;
LINDALVA BATISTA DE ARAÚJO;2.889,95;PROF. I-A PFI-F (30H)*;Estatutário;1977;Abril;2017;
LINDALVA SILVESTRE DE VASCONCELOS;3.166,69;PROF III-A PFIII-D(30H);N/A;N/A;Abril;2017;
LINDEMBERG CLEMENTE BARBOSA;2.298,44;COVEIRO (40h);N/A;N/A;Abril;2017;
LINDOELSON CLEMENTINO DE MORAIS;1.071,80;MOTORISTA (40h);Estatutário;2015;Abril;2017;
LINDOMAR SILVESTRE DE VASCONCELOS;2.199,58;AGENTE COM. DE SAUDE (40h);Estatutário;2000;Abril;2017;
LIZANDRA MARIA DE ARAUJO;1.184,07;TECNICO DE ENFERMAGEM (40H);Estatutário;2015;Abril;2017;
LIZANDRA MEDEIROS DOS SANTOS;2.123,45;PROF. DE LINGUA PORTUGUESA - II-A (30Hs);Estatutário;2015;Abril;2017;
LUCIA DE FATIMA DA SILVA BARBOSA;2.049,58;AGENTE COM. DE SAUDE (40h);Estatutário;2000;Abril;2017;
LUCIA ELIZABETH BEZERRA SOARES;1.113,68;PROF. I-A PFI-A (30H) (10EF);N/A;N/A;Abril;2017;
LUCIA MARGARETE EETEVAM DE ARAÚJO;1.451,85;ASG EFETIVOS;Estatutário;1998;Abril;2017;
LUCIANA MEDEIROS DE OLIVEIRA;2.123,45;PROF. ENS. FUNDAMENTAL - I (30Hs);Estatutário;2015;Abril;2017;
LUCICLEIDE DAS CHAGAS PEREIRA;2.643,77;AGENTE COM. DE SAUDE (40h);Estatutário;2000;Abril;2017;
LUCIDESTO RODRIGUES DA CRUZ;1.751,78;PEDREIRO (40h);Estatutário;2000;Abril;2017;
LUCIENE RUFINO DA SILVA;1.304,59;ASG EFETIVOS;Estatutário;2003;Abril;2017;
LUCIMEIRE RODRIGUES DA SILVA;1.133,00;AUXILIAR DE SAUDE BUCAL (40Hs);Estatutário;2015;Abril;2017;
LUCINETE VALENTIM DE MEDEIROS ARAUJO;2.849,74;PROF. III-A PFIII-C (30H)*;Estatutário;2000;Abril;2017;
LUCIVANIA MARIA DE OLIVEIRA;2.501,84;AUX. DE ENFERMAGEM;Estatutário;1998;Abril;2017;
LUIZ BALBINO ARAUJO FILHO;1.301,34;ASG EFETIVOS;Estatutário;2009;Abril;2017;
LUIZ GONZAGA DA CRUZ;1.756,84;MOTORISTA (40h);N/A;N/A;Abril;2017;
LUIZA CARLA DA COSTA;601,67;ASG EFETIVOS;Estatutário;2017;Abril;2017;
LUZANILDA LOPES DE ALENCAR;3.583,78;PROF. III-A PFIII-F (30)*;N/A;N/A;Abril;2017;
LUZIA MARIA ALVES DE ARAUJO;1.982,72;INSPETOR ESCOLAR  II-A (30hs);Estatutário;2015;Abril;2017;
LUZIA PAULINA DOS SANTOS BRITO;1.304,59;ASG EFETIVOS;Estatutário;2003;Abril;2017;
LUZIA RAQUEL DA COSTA SILVA;2.453,90;PROF POLIVAL ENS INFANTIL - II-A (30Hs);Estatutário;2015;Abril;2017;
LUZINETE FIRMINO DE SOUZA;1.335,66;ASG EFETIVOS;Estatutário;2003;Abril;2017;
MACIÉLIO ALVES DE MEDEIROS;1.200,00;OPERADOR DE MOTO NIVELADORA - EF;Estatutário;2015;Abril;2017;
MACILON BEZERRA DE ARAÚJO NETO;3.250,00;SECRETARIO MUNICIPAL;Comissionado;2017;Abril;2017;
MADSON CESAR DOS SANTOS SILVA;999,14;CHEFE DO SETOR DE INFORMATICA;Comissionado;2017;Abril;2017;
MAGALLY DE ARAUJO VIEIRA DE MELO;3.400,00;ASSISTENTE SOCIAL EF (30H);Estatutário;2015;Abril;2017;
MAGUILON SOARES GOMES;2.935,22;PROF III-A PFIII-D (30H);Estatutário;1998;Abril;2017;
MANACES DE BRITO NERI;1.555,05;MOTORISTA (40h);Estatutário;2003;Abril;2017;
MANOEL FELICIANO DA CRUZ FILHO;1.639,25;GARI (40h);Estatutário;1998;Abril;2017;
MARCELO JOSE DE LIMA;3.913,64;PROF. III-A PFIII-D (40H);N/A;N/A;Abril;2017;
MARCIA REGINA DE ARAUJO;1.996,84;AUX. DE ENFERMAGEM;N/A;N/A;Abril;2017;
MARCIELMA DOS SANTOS ARAUJO;2.453,90;PROF. ENS. FUNDAMENTAL - I (30Hs);Estatutário;2015;Abril;2017;
MARCILENE SHEYLA BESERRA DE OLIVEIRA;1.089,07;COORD. ADMINISTRATIVO-EF (40Hs);Estatutário;2015;Abril;2017;
MARCIVANIA ARAUJO DE MEDEIROS ALVES;1.451,85;ATENDENTE DE ENFERMAGEM;Estatutário;1998;Abril;2017;
MARCONDES MEDEIROS DA SILVA;1.269,60;AGENTE COMUNITARIO DE COMBATE ÀS ENDEMIAS;Estatutário;2015;Abril;2017;
MARCOS ANTONIO DANTAS DE ARAÚJO;3.654,27;PROF. III-A PFIII-D (40H);Estatutário;1998;Abril;2017;
MARCOS HENRIQUE PEREIRA DA SILVA;1.520,73;DIRETOR DO SETOR DE INFRAESTRUTURA;Comissionado;2017;Abril;2017;
MARGARETH SOARES;3.520,18;PROF. III-A PFIII-F (30)*;Estatutário;1982;Abril;2017;
MARGARIDA ANA DOS SANTOS;1.451,85;AUX. DE ENFERMAGEM;Estatutário;1999;Abril;2017;
MARGARIDA BEZERRA SOBRINHO;2.935,22;PROF III-A PFIII-D (30H);Estatutário;1998;Abril;2017;
MARGARIDA IVONETE DE ARAUJO LOPES;2.883,96;PROF. II-A PFII-C (30H)*;Estatutário;1999;Abril;2017;
MARGARIDA MARIA DA SILVA;2.199,58;AGENTE COM. DE SAUDE (40h);Estatutário;1998;Abril;2017;
MARGARIDA OLIMPIA DE PAIVA CARMO;3.200,14;PROF. II-A PFII-F (30H)*;N/A;N/A;Abril;2017;
MARGARIDA SEGUNDA DE ARAUJO SOARES;1.335,66;DIGITADOR (40h);N/A;N/A;Abril;2017;
MARIA ADRIANA DA SILVA;1.244,07;AUXILIAR DE SAUDE BUCAL (40Hs);Estatutário;2015;Abril;2017;
MARIA ADRINA PEREIRA DA SILVA;1.601,81;ASG EFETIVOS;Estatutário;2000;Abril;2017;
MARIA ALDENICE BATISTA DA R.ESTEVAM;1.578,33;AGENTE ADMINISTRATIVO (40h);Estatutário;1999;Abril;2017;
MARIA ALVES BATISTA;937,00;CHEFE DE SETOR DE PROTEÇÃO SOCIAL BASICA;Comissionado;2017;Abril;2017;
MARIA AMELIA CAMARA PEREIRA;1.451,85;AUX. DE ENFERMAGEM;Estatutário;1998;Abril;2017;
MARIA APARECIDA BATISTA PEREIRA DE ARAUJO;3.987,58;AUX. DE ENFERMAGEM;Estatutário;1988;Abril;2017;
MARIA APARECIDA CRUZ LOPES;1.578,33;AGENTE ADMINISTRATIVO (20H);Estatutário;1998;Abril;2017;
MARIA APARECIDA MOURA DE SOUZA;2.740,70;PROF III-A PFIII-D (30H);Estatutário;1998;Abril;2017;
MARIA AUCILENE DE JESUS SILVA;1.451,85;ASG EFETIVOS;Estatutário;1999;Abril;2017;
MARIA AURÉLIA DE MORAIS NETA NUNES;968,07;CHEFE DO SETOR ADMINISTRATIVO DO CAPS;Comissionado;2017;Abril;2017;
MARIA AUXILIADORA DA SILVA;4.619,43;PROF. II-A PFII-F (40H)*;Estatutário;1984;Abril;2017;
MARIA BETANIA ALMEIDA DE MEDEIROS;1.451,85;ASG EFETIVOS;Estatutário;1999;Abril;2017;
MARIA CONCEIÇÃO ALVES DE MEDEIROS;1.431,85;ASG EFETIVOS;Estatutário;1998;Abril;2017;
MARIA CONCEIÇÃO DE SOUZA MARQUES;1.578,33;TELEFONISTA (40h);Estatutário;1999;Abril;2017;
MARIA CRISTINA DE ARAUJO;1.823,48;TECNICO DE ENFERMAGEM (40H);Estatutário;2015;Abril;2017;
MARIA DA CONCEIÇÃO ALVES DE MOURA;937,00;CHEFE DE SETOR EXECUTIVO DOS CONSELHOS;Comissionado;2017;Abril;2017;
MARIA DA CONCEIÇÃO DA SILVA;1.481,85;ASG EFETIVOS;Estatutário;1998;Abril;2017;
MARIA DA CONCEIÇAO DE MOURA;1.945,05;AUX. DE ENFERMAGEM;N/A;N/A;Abril;2017;
MARIA DA CONCEIÇÃO L DA SILVA;2.199,58;AGENTE COM. DE SAUDE (40h);Estatutário;2000;Abril;2017;
MARIA DA CONCEIÇÃO NERY DA SILVA;2.935,22;PROF III-A PFIII-D(30H);Estatutário;1998;Abril;2017;
MARIA DA GLORIA AMANCIO DA SILVA;5.295,49;PROF. III-A PFIII-F (40)*;Estatutário;1981;Abril;2017;
MARIA DA GLORIA DOS SANTOS;1.273,52;ASG EFETIVOS;Estatutário;2003;Abril;2017;
MARIA DA GUIA DA CRUZ LOPES;2.740,70;PROF III-A PFIII-D (30H);N/A;N/A;Abril;2017;
MARIA DA GUIA DE VASCONCELOS;2.046,85;AUX. DE ENFERMAGEM;Estatutário;1998;Abril;2017;
MARIA DA GUIA LOPES BEZERRA;2.269,62;PROF. I-A PFI-B (30H)*;Estatutário;2002;Abril;2017;
MARIA DA GUIA PAULINO DOS SANTOS;2.941,08;PROF. II-A PFII-C (30H)*;Estatutário;2000;Abril;2017;
MARIA DA GUIA SILVA DE OLIVEIRA;1.451,85;ASG EFETIVOS;Estatutário;2000;Abril;2017;
MARIA DA GUIA TOMAZ DE AQUINO;1.416,34;ASG EFETIVOS;Estatutário;2003;Abril;2017;
MARIA DA LUZ DE LUCENA;3.286,88;PROF. III-A PFIII-F (30)*;Estatutário;1986;Abril;2017;
MARIA DA NATIVIDADE LOPES DA COSTA;1.451,85;ASG EFETIVOS;Estatutário;1998;Abril;2017;
MARIA DA PAZ DE ARAUJO;4.513,05;PROF. III-A PFIII-F (40)*;Estatutário;1987;Abril;2017;
MARIA DA PAZ DE FIGUEIREDO;2.590,51;PROF. II-A PFII-C (30H)*;N/A;N/A;Abril;2017;
MARIA DA PAZ LEITE DE OLIVEIRA;2.768,83;PROF. III-A PFIII-C (30H)*;Estatutário;2003;Abril;2017;
MARIA DAGUIA ALVES FELICIANO;400,00;CARGO REQUISITADO;Cedido;2017;Abril;2017;
MARIA DAMIANA NERI DA SILVA;2.045,70;TECNICO DE ENFERMAGEM (30);Estatutário;1998;Abril;2017;
MARIA DANUBIA BATISTA FONSECA;1.451,85;ASG EFETIVOS;Estatutário;1998;Abril;2017;
MARIA DARC ALMEIDA DE MEDEIROS;2.257,42;AGENTE ADMINISTRATIVO (40h);Estatutário;1986;Abril;2017;
MARIA DAS DORES ALEXANDRE DE MEDEIROS;1.451,85;ASG EFETIVOS;Estatutário;1998;Abril;2017;
MARIA DAS DORES FERREIRA;2.668,41;PROF II-A PFII-D (30H);N/A;N/A;Abril;2017;
MARIA DAS GRACAS ALVES DA SILVA;3.332,42;PROF III-A PFIII-D(30H);Estatutário;1999;Abril;2017;
MARIA DAS GRACAS ALVES NUNES SANTOS;2.889,95;PROF. I-A PFI-F (30H)*;Estatutário;1979;Abril;2017;
MARIA DAS GRAÇAS JUSTINO DE ARAÚJO;2.590,68;PROF. II-A PFII-C (30H)*;Estatutário;1998;Abril;2017;
MARIA DAS GRAÇAS LOPES DE ARAUJO;1.273,52;GARI (40h);Estatutário;2003;Abril;2017;
MARIA DAS GRACAS SALUSTIANO DE SOUZA;2.049,58;AGENTE COM. DE SAUDE (40h);Estatutário;2000;Abril;2017;
MARIA DAS GRACAS SANTOS DE MEDEIROS;2.123,45;PROF. ENS. FUNDAMENTAL - I (30Hs);Estatutário;2015;Abril;2017;
MARIA DAS NEVES BEZERRA DA SILVA;1.451,85;COZINHEIRO (40);Estatutário;1998;Abril;2017;
MARIA DAS NEVES DE BRITO DINIZ;1.378,26;ASG EFETIVOS;N/A;N/A;Abril;2017;
MARIA DE FATIMA ALVES DE ARAUJO;1.335,66;AUX. DE ENFERMAGEM;N/A;N/A;Abril;2017;
MARIA DE FATIMA BEZERRA OLIVEIRA;3.116,03;PROF. I-A PFI-F (30H)*;N/A;N/A;Abril;2017;
MARIA DE FATIMA DE ARAUJO;1.578,33;AGENTE DE PORTARIA (40h);Estatutário;2000;Abril;2017;
MARIA DE FATIMA LOPES FERNANDES;1.451,85;ASG EFETIVOS;Estatutário;1998;Abril;2017;
MARIA DE FATIMA MOURA DA SILVA;2.076,68;AGENTE COM. DE SAUDE (40h);N/A;N/A;Abril;2017;
MARIA DE FATIMA SANTANA DE L ALMEIDA;1.451,85;ASG EFETIVOS;Estatutário;1999;Abril;2017;
MARIA DE JESUS DOS SANTOS ARAUJO;2.206,08;AUX. DE ENFERMAGEM;Estatutário;1998;Abril;2017;
MARIA DE LOURDES;1.451,85;AUX. DE ENFERMAGEM;Estatutário;1998;Abril;2017;
MARIA DE LOURDES DA COSTA;2.526,30;AUX. DE ENFERMAGEM;Estatutário;1986;Abril;2017;
MARIA DE LOURDES DA SILVA;2.252,88;PROF. I-A PFI-C (30H)*;Estatutário;2000;Abril;2017;
MARIA DE LOURDES DE MEDEIROS NETA;1.451,85;ASG EFETIVOS;Estatutário;1998;Abril;2017;
MARIA DILMA FERNANDES DE ARAUJO;2.049,58;AGENTE COM. DE SAUDE (40h);Estatutário;2000;Abril;2017;
MARIA DO CARMO PEREIRA DA SILVA;1.791,12;AGENTE COM. DE SAUDE (40h);Estatutário;2006;Abril;2017;
MARIA DO CEU FRANCELINO SOARES;1.451,85;ASG EFETIVOS;Estatutário;1998;Abril;2017;
MARIA DO CEU ROQUE;1.601,81;ASG EFETIVOS;Estatutário;1998;Abril;2017;
MARIA DO ROSARIO LOPES;2.011,47;AGENTE ADMINISTRATIVO (40h);N/A;N/A;Abril;2017;
MARIA DO ROSARIO PEREIRA DE MEDEIROS;1.296,51;AGENTE COM. DE SAUDE (40h);N/A;N/A;Abril;2017;
MARIA DO SOCORRO DAVID DE SALES;1.304,59;ASG EFETIVOS;Estatutário;2003;Abril;2017;
MARIA DO SOCORRO DE BRITO DINIZ ;1.850,59;AUX. DE ENFERMAGEM;N/A;N/A;Abril;2017;
MARIA DO SOCORRO GOMES DE ARAUJO;3.374,47;PROF. III-A PFIII-F (30)*;Estatutário;1988;Abril;2017;
MARIA DO SOCORRO GOMES DE ARAUJO;2.935,22;PROF III-A PFIII-D (30H);Estatutário;1998;Abril;2017;
MARIA DO SOCORRO NERY DA SILVA;2.935,22;PROF III-A PFIII-D(30H);Estatutário;1998;Abril;2017;
MARIA DO SOCORRO SOARES TEIXEIRA;3.318,07;SUPERVISOR II-A SPIII-D (30)*;N/A;N/A;Abril;2017;
MARIA DULCINEIDE MARTINS PINHEIRO;1.623,60;TECNICO DE ENFERMAGEM (40H);Estatutário;2015;Abril;2017;
MARIA EDILEUSA ALVES SOARES;1.304,59;AUX. DE ENFERMAGEM;Estatutário;2006;Abril;2017;
MARIA ELITA DE SOUZA;4.513,05;PROF. III-A PFIII-F (40)*;Estatutário;1988;Abril;2017;
MARIA ELIZABETE ARAUJO DE MEDEIROS;2.932,73;AGENTE COM. DE SAUDE (40h);Estatutário;1996;Abril;2017;
MARIA ELIZABETH DE LIMA FELICIANO SOARES;1.386,51;AGENTE COM. DE SAUDE (40h);N/A;N/A;Abril;2017;
MARIA ELIZETE DE ARAUJO;2.849,74;PROF. III-A PFIII-C (30H)*;Estatutário;2000;Abril;2017;
MARIA ELZA TEIXEIRA ;2.514,89;PROF. II-A PFII-B (30H)*;Estatutário;2000;Abril;2017;
MARIA FRANCISCA ALEXANDRE DA CRUZ;1.451,85;ASG EFETIVOS;Estatutário;1998;Abril;2017;
MARIA FRANCISCA MOURA DE SOUZA;2.935,22;PROF III-A PFIII-D (30H);Estatutário;1998;Abril;2017;
MARIA FRANCISCA PINHEIRO DA CRUZ;2.252,88;PROF. I-A PFI-C (30H)*;Estatutário;1998;Abril;2017;
MARIA GEOVANIA OLIVEIRA DE SOUSA;2.123,45;PROF POLIVAL ENS INFANTIL - II-A (30Hs);Estatutário;2015;Abril;2017;
MARIA GOMES DE ARAÚJO;4.268,19;PROF. III-A PFIII-C (40H)*;Estatutário;1999;Abril;2017;
MARIA GORETH DE ARAUJO;1.756,84;AUX. DE ENFERMAGEM;N/A;N/A;Abril;2017;
MARIA HELENA DA CONCEICAO;1.859,91;ASG EFETIVOS;Estatutário;1988;Abril;2017;
MARIA HELENISE MOREIRA PEREIRA;2.455,18;AGENTE COM. DE SAUDE (40h);N/A;N/A;Abril;2017;
MARIA ILZA NERY;3.677,35;PROF. II-A PFII-F (30H)*;N/A;N/A;Abril;2017;
MARIA IRANICE JALES LOPES;1.378,26;ASG EFETIVOS;N/A;N/A;Abril;2017;
MARIA IRANILCE FERREIRA FREIRE;1.601,81;ASG EFETIVOS;Estatutário;1999;Abril;2017;
MARIA JOILMA DE BRITO;1.451,85;AUX. DE ENFERMAGEM;Estatutário;1999;Abril;2017;
MARIA JOSE ALEXANDRE;1.451,85;ASG EFETIVOS;Estatutário;1998;Abril;2017;
MARIA JOSE ARAUJO LOPES DE SA;4.860,00;AGENTE ADMINISTRATIVO (40h);Comissionado;1979;Abril;2017;
MARIA JOSE BEZERRA DE ARAUJO;2.675,90;PROF. I-A PFI-F (30H)*;Estatutário;1988;Abril;2017;
MARIA JOSE DA SILVA DANTAS;2.076,68;AGENTE COM. DE SAUDE (40h);N/A;N/A;Abril;2017;
MARIA JOSE DE ARAUJO;2.381,84;AUX. DE ENFERMAGEM;Estatutário;1998;Abril;2017;
MARIA JOSE DE SOUZA;3.655,57;PROF. III-A PFIII-F (30)*;N/A;N/A;Abril;2017;
MARIA JOSE DUTRA DE ARAUJO;2.547,78;ASG EFETIVOS;N/A;N/A;Abril;2017;
MARIA JOSE NERY;2.252,88;PROF. I-A PFI-C (30H)*;Estatutário;1998;Abril;2017;
MARIA JOSE SOARES DE FREITAS;1.213,00;AUXILIAR DE SAUDE BUCAL (40Hs);Estatutário;2015;Abril;2017;
MARIA LEIDIANE DE QUEIROZ;2.123,45;PROF. DE CIENCIAS DA NATUREZA - II-A (30Hs);Estatutário;2016;Abril;2017;
MARIA LIDIANE DE ALMEIDA BATISTA;2.123,45;PROF POLIVAL ENS INFANTIL - II-A (30Hs);Estatutário;2016;Abril;2017;
MARIA LUCIA DE MOURA;4.365,70;PROF III-A PFIII-D(30H);Estatutário;1998;Abril;2017;
MARIA LUCIA PEREIRA DE ARAUJO SILVA;1.705,19;TECNICO DE CONTABILIDADE;Estatutário;1999;Abril;2017;
MARIA LUCIENE DA SILVA;1.269,60;AGENTE COMUNITARIO DE COMBATE ÀS ENDEMIAS;Estatutário;2015;Abril;2017;
MARIA LUCIETE PEREIRA DA CRUZ;2.849,74;PROF. III-A PFIII-C (30H)*;Estatutário;1998;Abril;2017;
MARIA LUCINETE DE SOUZA BRITO;2.882,80;PROF. I-A PFI-F (30H)*;Estatutário;1982;Abril;2017;
MARIA LUIZA CLEMENTE DOS SANTOS;1.920,35;ASG EFETIVOS;Estatutário;1998;Abril;2017;
MARIA LUZIMAR DE ALMEIDA BRITO;1.451,85;ASG EFETIVOS;Estatutário;1998;Abril;2017;
MARIA LUZINETE DANTAS DE ARAUJO;2.453,90;PROF POLIVAL ENS INFANTIL - II-A (30Hs);Estatutário;2015;Abril;2017;
MARIA MARGARETH BEZERRA DE OLIVEIRA SOUZ;4.822,39;PROF. II-A PFII-B (30H)*;Estatutário;2002;Abril;2017;
MARIA MARGARIDA RIBEIRO DANTAS;1.601,81;ASG EFETIVOS;Estatutário;1998;Abril;2017;
MARIA NOEMIA DE MOURA BATALHA;2.957,22;PROF. III-A PFIII-C (30H)*;Estatutário;2002;Abril;2017;
MARIA REDJANE DA SILVA FONSECA;1.451,85;ASG EFETIVOS;Estatutário;1998;Abril;2017;
MARIA RIZONETE DUTRA SILVA;1.451,85;ASG EFETIVOS;Estatutário;1999;Abril;2017;
MARIA ROSALIA ALVES MEDEIROS SILVA;1.705,19;TECNICO DE CADASTRO;Estatutário;1999;Abril;2017;
MARIA SALETE RAMALHO DA SILVA;963,00;CUIDADOR DE CRIANÇA (INFANTIL);Estatutário;2015;Abril;2017;
MARIA SALOME DE ARAÚJO;2.598,18;PROF. I-A PFI-E (30H)CMG;Estatutário;1988;Abril;2017;
MARIA SELMA BATISTA DE MEDEIROS AZEVEDO;1.451,85;ASG EFETIVOS;Estatutário;1998;Abril;2017;
MARIA SELMA PINHEIRO DOS SANTOS;2.001,67;TEC.DE ENFERMAGEM;Estatutário;1998;Abril;2017;
MARIA SUELY CARDOSO DE MEDEIROS;2.591,95;PROF POLIVAL ENS INFANTIL - II-A (30Hs);Estatutário;2015;Abril;2017;
MARIA SUZANA DE MEDEIROS LOURENCO;1.619,16;TECNICO DE CONTABILIDADE;N/A;N/A;Abril;2017;
MARIANA CARLA BATISTA DOS SANTOS;5.000,00;ENFERMEIRO;Estatutário;2015;Abril;2017;
MARICELY DE FATIMA DA SILVA;3.318,07;SUPERVISOR II-A SPIII-D (30)*;N/A;N/A;Abril;2017;
MARILDE LOPES BEZERRA;1.451,85;ASG EFETIVOS;Estatutário;1999;Abril;2017;
MARILENE DA SILVA MEDEIROS;1.719,35;ASG EFETIVOS;Estatutário;1999;Abril;2017;
MARILU MARIA DOS SANTOS SOUZA;2.935,22;PROF III-A PFIII-D (30H);Estatutário;1998;Abril;2017;
MARINA RITA DOS SANTOS;2.373,94;ASG EFETIVOS;Estatutário;1987;Abril;2017;
MARINALVA DE SOUZA CABRAL PAIVA;2.011,47;AGENTE ADMINISTRATIVO (40h);N/A;N/A;Abril;2017;
MARINALVA MENEZES DE MEDEIROS;1.451,85;ATENDENTE DE ENFERMAGEM;Estatutário;1998;Abril;2017;
MARINICE BEZERRA GOMES;1.578,33;AGENTE DE PORTARIA (40h);Estatutário;2000;Abril;2017;
MARINILVA MAGNA MENEZES DE MEDEIROS;2.500,00;PROCURADOR ESPECIAL;Comissionado;2017;Abril;2017;
MARISTELA PEREIRA DE ARAUJO;2.123,45;PROF. DE HISTÓRIA/CULTURA - II-A (30Hs);Estatutário;2015;Abril;2017;
MARJORIE OVIDIO BEZERRA GALVÃO;3.250,00;SECRETARIO MUNICIPAL;Comissionado;2017;Abril;2017;
MARKISON JOSE DE LIRA;2.453,90;PROF. ENS. FUNDAMENTAL - I (30Hs);Estatutário;2015;Abril;2017;
MARLENE SANTINA DE OLIVEIRA;1.304,59;ASG EFETIVOS;Estatutário;2003;Abril;2017;
MARLUCE PEREIRA GALVAO;2.849,74;PROF. III-A PFIII-C (30H)*;Estatutário;2000;Abril;2017;
MARTILENE DO CARMO COSTA;1.300,67;AGENTE COMUNITARIO DE COMBATE ÀS ENDEMIAS;Estatutário;2015;Abril;2017;
MAURO VIEIRA DA SILVA;1.966,79;GARI (40h);Estatutário;1998;Abril;2017;
MAYALISON KAIO LIMA BRITO;570,00;GARI (40h);Estatutário;2017;Abril;2017;
MEIRINARDY OLIMPIA DE PAIVA BRITO;3.166,69;PROF III-A PFIII-D(30H);N/A;N/A;Abril;2017;
MEIRY ILANY PEREIRA OLIVEIRA;937,00;CHEFE DO SETOR SAUDE BUCAL;Comissionado;2017;Abril;2017;
MERCIA AMARAL DE MENEZES;1.876,84;AUX. DE ENFERMAGEM;N/A;N/A;Abril;2017;
MERIANE MEDEIROS DIAS;999,14;CHEFE DO SETOR DE POLITICAS PUBLICAS DA MULHER;Comissionado;2017;Abril;2017;
MICHELL ANGELO EUFRAZIO DE MEDEIROS;15.800,00;MEDICO ESF (40H);Estatutário;2016;Abril;2017;
MIGUEL ANGELLO DA SILVA FERNANDES CAMPOS;3.250,00;SECRETARIO MUNICIPAL;Comissionado;2017;Abril;2017;
MIGUEL ANTONIO DA COSTA SILVA;1.273,52;DIGITADOR (40h);Estatutário;2003;Abril;2017;
MILLA CHIANCA GOMES VARELA;4.450,00;ENFERMEIRO;Estatutário;2015;Abril;2017;
MIRELLE MEDEIROS ANTUNES;4.100,00;PSICÓLOGO(A) - 40Hs;Estatutário;2015;Abril;2017;
MONICA GURGEL DE OLIVEIRA;1.403,00;TECNICO DE ENFERMAGEM (40H);Estatutário;2016;Abril;2017;
MYLENA KAREN DE ARAÚJO FREITAS;937,00;ORIENTADOR SOCIAL (40H);CONTRATADO;2017;Abril;2017;
NECI ALMEIDA DOS SANTOS;2.209,35;AUX. DE ENFERMAGEM;Estatutário;1998;Abril;2017;
NEILY FABIANE MOURA DE OLIVEIRA;1.451,85;DATILOGRAFO (40h);Estatutário;1998;Abril;2017;
NILDA ALVES DE MENEZES;1.451,85;ASG EFETIVOS;Estatutário;1998;Abril;2017;
NILVA ALICE TAVARES DE MEDEIROS SANTOS;4.382,14;PROF. III-A PFIII-D (40H);Estatutário;1998;Abril;2017;
ORESTES BEZERRA DE ARAUJO;1.966,79;GARI (40h);Estatutário;1999;Abril;2017;
ORLANDO SOUSA DE ARAUJO;1.231,07;OPERADOR DE RETROESCAVADEIRA (40Hs);Estatutário;2015;Abril;2017;
OTILIA DIAS PEREIRA NETA;3.403,72;PROF III-A PFIII-D (30H);Estatutário;1998;Abril;2017;
OZENIR BATISTA DE ARAUJO;2.381,84;AUX. DE ENFERMAGEM;Estatutário;1999;Abril;2017;
OZINEIDE DIAS DE ARAUJO;1.451,85;ASG EFETIVOS;Estatutário;1998;Abril;2017;
PALOMA MIRELLI SANTOS DO AMARAL;1.153,00;TECNICO DE ENFERMAGEM (40H);Estatutário;2015;Abril;2017;
PALOMA OLIVEIRA DA CRUZ;4.100,00;NUTRICIONISTA EF (40Hs);Estatutário;2015;Abril;2017;
PATRICIA SOUZA DO CARMO SILVA;994,07;CUIDADOR DE CRIANÇA (NECESSIDADES ESPECIAIS);Estatutário;2015;Abril;2017;
PAULINO COSME DA SILVA;1.704,35;GARI (40h);Estatutário;1998;Abril;2017;
PEDRO BATISTA DO NASCIMENTO;937,00;FACILITADOR DE OFICINAS DE RECREAÇÃO E LAZER DO SC;CONTRATADO;2017;Abril;2017;
PEDRO EPAMINONDAS LOPES NETO;15.800,00;MEDICO ESF (40H);Estatutário;2015;Abril;2017;
PEDRO HENRIQUE CASSIANO ARAUJO;3.400,00;PSICÓLOGO(A) - 40Hs;Estatutário;2016;Abril;2017;
PEDRO PEREIRA DA SILVA NETO;2.123,45;PROF. DE CIENCIAS DA NATUREZA - II-A (30Hs);Estatutário;2015;Abril;2017;
PEDRO SERGIO PEREIRA FELIX;963,00;MOTORISTA (40h);Estatutário;2015;Abril;2017;
PLABITO LOPES SOUTO;2.123,45;PROF. DE LINGUA PORTUGUESA - II-A (30Hs);Estatutário;2015;Abril;2017;
RADIR BATISTA DOS SANTOS;2.091,94;ASG EFETIVOS;Estatutário;1986;Abril;2017;
RAFAEL ARAUJO DA CUNHA;1.269,60;AGENTE COMUNITARIO DE COMBATE ÀS ENDEMIAS;Estatutário;2015;Abril;2017;
RAFAEL GOMES DOS SANTOS;2.050,00;FISIOTERAPEUTA EF - (20hS);Estatutário;2016;Abril;2017;
RAFAEL LOPES DE MEDEIROS SILVA;4.300,00;ODONTÓLOGO EF -(40Hs);Estatutário;2016;Abril;2017;
RAFAELLA ALVES BARROSO;1.170,37;AGENTE COM. DE SAUDE (40h);Estatutário;2016;Abril;2017;
RAFAELLA CRISTINA DE SOUZA ARAUJO SENA;4.300,00;ENFERMEIRO;Estatutário;2015;Abril;2017;
RAIMUNDA BALBINO GONZAGA DE SOUZA;1.451,85;ASG EFETIVOS;Estatutário;1998;Abril;2017;
RAIMUNDA BATISTA DE MEDEIROS;3.417,65;PROF. III-A PFIII-E (30H)*;N/A;N/A;Abril;2017;
RAIMUNDA FLORENCIO DE OLIVEIRA;2.849,74;PROF. III-A PFIII-C (30H)*;Estatutário;1998;Abril;2017;
RAIMUNDO ALVES CAMPELO;2.004,28;GARI (40h);Estatutário;1998;Abril;2017;
RAIMUNDO PEIXOTO;1.605,36;GARI (40h);Estatutário;1999;Abril;2017;
RAMON GOMES LEOPOLDO;1.269,60;AGENTE COMUNITARIO DE COMBATE ÀS ENDEMIAS;Estatutário;2015;Abril;2017;
RANIERI BELMIRO DE ALMEIDA;3.250,00;CHEFE DE GABINETE CIVIL;Comissionado;2017;Abril;2017;
RAQUEL ARAUJO NOBREGA;5.142,27;ENFERMEIRO;Estatutário;2015;Abril;2017;
RAQUEL TEIXEIRA DE ARAUJO COSTA;1.433,48;TECNICO DE ENFERMAGEM (40H);Estatutário;2016;Abril;2017;
RAUL DAVID SANTOS DE FREITAS;4.800,00;ODONTÓLOGO EF -(40Hs);Estatutário;2015;Abril;2017;
REGIANE DA SILVA BRITO BARROS;3.400,00;ASSISTENTE SOCIAL EF (30H);Estatutário;2015;Abril;2017;
REGINA LUCIA DOS SANTOS BATISTAS;1.433,48;TECNICO DE ENFERMAGEM (40H);Estatutário;2015;Abril;2017;
REGINALDO GALDINO DE ALENCAR;3.288,22;MOTORISTA (40h);N/A;N/A;Abril;2017;
REINAILMA CASSIA PEREIRA;937,00;ORIENTADOR SOCIAL (40H);CONTRATADO;2017;Abril;2017;
REINAILZA CARLA PEREIRA DE MEDEIROS;994,07;CUIDADOR DE CRIANÇA (INFANTIL);Estatutário;2015;Abril;2017;
RENATA FONSECA NOLASCO;5.280,00;ENGENHEIRO CIVIL-EF (30Hs);Estatutário;2015;Abril;2017;
RENATO DIAS DOS SANTOS;1.013,50;MOTORISTA (40h);Estatutário;2015;Abril;2017;
RENATO MARQUES;1.982,72;PROF. DE LINGUA PORTUGUESA - II-A (30Hs);Estatutário;2015;Abril;2017;
RENILDA BATISTA DE MEDEIROS;1.451,85;ATENDENTE DE ENFERMAGEM;Estatutário;1998;Abril;2017;
RENILDA MARIA DE ARAUJO;2.157,49;ASG EFETIVOS;Estatutário;1988;Abril;2017;
RICARDO SERGIO BARBOSA;721,53;VIGILANTE;Estatutário;2017;Abril;2017;
RICARTE PROCÓPIO DE LUCENA JUNIOR;14.000,00;MEDICO;CONTRATADO (PGF);2016;Abril;2017;
RIDALVO PAIVA DE LUCENA;994,07;DIGITADOR (40h);Estatutário;2016;Abril;2017;
RISONEIDE FELIX DA SILVA MATEUS;1.451,85;ASG EFETIVOS;Estatutário;1999;Abril;2017;
RITA JACI DE OLIVEIRA;1.818,43;ASG EFETIVOS;N/A;N/A;Abril;2017;
RITA QUEIROZ DE AZEVEDO ALVES;1.859,91;ASG EFETIVOS;Estatutário;1988;Abril;2017;
RITA SHIRLEI DE MEDEIROS;3.154,96;PROF III-A PFIII-D(30H);N/A;N/A;Abril;2017;
RIVANEIDE DE FATIMA IVO DE ALMEIDA;2.806,33;PROF. I-A PFI-C (30H)*;Estatutário;2002;Abril;2017;
ROBERLANDIA ARAUJO DA SILVA;1.586,18;PROF POLIVAL ENS INFANTIL - II-A (30Hs);Estatutário;2017;Abril;2017;
ROBERTA PRISCILA MEDEIROS DE ARAUJO;963,00;CUIDADOR DE CRIANÇA (INFANTIL);Estatutário;2015;Abril;2017;
ROBERTA VERAS SALDANHA;3.056,53;PROF. III-A PFIII-C (30H)*;N/A;N/A;Abril;2017;
ROBERTO OLIVEIRA DE PAIVA;1.956,24;TELEFONISTA (40h);Estatutário;1999;Abril;2017;
ROBERTO SANDRO DE OLIVEIRA;1.289,87;MOTORISTA (40h);Estatutário;2007;Abril;2017;
ROBERVAL OLIVEIRA DE PAIVA;937,00;CHEFE DO SETOR DE ENDEMIAS;Comissionado;2017;Abril;2017;
RODRIGO OLIVEIRA DA FONSECA;4.100,00;FONOAUDIOLOGO - 40HS EF;Estatutário;2015;Abril;2017;
RODRIGO SANTOS DA SILVA;963,00;AUXILIAR ADMINISTRATIVO (40Hs);Estatutário;2016;Abril;2017;
ROGERIO SOARES DE BRITO;1.824,32;GARI (40h);N/A;N/A;Abril;2017;
ROMUALDO ARAUJO DE LIRA;1.704,35;ASG EFETIVOS;Estatutário;1998;Abril;2017;
RONALDO BEZERRA MARIZ;6.135,56;VETERINÁRIO;N/A;N/A;Abril;2017;
RONNIE VON DE OLIVEIRA;2.935,22;PROF III-A PFIII-D (30H);Estatutário;1998;Abril;2017;
ROSA CRISTINA SOARES;2.935,22;PROF III-A PFIII-D(30H);Estatutário;1999;Abril;2017;
ROSA MARIA DA SILVA BESERRA;2.476,68;AGENTE COM. DE SAUDE (40h);N/A;N/A;Abril;2017;
ROSA MARIA OLIVEIRA DOS SANTOS;937,00;ASG - CONTRATADO;CONTRATADO;2016;Abril;2017;
ROSANGELA DE FATIMA GARCIA S FREITAS;4.303,13;ASSISTENTE SOCIAL EF (30H);Estatutário;2003;Abril;2017;
ROSANGELA PEREIRA DA SILVA;2.935,22;PROF III-A PFIII-D (30H);Estatutário;1998;Abril;2017;
ROSEANE OLIVEIRA DOS SANTOS;4.100,00;PSICÓLOGO(A) - 40Hs;Estatutário;2017;Abril;2017;
ROSEMBERG DE SOUZA BRITO;1.386,51;AGENTE COM. DE SAUDE (40h);N/A;N/A;Abril;2017;
ROSICLEIDE SOUZA DO CARMO LIMA;1.451,85;ASG EFETIVOS;Estatutário;1998;Abril;2017;
ROSILDA FRANCISCA DA SILVA;1.451,85;ASG EFETIVOS;Estatutário;1999;Abril;2017;
ROSINALVA ALVES DA COSTA;1.451,85;AUX. DE ENFERMAGEM;Estatutário;1999;Abril;2017;
ROSINEIDE MARIA DA SILVA;3.925,67;PROF. I-A PFI-E (40H)*;Estatutário;1984;Abril;2017;
ROXANA SILVA;2.123,45;PROF.(AEE) ATEND EDUC ESPECIALIZADO - II-A (30Hs);Estatutário;2015;Abril;2017;
RUI LOPES DA SILVA;1.973,52;MOTORISTA (40h);Estatutário;2003;Abril;2017;
RUVIA LOURENA LOPES SANTOS;1.088,00;AUXILIAR DE SAUDE BUCAL (40Hs);Estatutário;2015;Abril;2017;
SÂMARA DANIELLY DE MEDEIROS ALVES;5.000,00;ENFERMEIRO;Estatutário;2015;Abril;2017;
SAMARA ZAYANE LOPES DE MEDEIROS;963,00;AUXILIAR ADMINISTRATIVO (40Hs);Estatutário;2016;Abril;2017;
SANDRA AZEVEDO QUEIROZ;3.400,00;NUTRICIONISTA EF (40Hs);Estatutário;2015;Abril;2017;
SANDRA KALINA ARAÚJO DA COSTA;3.692,05;PROF II-A PFII-D (40H);Estatutário;2002;Abril;2017;
SANDRA MARIA DA SILVA;2.299,58;AGENTE COM. DE SAUDE (40h);Estatutário;2000;Abril;2017;
SANDRA MARIA LOPES DE MEDEIROS;2.319,71;PROF. I-A PFI-D (30H)*;Estatutário;1998;Abril;2017;
SANDRA MARIA SOARES PINHEIRO;2.199,58;AGENTE COM. DE SAUDE (40h);Estatutário;2000;Abril;2017;
SANDRA PEREIRA DA SILVA;2.849,74;PROF. III-A PFIII-C (30H)*;Estatutário;1998;Abril;2017;
SANTANA DA SILVA LIMA BEZERRA;2.326,68;AGENTE COM. DE SAUDE (40h);N/A;N/A;Abril;2017;
SARA LOPES DE SA;2.250,63;PSICOLOGO (20H);Estatutário;2000;Abril;2017;
SAULO KAYRON MEDEIROS DE ARAUJO;2.123,45;PROF. ENS. FUNDAMENTAL - I (30Hs);Estatutário;2015;Abril;2017;
SEBASTIANA MELO DE AQUINO;1.378,26;ASG EFETIVOS;N/A;N/A;Abril;2017;
SEBASTIAO BELARMINO PEREIRA FILHO;2.454,57;TECNICO DE ENFERMAGEM (30);N/A;N/A;Abril;2017;
SEBASTIAO FELINTO SEGUNDO;2.935,22;PROF III-A PFIII-D (30H);Estatutário;1998;Abril;2017;
SEBASTIAO VICENTE FERREIRA;2.004,28;GARI (40h);Estatutário;1998;Abril;2017;
SEFORA KALINE LOURENCO DE MEDEIROS;1.451,85;ATENDENTE DE ENFERMAGEM;Estatutário;1998;Abril;2017;
SEGILANE DOS SANTOS LIMA;2.123,45;PROF POLIVAL ENS INFANTIL - II-A (30Hs);Estatutário;2016;Abril;2017;
SELMA LOPES DE ARAUJO FLAUSINO;1.704,35;ASG EFETIVOS;Estatutário;1999;Abril;2017;
SERGIO GUILHERME FILHO;1.451,85;VIGIA (40h);Estatutário;1998;Abril;2017;
SERGIVALDO MARQUES DOS SANTOS;1.578,33;AGENTE ADMINISTRATIVO (40h);Estatutário;2000;Abril;2017;
SIDNEY SOUZA DE MEDEIROS;2.123,45;PROFESSOR DE MATEMATTICA - II-A (30Hs);Estatutário;2015;Abril;2017;
SILVANIA PEREIRA DE ARAUJO;1.302,08;ASG EFETIVOS;Estatutário;2003;Abril;2017;
SIMONE FONTES LEITE ANDRADE;2.652,17;PROF POLIVAL ENS INFANTIL - II-A (30Hs);Estatutário;2015;Abril;2017;
SIMONE GOMES DA SILVA;1.546,51;AGENTE COM. DE SAUDE (40h);N/A;N/A;Abril;2017;
SOLANGE FERREIRA DOS SANTOS CLEMENTE;1.578,33;AGENTE ADMINISTRATIVO (40h);Estatutário;1999;Abril;2017;
SONIA MARIA DA SILVA;2.259,35;ASG EFETIVOS;Estatutário;1998;Abril;2017;
SONIA MARIA DE MOURA PEREIRA;2.933,79;PROF. II-A PFII-C (30H)*;Estatutário;2002;Abril;2017;
SONIA MARIA PINHEIRO DA CRUZ;2.849,74;PROF. III-A PFIII-C (30H)*;Estatutário;1999;Abril;2017;
SORLEY LUCAS VENANCIO BEZERRA;1.200,00;CHEFE DO SETOR DE PATRIMONIO;Comissionado;2017;Abril;2017;
SUELI VICENTE DOS SANTOS SILVA;2.631,64;AGENTE COM. DE SAUDE (40h);N/A;N/A;Abril;2017;
SUZANA MEDEIROS DE ARAUJO SANTOS;1.653,47;TECNICO DE ENFERMAGEM (40H);N/A;N/A;Abril;2017;
SUZANA TERCIA DE MEDEIROS;1.388,72;AGENTE ADMINISTRATIVO (40h);Estatutário;2004;Abril;2017;
TACIANA MARIA FELICIANO DE SOUZA;4.450,00;ODONTÓLOGO EF -(40Hs);Estatutário;2015;Abril;2017;
TAIZA MEDEIROS DE ARAUJO;1.982,72;PROFESSOR DE MATEMATTICA - II-A (30Hs);Estatutário;2015;Abril;2017;
TATYANNE ALVES ARAUJO;963,00;CUIDADOR DE CRIANÇA (INFANTIL);Estatutário;2015;Abril;2017;
TAYANNE SHIRLEY DE MEDEIROS SILVA;994,07;ATENDENTE DE FARMACIA (40Hs);Estatutário;2016;Abril;2017;
TERESA CRISTINA DE ALBUQUERQUE PINTO MRAZKOVA;1.982,72;PROF. DE LINGUA INGLESA - II-A (30Hs);Estatutário;2015;Abril;2017;
TERESINHA BEZERRA DA SILVA;2.935,22;PROF III-A PFIII-D(30H);Estatutário;1998;Abril;2017;
THASIA THALLYNNY DE CASTRO SILVA;4.800,00;ODONTÓLOGO EF -(40Hs);Estatutário;2016;Abril;2017;
THENILY MARCELLY ALVES DE ARAUJO;2.123,45;PROF. ENS. FUNDAMENTAL - I (30Hs);Estatutário;2015;Abril;2017;
THIAGO ESPINOLA DE MEDEIROS;2.123,45;PROF. DE LINGUA PORTUGUESA - II-A (30Hs);Estatutário;2015;Abril;2017;
TULIO CESAR VIEIRA DE ARAUJO;4.300,00;ENFERMEIRO;Estatutário;2015;Abril;2017;
UALISON BEZERRA COSTA UCHOA;7.450,00;MEDICO  ESF (20H);Estatutário;2015;Abril;2017;
UBIRAJARA ALVES DOS SANTOS;2.049,58;AGENTE COM. DE SAUDE (40h);Estatutário;2000;Abril;2017;
VALBA PATROCINIO DOS SANTOS;1.451,85;DATILOGRAFO (40h);Estatutário;1998;Abril;2017;
VALCACIA BATISTA DE SOUZA;1.273,52;DIGITADOR (40h);Estatutário;2003;Abril;2017;
VALCACIA MIRELLA MEDEIROS PEREIRA;5.542,27;ENFERMEIRO;Estatutário;2015;Abril;2017;
VALDENUZIA DE BRITO RODRIGUES;2.591,95;PROF POLIVAL ENS INFANTIL - II-A (30Hs);Estatutário;2015;Abril;2017;
VALDERLI BATISTA DE MEDEIROS;1.213,00;AUXILIAR DE SAUDE BUCAL (40Hs);Estatutário;2015;Abril;2017;
VALDINEZ VIEIRA DA SILVA;2.256,85;DATILOGRAFO (40h);Estatutário;1998;Abril;2017;
VALDIR DE MEDEIROS AZEVEDO;15.704,74;PREFEITO;Estatutário;2003;Abril;2017;
VALERIA RABELO CARNEIRO FREITAS;2.250,61;DENTISTA (20H) EFETIVO;Estatutário;1998;Abril;2017;
VANIA LUCIA BATISTA DE ARAÚJO;2.935,22;PROF III-A PFIII-D (30H);Estatutário;1998;Abril;2017;
VANILSON PAULO DE MEDEIROS;2.935,22;PROF III-A PFIII-D (30H);Estatutário;1998;Abril;2017;
VANUSA OLIVEIRA DE BRITO ALVES;2.935,22;PROF III-A PFIII-D (30H);Estatutário;1998;Abril;2017;
VELUCIA GOMES DE MEDEIROS;1.705,19;TECNICO DE CADASTRO;Estatutário;1999;Abril;2017;
VERUSKA LOPES FORTUNATO;4.300,00;ODONTÓLOGO EF -(40Hs);Estatutário;2015;Abril;2017;
VICTOR HUGO DE OLIVEIRA SANTOS;2.123,45;PROF. DE CIENCIAS DA NATUREZA - II-A (30Hs);Estatutário;2015;Abril;2017;
VICTOR RICHELLY DE BRITO;2.123,45;PROF. DE EDUCAÇÃO FÍSICA - II-A (30Hs);Estatutário;2016;Abril;2017;
VILANIR GOMES DE MEDEIROS BRITO;3.318,07;SUPERVISOR II-A SPIII-D (30)*;N/A;N/A;Abril;2017;
VIRGÍNIA MARIA DE MEDEIROS;1.269,60;AGENTE COMUNITARIO DE COMBATE ÀS ENDEMIAS;Estatutário;2015;Abril;2017;
VITAL OTAVIO DE OLIVEIRA;1.704,35;GARI (40h);Estatutário;1998;Abril;2017;
VIVANIA ARAÚJO DA SILVA;3.056,53;PROF. III-A PFIII-C (30H)*;N/A;N/A;Abril;2017;
VIVIANE LOPES PEREIRA RODRIGUES;1.578,33;AGENTE ADMINISTRATIVO (40h);Estatutário;1998;Abril;2017;
WALLESKA JULIANE COSTA LEITE;2.123,45;PROF. DE CIENCIAS DA NATUREZA - II-A (30Hs);Estatutário;2016;Abril;2017;
WELLINGTON FRANCISCO DA SILVA;963,00;AUXILIAR ADMINISTRATIVO (40Hs);Estatutário;2015;Abril;2017;
WELMA MARIA DA SILVA;963,00;CUIDADOR DE CRIANÇA (INFANTIL);Estatutário;2015;Abril;2017;
WENDEL OLIVEIRA FELIPE;963,00;AUXILIAR ADMINISTRATIVO (40Hs);Estatutário;2015;Abril;2017;
WESCLEY FERNANDES DOS SANTOS;968,07;CHEFE DO SETOR DE LABORATORIAL;Comissionado;2017;Abril;2017;
WIDNES ROBERT ALVES DA SILVA;1.058,00;COORD. ADMINISTRATIVO-EF (40Hs);Estatutário;2015;Abril;2017;
WILSON DOMINGOS ALVES DA SILVA;1.854,31;GARI (40h);Estatutário;1998;Abril;2017;
WILZES LOPES NORTE ALVES;1.400,00;VICE DIRETOR(A) HOSPITALAR;Comissionado;2017;Abril;2017;
ZILDA MARIA DOS SANTOS;2.441,97;COORDENADOR PEDAGÓGICO II-A;N/A;N/A;Abril;2017;
ZILMA DOS SANTOS SILVA;3.384,78;PROF. III-A PFIII-F (30)*;Estatutário;1988;Abril;2017;
