Nome;Salario;Cargo;Vinculo;Ingresso;Mes;Ano
ADAISA DANTAS DE MEDEIROS;2.364,54;PROF. III-A PFIII-C (30H)*;Estatutário;2002;Janeiro;2017;
ADEILVA PEREIRA DA SILVA TRINDADE;880,00;ASG - CONTRATADO;CONTRATADO;2016;Janeiro;2017;
ADENILDA MARIA DE SOUZA;2.364,54;PROF. III-A PFIII-C (30H)*;Estatutário;2002;Janeiro;2017;
ADERITO VITAL DE ARAUJO JUNIOR;909,16;ASG - CONTRATADO;CONTRATADO;2016;Janeiro;2017;
ADONILSON DA SILVA;1.188,00;VIGIA (40h);Estatutário;1981;Janeiro;2017;
ADRIANA FREIRE DO AMORIM;996,64;ASG - CONTRATADO;CONTRATADO;2016;Janeiro;2017;
ADRIANO ALVES DA SILVA;1.452,49;TECNICO DE ENFERMAGEM (40H);Estatutário;2015;Janeiro;2017;
AGEDILVA PEREIRA DA SILVA;2.053,60;AUX. DE ENFERMAGEM;Estatutário;1998;Janeiro;2017;
ALAIDE QUEIROZ DE OLIVEIRA;2.472,02;PROF. III-A PFIII-C (30H)*;Estatutário;1999;Janeiro;2017;
ALAN OLIVEIRA DO AMARAL;997,16;DIGITADOR (40h);Estatutário;2003;Janeiro;2017;
ALBA LUCIA DOS SANTOS GOMES ARRUDA;2.472,02;PROF. III-A PFIII-C (30H)*;Estatutário;2000;Janeiro;2017;
ALCILENE MARIA DOS SANTOS;1.012,00;ASG EFETIVOS;Estatutário;1999;Janeiro;2017;
ALCIMAR DE ALMEIDA SILVA;5.000,00;JURISTA;CONTRATADO;2014;Janeiro;2017;
ALCINA COSTA DA SILVA OLIVEIRA;3.445,03;PROF. III-A PFIII-F (30)*;N/A;N/A;Janeiro;2017;
ALDENIR FERNANDES DE ARAUJO;2.472,02;PROF. III-A PFIII-C (30H)*;Estatutário;2000;Janeiro;2017;
ALDENORA BEZERRA DOS SANTOS;1.100,00;TELEFONISTA (40h);Estatutário;1986;Janeiro;2017;
ALDERISA MARIA DE SOUZA;968,00;ASG EFETIVOS;Estatutário;2003;Janeiro;2017;
ALDILENE RODRIGUES DE MENEZES SILVA;1.012,00;ASG EFETIVOS;Estatutário;1999;Janeiro;2017;
ALDO FERNANDES DE OLIVEIRA;4.165,95;SUPERVISOR II-A SPIII-C(40);Estatutário;2000;Janeiro;2017;
ALESSANDRA ARAUJO DE MEDEIROS;1.841,99;PROF POLIVAL ENS INFANTIL - II-A (30Hs);Estatutário;2015;Janeiro;2017;
ALEX NUNES DA SILVA;938,32;MOTORISTA (40h);Estatutário;2015;Janeiro;2017;
ALEX SANDRO ALVES DE AMORIM;938,32;CHEFE DO SETOR DE GESTAO DAS UNID ESPORT ESCOLARES;N/A;N/A;Janeiro;2017;
ALEX TEIXEIRA DO AMARAL;880,00;ASG - CONTRATADO;CONTRATADO;2016;Janeiro;2017;
ALEXANDRE DA SILVA BEZERRA;2.500,00;SECRETARIO MUNICIPAL;Comissionado;2016;Janeiro;2017;
ALEXANDRE SAMUEL ALVES BEZERRA;880,00;ASG - CONTRATADO;CONTRATADO;2016;Janeiro;2017;
ALEXSANDRO FERNANDES DOS SANTOS;1.096,00;MOTORISTA (40h);Estatutário;2015;Janeiro;2017;
ALIANI COSTA DA SILVA GUIMARAES;880,00;COORD. ADMINISTRATIVO-EF (40Hs);Estatutário;2015;Janeiro;2017;
ALISSON RODRIGUES DA SILVA;880,00;ASG - CONTRATADO;CONTRATADO;2016;Janeiro;2017;
ALLANDERSON MATHEUS PAULO E SILVA;880,00;DIGITADOR (40h);Estatutário;2016;Janeiro;2017;
ALVANY SILVA DE SOUZA;1.218,32;ASG - CONTRATADO;CONTRATADO;2016;Janeiro;2017;
AMANDA CORDEIRO DE MEDEIROS;1.841,99;PROF. ENS. FUNDAMENTAL - I (30Hs);Estatutário;2015;Janeiro;2017;
AMANDA DELAYNE LOPES PALHARES;880,00;FISCAL DE TRIBUTOS (40h);Estatutário;2016;Janeiro;2017;
AMINADABE LIRA RODRIGUES;184,19;PROFESSOR - ADICIONAIS;Estatutário;2015;Janeiro;2017;
AMINADABE LIRA RODRIGUES;2.148,94;PROF. ENS. FUNDAMENTAL - I (30Hs);Estatutário;2015;Janeiro;2017;
ANA FRANCISCA SANTANA DE LIMA;2.830,27;PROF. III-A PFIII-C (30H)*;Estatutário;1999;Janeiro;2017;
ANA FRANCISCA SANTANA DE LIMA;107,47;PROFESSOR - ADICIONAIS;Estatutário;2013;Janeiro;2017;
ANA GILZA DA SILVA FARIAS;880,00;ASG - CONTRATADO;CONTRATADO;2016;Janeiro;2017;
ANA LUCIA ASSIS DE MEDEIROS;1.841,99;PROF. ENS. FUNDAMENTAL - I (30Hs);Estatutário;2015;Janeiro;2017;
ANA LUCIA BARBOSA DA SILVA;1.517,50;AGENTE COM. DE SAUDE (40h);Estatutário;1999;Janeiro;2017;
ANA MARIA LOPES BEZERRA;1.012,00;TECNICO DE CADASTRO;Estatutário;1999;Janeiro;2017;
ANA PAULA ALVES MUNIZ;2.148,94;PROF. ENS. FUNDAMENTAL - I (30Hs);Estatutário;2015;Janeiro;2017;
ANA PAULA DE MOURA;1.280,00;AUXILIAR DE SAUDE BUCAL (40Hs);Estatutário;2015;Janeiro;2017;
ANA SANTANA ALEXANDRE VALE;1.012,00;ASG EFETIVOS;Estatutário;1998;Janeiro;2017;
ANAILMA MARIA PEREIRA;1.070,32;ASG EFETIVOS;Estatutário;1998;Janeiro;2017;
ANALDETE AUGUSTA DE MORAIS SILVA;1.012,00;ASG EFETIVOS;Estatutário;1998;Janeiro;2017;
ANDERSON FELIPE LEITE DA SILVA;880,00;ASG - CONTRATADO;CONTRATADO;2016;Janeiro;2017;
ANDERSON GILSON DE LIMA ALMEIDA;880,00;CHEFE DE SETOR DE PROTEÇÃO SOCIAL ESPECIAL;N/A;N/A;Janeiro;2017;
ANDRIELE RANANY FERNANDES DE ARAUJO;2.360,00;ENFERMEIRO CONTRATADO (40H);CONTRATADO (PGF);2016;Janeiro;2017;
ANDRIERIO LOPES PEREIRA SOBRINHO;1.400,00;SECRETARIO ADJUNTO;Comissionado;2016;Janeiro;2017;
ANGEANIA PAULA DE LIMA;2.118,29;COORDENADOR PEDAGÓGICO II-A;Estatutário;2015;Janeiro;2017;
ANNE CAROLINE MONTEIRO ROQUE;2.500,00;ENFERMEIRO;Estatutário;2015;Janeiro;2017;
ANTENOR CASSIANO;1.398,00;GARI (40h);Estatutário;1998;Janeiro;2017;
ANTONIA BARBOSA DA SILVA;1.012,00;ASG EFETIVOS;Estatutário;1999;Janeiro;2017;
ANTONIA FELIPE DOS SANTOS CRUZ;1.012,00;ASG EFETIVOS;Estatutário;1998;Janeiro;2017;
ANTONIA LURDETE MENEZES DA FONSECA;1.012,00;ASG EFETIVOS;Estatutário;1998;Janeiro;2017;
ANTONIA OLIVEIRA BEZERRA;11.199,98;MEDICO;CONTRATADO (PGF);2016;Janeiro;2017;
ANTONIA OLIVEIRA DA SILVA FLORENCIO;1.188,00;ASG EFETIVOS;Estatutário;1998;Janeiro;2017;
ANTONIO ALVES DA SILVA;1.468,00;GARI (40h);Estatutário;1998;Janeiro;2017;
ANTONIO DOMINGOS DA SILVA FILHO;1.600,00;GARI (40h);Estatutário;1985;Janeiro;2017;
ANTONIO ELISSON DA SILVA;909,16;ASG - CONTRATADO;CONTRATADO;2016;Janeiro;2017;
ANTONIO FRANCISCO DA FONSECA;3.295,99;PROF. III-A PFIII-C (40H)*;Estatutário;1999;Janeiro;2017;
ANTONIO GEANDRO ALVES DE SOUZA;4.000,00;MEDICO PLANTONISTA;N/A;N/A;Janeiro;2017;
ANTONIO LEONILDO DA SILVA;880,00;ASG - CONTRATADO;CONTRATADO;2016;Janeiro;2017;
ANTONIO LINDENILTON ALVES;909,16;ASG - CONTRATADO;CONTRATADO;2016;Janeiro;2017;
ANTONIO MARCOS SARAIVA DE LIMA;2.086,98;PROF. II-A PFII-B (30H)*;Estatutário;2002;Janeiro;2017;
ANTONIO PINHEIRO DE SOUZA;1.217,16;GARI (40h);Estatutário;1998;Janeiro;2017;
ANTONIO RANIERE SANTOS;1.780,00;AGENTE COM. DE SAUDE (40h);Estatutário;2006;Janeiro;2017;
ANTONIO ROBERTO LOPES DE MELO;938,32;CONSELHEIRO (40h);Eletivo;2016;Janeiro;2017;
ANTONIO SEGUNDO CARLOS DE FREITAS;1.053,08;MOTORISTA (40h);Estatutário;2003;Janeiro;2017;
APARECIDA SOUZA LOPES;1.070,67;PROF. CONTRATADO;CONTRATADO;2016;Janeiro;2017;
ARICIA RODRIGUES DIÓGENES;880,00;FARMACEUTICO 20H;Estatutário;2015;Janeiro;2017;
ARICIA RODRIGUES DIÓGENES;880,00;FARMACÊUTICO-EF (20HS);Estatutário;2015;Janeiro;2017;
ARINALDO LOPES DE ARAUJO;1.012,00;FISCAL DE URBANISMO (40h);Estatutário;1999;Janeiro;2017;
ARINALVA DA SILVA LIMA;1.012,00;AUX. DE ENFERMAGEM;Estatutário;1998;Janeiro;2017;
ARINALVA LOPES DE ARAUJO;1.012,00;AGENTE ADMINISTRATIVO (40h);Estatutário;1998;Janeiro;2017;
ARLENE BEZERRA DE ARAUJO;3.318,29;SUPERVISOR II-A SPIII-D (30)*;Estatutário;1998;Janeiro;2017;
ARLETE ALICE DA SILVA;1.188,00;ASG EFETIVOS;Estatutário;1998;Janeiro;2017;
ARMANDO DANTAS DE CARVALHO NETO;1.258,32;OPERADOR DE MOTO NIVELADORA - EF;Estatutário;2015;Janeiro;2017;
ARNILDO FELICIANO DA SILVA;214,96;PROFESSOR - ADICIONAIS;Estatutário;2011;Janeiro;2017;
ARNILDO FELICIANO DA SILVA;2.830,27;PROF. III-A PFIII-C (30H)*;Estatutário;1998;Janeiro;2017;
ARYAN PETRUS LOPES SOUZA ARAUJO;1.420,00;MOTORISTA (40h);Estatutário;2015;Janeiro;2017;
AURENI CANDIDA DA SILVA;2.118,29;COORDENADOR PEDAGÓGICO II-A;Estatutário;2015;Janeiro;2017;
BENEDITA MARIA JOSE MELO BARRA;2.333,13;PROF POLIVAL ENS INFANTIL - II-A (30Hs);Estatutário;2015;Janeiro;2017;
BRENO TAVARES NUNES;4.000,00;ASSESSOR DE COMUNICAÇÃO;Comissionado;2016;Janeiro;2017;
CAINHARA LOPES BEZERRA;2.475,24;PROF. II-A PFII-C (30H)*;N/A;N/A;Janeiro;2017;
CARLA DEYSE SILVA;880,00;TECNICO DE ENFERMAGEM (40H);N/A;N/A;Janeiro;2017;
CARLA LUCIO ALVES;1.841,99;PSICOPEDAGOGO - EF (30Hs);Estatutário;2015;Janeiro;2017;
CARLA NATALI DA SILVA SIMAO;880,00;CUIDADOR DE CRIANÇA (INFANTIL);Estatutário;2015;Janeiro;2017;
CARLA SIMONE IVO DE ARAUJO;2.148,94;PROF POLIVAL ENS INFANTIL - II-A (30Hs);Estatutário;2015;Janeiro;2017;
CARLA SIMONE IVO DE ARAUJO;184,19;PROFESSOR - ADICIONAIS;Estatutário;2016;Janeiro;2017;
CARLOS ALBERTO DA SILVA;880,00;PORTEIRO CONTRATADO;N/A;N/A;Janeiro;2017;
CARLOS ALBERTO RODRIGUES;1.188,00;GARI (40h);Estatutário;1998;Janeiro;2017;
CARLOS ANTONIO CASSIANO DA SILVA;1.209,16;MOTORISTA (40h);Estatutário;2015;Janeiro;2017;
CARLOS HENRIQUE DUARTE UBARANA;1.160,00;MOTORISTA (40h);Estatutário;2015;Janeiro;2017;
CARRILHO NASCIMENTO DOS SANTOS;938,32;CHEFE DO SETOR DE PROGRAMAS ESPECIAIS;Comissionado;2016;Janeiro;2017;
CELIA MARTINS BARROS VIANA;2.002,26;PROF. I-A PFI-F (SQ) (30H;Estatutário;1987;Janeiro;2017;
CELIA SUELLE DE MELO;1.130,00;AUXILIAR DE SAUDE BUCAL (40Hs);Estatutário;2015;Janeiro;2017;
CESARIANA REJANE GOMES ALEXANDRE;1.070,32;ASG EFETIVOS;Estatutário;1999;Janeiro;2017;
CLARISSA RACKEL BATISTA AZEVEDO;2.500,00;ODONTÓLOGO EF -(40Hs);Estatutário;2015;Janeiro;2017;
CLAUDIO JARDEL DOS SANTOS;938,32;VIGIA CONTRATADO;CONTRATADO;2016;Janeiro;2017;
CLAUDIO PINHEIRO GOMES;1.876,60;MOTORISTA (40h);Estatutário;1999;Janeiro;2017;
CLAUDISSEIA NERI DE MORAIS;1.448,00;AUX. DE ENFERMAGEM;Estatutário;1998;Janeiro;2017;
CLEDILSON AUGUSTO DE ARAUJO;1.012,00;ASG EFETIVOS;Estatutário;1998;Janeiro;2017;
CLEDILSON CHARLES VIDAL;880,00;ASG - CONTRATADO;CONTRATADO;2016;Janeiro;2017;
CLEDINALVA FERNANDES DE SOUZA;3.295,99;PROF. III-A PFIII-C (40H)*;Estatutário;1998;Janeiro;2017;
CLEIDE BEZERRA DE MOURA SANTOS;1.807,53;PROF. I-A PFI-D (30H)*;N/A;N/A;Janeiro;2017;
CLEIDSON DANTAS BALBINO;1.841,99;PROF. DE EDUCAÇÃO FÍSICA - II-A (30Hs);Estatutário;2015;Janeiro;2017;
CLELIA MARTINS DE ALMEIDA;880,00;CHEFE DE SETOR DE POLITICAS PUBLICAS DA MULHER;N/A;N/A;Janeiro;2017;
CLETO EUZEBIO DE ALMEIDA;2.247,30;PROF. II-A PFII-C (30H)*;Estatutário;1999;Janeiro;2017;
CLEUNICE CRISTINA SILVA ARAUJO;1.841,99;PROF. DE LINGUA PORTUGUESA - II-A (30Hs);Estatutário;2016;Janeiro;2017;
CLOVILMA MARIA SILVA OLIVEIRA;2.148,94;PROF. ENS. FUNDAMENTAL - I (30Hs);Estatutário;2015;Janeiro;2017;
CLOVIS MARTINS DA COSTA;1.012,00;FISCAL DE URBANISMO (40h);Estatutário;1999;Janeiro;2017;
CREDIMARIA MARIA DA FONSECA;2.086,98;PROF. II-A PFII-B (30H)*;Estatutário;2003;Janeiro;2017;
CYNTHIANE LOUYSE MENEZES DE ARAUJO;1.080,00;FISIOTERAPEUTA EF - (20hS);Estatutário;2015;Janeiro;2017;
DALIANY DE ARAUJO ALVES;2.500,00;SECRETARIO MUNICIPAL;Comissionado;2013;Janeiro;2017;
DALVA MARIA DE MOURA;2.472,02;PROF. III-A PFIII-C (30H)*;Estatutário;2000;Janeiro;2017;
DALVACI BATISTA DE OLIVEIRA MARQUES;3.295,99;PROF. III-A PFIII-C (40H)*;Estatutário;1999;Janeiro;2017;
DALVACI BEZERRA ARAUJO DELGADO;1.397,60;AUX. DE ENFERMAGEM;Estatutário;1979;Janeiro;2017;
DALVANEIDE DAS GRAÇAS DA SILVA SANTOS;880,00;ASG - CONTRATADO;CONTRATADO;2016;Janeiro;2017;
DALVANIR LOPES DE ARAUJO;1.800,00;DIRETOR ADM DA UNIDADE HOSPITALAR;Comissionado;2016;Janeiro;2017;
DAMIANA DA CONCEIÇÃO DA SILVA;1.656,00;AUXILIAR DE ENFERMAGEM (30);Estatutário;1998;Janeiro;2017;
DAMIANA DA CRUZ DOS SANTOS SILVA;1.244,00;ASG EFETIVOS;Estatutário;1999;Janeiro;2017;
DAMIANA FERNANDES DA SILVA;938,32;ASG - CONTRATADO;CONTRATADO;2016;Janeiro;2017;
DAMIANA JANAINA DE ARAUJO;880,00;ASG - CONTRATADO;CONTRATADO;2016;Janeiro;2017;
DAMIAO ALVES DE ARAUJO;1.189,16;ASG - CONTRATADO;CONTRATADO;2016;Janeiro;2017;
DAMIAO CANDIDO DE MEDEIROS;880,00;ASG - CONTRATADO;CONTRATADO;2016;Janeiro;2017;
DAMIAO DENER BEZERRA DE ARAUJO;968,00;GARI (40h);Estatutário;2004;Janeiro;2017;
DAMIAO FIDELIS DE ARAUJO;1.517,50;AGENTE COM. DE SAUDE (40h);Estatutário;1996;Janeiro;2017;
DAMIAO JOSE DE ARAUJO;1.012,00;OPERADOR DE TRATOR DE PNEUS;Estatutário;2015;Janeiro;2017;
DAMIAO MARCIO DA SILVA;1.940,00;AGENTE COM. DE SAUDE (40h);Estatutário;2000;Janeiro;2017;
DANIEL BRITO DE QUEIROZ CARDOSO;14.000,00;MEDICO;CONTRATADO (PGF);2016;Janeiro;2017;
DANIELE CRISTINE PEREIRA DA SILVA;880,00;CUIDADOR DE CRIANÇA (NECESS. ESPECIAIS) CONTRA;CONTRATADO;2016;Janeiro;2017;
DANILO EVARISTO DA COSTA;1.029,16;ASSESSOR ESPECIAL DE GABINETE;Comissionado;2015;Janeiro;2017;
DARCSON NOGUEIRA DANTAS FILHO;3.280,93;ENFERMEIRO;N/A;N/A;Janeiro;2017;
DAYANNE KALLYNE MORAIS DE ARAUJO OLIVEIRA;1.000,00;ENFERMEIRO;Estatutário;2016;Janeiro;2017;
DEBORA LIVIA DE QUEIROZ BANDEIRA;14.000,00;MEDICO;CONTRATADO (PGF);2016;Janeiro;2017;
DEILZA CARDOSO BATALHA;1.357,50;AGENTE COM. DE SAUDE (40h);Estatutário;2000;Janeiro;2017;
DENISE MARIA MELO DA SILVA;1.920,00;ASSISTENTE SOCIAL EF (30H);Estatutário;2015;Janeiro;2017;
DERLAN MOURA DOS SANTOS;1.408,00;MOTORISTA (40h);Estatutário;2015;Janeiro;2017;
DIANA CRISTINA DE ARAUJO SILVA;880,00;PROF. CONTRATADO;CONTRATADO;2016;Janeiro;2017;
DINA AURELIA DE MORAIS ARAUJO;1.100,00;TELEFONISTA (40h);Estatutário;1987;Janeiro;2017;
DINARTE MARTINS DA FONSECA JUNIOR;1.114,32;AGENTE COMUNITARIO DE COMBATE ÀS ENDEMIAS;Estatutário;2015;Janeiro;2017;
DINARTE SOBREIRA FORMIGA;1.180,00;MOTORISTA (40h);Estatutário;2016;Janeiro;2017;
EDILENE ARAUJO MOREIRA;2.148,94;PROF. ENS. FUNDAMENTAL - I (30Hs);Estatutário;2015;Janeiro;2017;
EDILENE PEREIRA DE MENEZES;2.850,61;PROF. III-A PFIII-E (30H)*;N/A;N/A;Janeiro;2017;
EDILEUZA FERREIRA RODRIGUES;1.667,50;AGENTE COM. DE SAUDE (40h);Estatutário;1998;Janeiro;2017;
EDILEUZA RUFINO DE MELO;2.247,30;PROF. II-A PFII-C (30H)*;Estatutário;2000;Janeiro;2017;
EDILSON PEREIRA DA SILVA;1.268,00;AGENTE ADMINISTRATIVO (40h);Estatutário;2004;Janeiro;2017;
EDILZA AUTA DE ARAUJO MELO;4.854,40;PROF. III-A PFIII-F (40)*;Estatutário;1985;Janeiro;2017;
EDILZA AUTA DE ARAUJO MELO;702,96;PROFESSOR - ADICIONAIS;Estatutário;2016;Janeiro;2017;
EDINALVA BATISTA DA SILVA;1.026,32;ASG EFETIVOS;Estatutário;2002;Janeiro;2017;
EDINALVA DANTAS DE ARAUJO SANTOS;909,16;CUIDADOR DE CRIANÇA (INFANTIL);Estatutário;2015;Janeiro;2017;
EDIVAN FERNANDES DA COSTA;968,00;MOTORISTA (40h);Estatutário;2003;Janeiro;2017;
EDMAR SOARES PINHEIRO;1.070,32;VIG.SANITARIO (40h);Estatutário;1998;Janeiro;2017;
EDMILSON ROQUE DA SILVA;909,16;VIGIA CONTRATADO;CONTRATADO;2016;Janeiro;2017;
EDNALDO BEZERRA DA SILVA;3.053,58;PROF. III-A PFIII-F (30)*;Estatutário;1984;Janeiro;2017;
EDNILZA FERREIRA DOS SANTOS LEITE;1.070,32;ASG EFETIVOS;Estatutário;1998;Janeiro;2017;
EIDER LOPES BARBOSA;1.444,00;MOTORISTA (40h);Estatutário;1986;Janeiro;2017;
ELENILDA CABRAL DE SOUZA;1.208,32;CHEFE DO SETOR DE COMPRAS;Comissionado;2013;Janeiro;2017;
ELIANA MARIA DE FIGUEIREDO;3.295,99;PROF. III-A PFIII-C (40H)*;Estatutário;1998;Janeiro;2017;
ELIANA MARIA DE SOUZA;2.118,29;COORDENADOR PEDAGÓGICO II-A;Estatutário;2015;Janeiro;2017;
ELIANE SOARES DE SOUZA;880,00;CUIDADOR DE CRIANÇA (INFANTIL);Estatutário;2015;Janeiro;2017;
ELIENE PAULO DE SOUZA;880,00;ASG - CONTRATADO;CONTRATADO;2016;Janeiro;2017;
ELIETE MARQUES DOS SANTOS FERNANDES;1.584,00;ASG EFETIVOS;Estatutário;1998;Janeiro;2017;
ELIMARIA MARIA DE SOUZA;880,00;PROF. CONTRATADO;CONTRATADO;2016;Janeiro;2017;
ELISANGELA PATRICIA NUNES ABRANTES;2.080,00;FISIOTERAPEUTA;Estatutário;2002;Janeiro;2017;
ELISANGELA SIQUEIRA;2.118,29;COORDENADOR PEDAGÓGICO II-A;Estatutário;2015;Janeiro;2017;
ELITA SAMARA DAVI DA SILVA;880,00;CUIDADOR DE CRIANÇA (INFANTIL);Estatutário;2015;Janeiro;2017;
ELIZABETHE DIAS DE AZEVEDO;1.179,16;CHEFE DO SETOR DE COMPRAS;Comissionado;2013;Janeiro;2017;
ELIZIMAR BEZERRA DE SOUZA ARRUDA;2.775,98;PROF. II-A PFII-F (30H)*;Estatutário;1982;Janeiro;2017;
ELMA GABRIELLA BEZERRA DE OLIVEIRA COSTA;938,32;ATENDENTE DE FARMACIA (40Hs);Estatutário;2015;Janeiro;2017;
ELVIRO FERREIRA NETO;1.841,99;INSPETOR ESCOLAR  II-A (30hs);Estatutário;2015;Janeiro;2017;
ENICLEIDE AUGUSTO DE ARAUJO;1.667,50;AGENTE COM. DE SAUDE (40h);Estatutário;1998;Janeiro;2017;
ENOLEIDE FERREIRA DANTAS;2.148,94;PROF. ENS. FUNDAMENTAL - I (30Hs);Estatutário;2015;Janeiro;2017;
ERENILDO MACEDO DOS SANTOS;880,00;ASG - CONTRATADO;CONTRATADO;2016;Janeiro;2017;
ERIDALVA TRINDADE DA SILVA;1.841,99;PROF POLIVAL ENS INFANTIL - II-A (30Hs);Estatutário;2015;Janeiro;2017;
ERIFRAN PAULO DE SOUZA;2.546,18;PROF III-A PFIII-D (30H);N/A;N/A;Janeiro;2017;
ERIKA DANTAS DE MEDEIROS;880,00;CHEFE DO SETOR DE FINANÇAS;N/A;N/A;Janeiro;2017;
ERILÇO ACACIO FIDELIS PEREIRA DOS SANTOS;11.500,00;MEDICO PLANTONISTA;N/A;N/A;Janeiro;2017;
ERINALDA BATISTA SILVA;1.357,50;AGENTE COM. DE SAUDE (40h);Estatutário;2005;Janeiro;2017;
ERINEIDE BEZERRA DE AQUINO;2.830,27;PROF. III-A PFIII-C (30H)*;Estatutário;2000;Janeiro;2017;
ERINEIDE RAMALHO DA SILVA FELINTO;1.041,16;ASG EFETIVOS;Estatutário;1999;Janeiro;2017;
ERIVAN ALMEIDA DE BRITO;213,53;PROFESSOR - ADICIONAIS;Estatutário;2011;Janeiro;2017;
ERIVAN ALMEIDA DE BRITO;3.131,83;PROF. II-A PFII-F (30H)*;Estatutário;1984;Janeiro;2017;
ERIVAN FAUSTINO DE SOUZA;938,32;ASG - CONTRATADO;CONTRATADO;2016;Janeiro;2017;
ERIVAN FERNANDES DE FREITAS;1.188,00;GARI (40h);Estatutário;1998;Janeiro;2017;
ERIZE DANTAS DA SILVA;970,00;AUXILIAR DE SAUDE BUCAL (40Hs);Estatutário;2015;Janeiro;2017;
ESTELA GARCIA DA SILVA MEDEIROS;1.600,00;PSICÓLOGO(A) - 40Hs;Estatutário;2015;Janeiro;2017;
EUCIFIA BEZERRA DE ALMEIDA BRITO;880,00;ASG - CONTRATADO;CONTRATADO;2016;Janeiro;2017;
EUKARINE DO NASCIMENTO DUDA AZEVEDO;1.841,99;PROFESSOR DE MATEMATTICA - II-A (30Hs);Estatutário;2015;Janeiro;2017;
EUNICE PEREIRA DE OLIVEIRA;2.506,53;PROF. I-A PFI-F (30H)*;Estatutário;1977;Janeiro;2017;
EVA FRANCISCA DA SILVA;909,16;CONSELHEIRO (40h);Eletivo;2016;Janeiro;2017;
EVA VILMA BATALHA DA SILVA;3.394,90;PROF. III-A PFIII-D (40H);Estatutário;1998;Janeiro;2017;
EVANDRO MACEDO DOS SANTOS;1.275,48;GARI (40h);Estatutário;1998;Janeiro;2017;
EVERALDO DE LIMA NOBREGA;4.000,00;ASSESSOR EM CONTABILIDADE;N/A;N/A;Janeiro;2017;
EXPEDITO LAURO DE MEDEIROS JUNIOR;880,00;CHEFE DE SETOR DE CADASTRO ÚNICO E BOLSA FAMILIA;N/A;N/A;Janeiro;2017;
EXPEDITO SIMAO DA SILVA;1.188,00;GARI (40h);Estatutário;1998;Janeiro;2017;
FABIANA GONÇALVES BEZERRA;1.400,00;SECRETARIO ADJUNTO;Comissionado;2013;Janeiro;2017;
FABIANA TAVARES DA CONCEIÇÃO;1.600,00;TECNICO ENFERMAGEM CONTRATADO;CONTRATADO;2016;Janeiro;2017;
FABIOLA DA COSTA SILVA;880,00;AUXILIAR ADMINISTRATIVO (40Hs);Estatutário;2015;Janeiro;2017;
FATIMA LIDUINA CARDOSO DE SOUZA;1.364,00;ASG EFETIVOS;Estatutário;1999;Janeiro;2017;
FERNANDO DE OLIVEIRA CANO;6.000,00;PSIQUIATRA (20Hs);Estatutário;2015;Janeiro;2017;
FERNANDO LUIZ DA SILVA;1.357,50;AGENTE COM. DE SAUDE (40h);Estatutário;2000;Janeiro;2017;
FLAVIA NETHANIA GURGEL PEREIRA;1.841,99;PROF.(AEE) ATEND EDUC ESPECIALIZADO - II-A (30Hs);Estatutário;2015;Janeiro;2017;
FLAVIO LEYDSON PEREIRA DA SILVA;880,00;DIGITADOR (40h);Estatutário;2015;Janeiro;2017;
FRANCIELIA JESSICA DE OLIVEIRA;880,00;OFICINEIRO;CONTRATADO (PGF);2016;Janeiro;2017;
FRANCIELIO BERNARDO DA SILVA;1.160,00;ASG - CONTRATADO;CONTRATADO;2016;Janeiro;2017;
FRANCIHELE SANTANA DE SOUZA;938,32;PROF. CONTRATADO;CONTRATADO;2016;Janeiro;2017;
FRANCILENE BATISTA DA SILVA;880,00;ASG - CONTRATADO;CONTRATADO;2016;Janeiro;2017;
FRANCILENE PEREIRA DE MELO;4.022,22;PROF III-A PFIII-D (30H);N/A;N/A;Janeiro;2017;
FRANCIMAR LOPES DA SILVA;938,32;CHEFE DO SETOR DE PROGRAMAS ESPECIAIS;N/A;N/A;Janeiro;2017;
FRANCINALDO DUARTE DA SILVA;909,16;VIGIA CONTRATADO;CONTRATADO;2016;Janeiro;2017;
FRANCINALDO VIEIRA DA SILVA;880,00;ASG - CONTRATADO;CONTRATADO;2016;Janeiro;2017;
FRANCINEIDE BARROSO DE ARAUJO;1.667,50;AGENTE COM. DE SAUDE (40h);Estatutário;2000;Janeiro;2017;
FRANCINEIDE GOMES BEZERRA;1.244,00;ASG EFETIVOS;Estatutário;1998;Janeiro;2017;
FRANCINEIDE PEREIRA DA SILVA;1.042,00;ASG EFETIVOS;Estatutário;1998;Janeiro;2017;
FRANCINETE BEZERRA DE ARAÚJO;1.012,00;ASG EFETIVOS;Estatutário;2000;Janeiro;2017;
FRANCINETE MARIA DA SILVA;2.472,02;PROF. III-A PFIII-C (30H)*;Estatutário;2000;Janeiro;2017;
FRANCINETE PEREIRA GUIMARAES RIBEIRO;1.916,80;PARTEIRA;Estatutário;1998;Janeiro;2017;
FRANCINILDO FELICIANO DOS SANTOS;1.217,16;GARI (40h);Estatutário;1998;Janeiro;2017;
FRANCINILDO FERNANDES BEZERRA;1.218,32;ASG - CONTRATADO;CONTRATADO;2016;Janeiro;2017;
FRANCINILDO SILVESTRE DA SILVA;169,92;PROFESSOR - ADICIONAIS;Estatutário;2011;Janeiro;2017;
FRANCINILDO SILVESTRE DA SILVA;2.237,17;PROF. I-A PFI-C (30H)*;Estatutário;1999;Janeiro;2017;
FRANCINILSON BATISTA DA SILVA;880,00;CONSELHEIRO (40h);Eletivo;2016;Janeiro;2017;
FRANCISCA ALDENIR DA SILVA ALVES;1.217,16;AUXILIAR DE ENFERMAGEM (30);Estatutário;1998;Janeiro;2017;
FRANCISCA ALVES DE ARAUJO;2.058,60;AUX. DE ENFERMAGEM;Estatutário;1998;Janeiro;2017;
FRANCISCA ALVES DE MOURA;1.841,99;PROF POLIVAL ENS INFANTIL - II-A (30Hs);Estatutário;2015;Janeiro;2017;
FRANCISCA ANTONIA PEREIRA DE MEDEIROS;880,00;ASG - CONTRATADO;CONTRATADO;2016;Janeiro;2017;
FRANCISCA BEZERRA DE MEDEIROS ;1.012,00;ASG EFETIVOS;Estatutário;1998;Janeiro;2017;
FRANCISCA CRISTINA JESUINA DA SILVA;1.012,00;GARI (40h);Estatutário;1999;Janeiro;2017;
FRANCISCA DAS CHAGAS BATISTA GOMES;880,00;ASG - CONTRATADO;CONTRATADO;2016;Janeiro;2017;
FRANCISCA DAS CHAGAS CARLOS DE FREITAS;1.012,00;DATILOGRAFO (40h);Estatutário;1998;Janeiro;2017;
FRANCISCA DOS SANTOS SILVA;2.546,18;PROF III-A PFIII-D (30H);N/A;N/A;Janeiro;2017;
FRANCISCA FABIANA BATISTA MONTEIRO;2.500,00;SECRETARIO MUNICIPAL;Comissionado;2013;Janeiro;2017;
FRANCISCA FREITAS DA SILVA;1.521,60;AUX. DE ENFERMAGEM;Estatutário;1998;Janeiro;2017;
FRANCISCA GILVANEIDE HOLANDA DO CARMO;2.881,09;ENFERMEIRO;Estatutário;2015;Janeiro;2017;
FRANCISCA HELENA DE VASCONCELOS;2.650,16;PROF II-A PFII-D (30H);Estatutário;1998;Janeiro;2017;
FRANCISCA LIANE DE ARAUJO ALVES;2.500,00;SECRETARIO MUNICIPAL;N/A;N/A;Janeiro;2017;
FRANCISCA MARIA CONSTANTINO DE OLIVEIRA;2.546,18;PROF III-A PFIII-D (30H);N/A;N/A;Janeiro;2017;
FRANCISCA MARIA DANTAS;1.126,00;ASG EFETIVOS;Estatutário;1998;Janeiro;2017;
FRANCISCA MARIA DOS SANTOS FIGUEIREDO;3.445,03;PROF. III-A PFIII-F (30)*;N/A;N/A;Janeiro;2017;
FRANCISCA MARIA DOS SANTOS SILVA;1.147,80;AUXILIAR DE ENFERMAGEM (30);Estatutário;1999;Janeiro;2017;
FRANCISCA ROSANA DANTAS;1.012,00;ASG EFETIVOS;Estatutário;1998;Janeiro;2017;
FRANCISCA SOUZA LIMA;2.546,18;PROF III-A PFIII-D (30H);N/A;N/A;Janeiro;2017;
FRANCISCA TEIXEIRA DA SILVA OLIVEIRA;968,00;ASG EFETIVOS;Estatutário;2003;Janeiro;2017;
FRANCISCO AVELINO DE BRITO;1.917,60;PROF. I-A PFI-F (30H)*;Estatutário;1982;Janeiro;2017;
FRANCISCO BALBINO DA C. FILHO;1.686,66;GARI (40h);N/A;N/A;Janeiro;2017;
FRANCISCO CAMPANHA SILVA DE OLIVEIRA;1.696,00;MOTORISTA (40h);Estatutário;2015;Janeiro;2017;
FRANCISCO CANINDE DE MEDEIROS SENA;1.200,00;MAESTRO;Estatutário;2016;Janeiro;2017;
FRANCISCO CANINDE FERREIRA;2.546,18;PROF III-A PFIII-D(30H);N/A;N/A;Janeiro;2017;
FRANCISCO COSTA DA SILVA;1.160,00;ASG - CONTRATADO;CONTRATADO;2016;Janeiro;2017;
FRANCISCO DAS CHAGAS DA SILVA;880,00;ASG - CONTRATADO;CONTRATADO;2016;Janeiro;2017;
FRANCISCO DAS CHAGAS DE SOUZA;1.144,00;ASG EFETIVOS;Estatutário;1986;Janeiro;2017;
FRANCISCO DAS CHAGAS PEREIRA DA SILVA;1.258,00;GARI (40h);Estatutário;1998;Janeiro;2017;
FRANCISCO DE ASSIS DA SILVA;2.247,30;PROF. II-A PFII-C (30H)*;Estatutário;1999;Janeiro;2017;
FRANCISCO DE ASSIS DOS SANTOS;3.562,48;PROF. III-A PFIII-F (30)*;N/A;N/A;Janeiro;2017;
FRANCISCO DE ASSIS SILVA;1.556,00;ELETRICISTA (40h);Estatutário;1998;Janeiro;2017;
FRANCISCO DONIZETE DE SOUZA;2.472,02;PROF. III-A PFIII-C (30H)*;Estatutário;1999;Janeiro;2017;
FRANCISCO FELIPE DA SILVA;880,00;ASG - CONTRATADO;CONTRATADO;2016;Janeiro;2017;
FRANCISCO JEAN DA SILVA MORAIS;1.505,77;TECNICO EM RADIOLOGIA;Estatutário;2015;Janeiro;2017;
FRANCISCO LOURENCO FILHO;3.125,00;AG.F.TRIBUTOS;Estatutário;1988;Janeiro;2017;
FRANCISCO MARINHEIRO DE SOUZA FILHO;1.312,00;AGENTE ADMINISTRATIVO (40h);Estatutário;2000;Janeiro;2017;
FRANCISCO MONTEIRO;1.841,99;PROF. DE CIENCIAS DA NATUREZA - II-A (30Hs);Estatutário;2016;Janeiro;2017;
FRANCISCO RIVONALDO MENEZES FREITAS;1.452,00;DIGITADOR (40h);Estatutário;1996;Janeiro;2017;
FRANCISCO SOARES DE MEDEIROS;880,00;ASG - CONTRATADO;CONTRATADO;2016;Janeiro;2017;
FRANCIVALDO FERNANDES BEZERRA;938,32;ASG - CONTRATADO;CONTRATADO;2016;Janeiro;2017;
FRANCKTO PEREIRA DA SILVA;880,00;CUIDADOR DE CRIANÇA (NECESSIDADES ESPECIAIS);Estatutário;2015;Janeiro;2017;
FRANSUELIO PEREIRA DE MELO;909,16;CHEFE DE SETOR DE PROTOCOLO E ARQUIVO;N/A;N/A;Janeiro;2017;
GABRIELLE MORAIS ARRUDA COSTA;2.500,00;ENFERMEIRO;Estatutário;2015;Janeiro;2017;
GEISA MARCIA GOMES DE OLIVEIRA;1.026,32;ASG EFETIVOS;Estatutário;2003;Janeiro;2017;
GENILDA LIMA DOS SANTOS;2.314,71;PROF II-A PFII-D (30H);Estatutário;1998;Janeiro;2017;
GENILDO ASSIS DE MEDEIROS;2.546,18;PROF III-A PFIII-D (30H);N/A;N/A;Janeiro;2017;
GENILIA LIMA DOS SANTOS;3.295,99;PROF. III-A PFIII-C (40H)*;Estatutário;1998;Janeiro;2017;
GENILMA PAULINO DOS SANTOS;909,16;PROF. CONTRATADO;CONTRATADO;2016;Janeiro;2017;
GENILZA BEZERRA DE ARAÚJO;1.300,00;CHEFE DO SETOR DE ALMOXARIFADO E DISTRIBUIÇÃO;Comissionado;2014;Janeiro;2017;
GEORGE RETLEN COSTA QUEIROZ;12.000,00;PREFEITO;Eletivo gabinete civil;2013;Janeiro;2017;
GERALDO GUTEMBERG PEREIRA;1.276,00;ELETRICISTA (40h);Estatutário;1998;Janeiro;2017;
GERVASIO BEZERRA DE MEDEIROS;1.100,00;ASG EFETIVOS;Estatutário;1987;Janeiro;2017;
GESSYCA DA SILVA LOPES SOUZA;1.841,99;PROF. ENS. FUNDAMENTAL - I (30Hs);Estatutário;2015;Janeiro;2017;
GILDEONE JERONIMO DE SOUZA;1.841,99;PROF. DE EDUCAÇÃO FÍSICA - II-A (30Hs);Estatutário;2015;Janeiro;2017;
GILDETE BEZERRA DE MEDEIROS TAVARES;1.041,16;AGENTE ADMINISTRATIVO (40h);Estatutário;1996;Janeiro;2017;
GILSON DE BRITO NERI;1.012,00;MOTORISTA (40h);Estatutário;1999;Janeiro;2017;
GILVAN FELIPE DA SILVA;1.217,16;GARI (40h);Estatutário;1998;Janeiro;2017;
GIRLANE LOPES DE ARAUJO;1.012,00;DATILOGRAFO (40h);Estatutário;1998;Janeiro;2017;
GISA CARLA GOMES DE OLIVEIRA MEDEIROS;2.722,79;PROF. III-A PFIII-C (30H)*;Estatutário;2002;Janeiro;2017;
GLADIANA LOPES DUARTE;1.667,50;AGENTE COM. DE SAUDE (40h);Estatutário;1996;Janeiro;2017;
GLAUCIA FERNANDES DE AZEVEDO;3.200,00;ODONTÓLOGO EF -(40Hs);Estatutário;2015;Janeiro;2017;
GLEDSON MICHELL ALBERTO DE ARAUJO;1.238,32;MOTORISTA (40h);Estatutário;2015;Janeiro;2017;
GLEDSON THOMPSON DE MEDEIROS GALVÃO;1.229,16;CHEFE DO SETOR DE PATRIMONIO;N/A;N/A;Janeiro;2017;
GLENIO DE AZEVEDO ALVES;2.210,33;PROF. DE HISTÓRIA/CULTURA - II-A (30Hs);Estatutário;2016;Janeiro;2017;
GLENIO DE AZEVEDO ALVES;245,60;PROFESSOR - ADICIONAIS;Estatutário;2016;Janeiro;2017;
GUSTAVO BASTOS MEI;1.420,00;MOTORISTA (40h);Estatutário;2015;Janeiro;2017;
GUSTAVO BATISTA DE ARAUJO;880,00;DIGITADOR (40h);Estatutário;2015;Janeiro;2017;
GUTEMBERG DIAS SOARES;1.400,00;SECRETARIO ADJUNTO;Comissionado;2013;Janeiro;2017;
HÉBIA JANAÍNA NOBRE DE MEDEIROS;909,16;AUXILIAR DE SAUDE BUCAL (40Hs);Estatutário;2016;Janeiro;2017;
HELDER SHAKIELLY DE MEDEIROS;880,00;DIGITADOR (40h);Estatutário;2015;Janeiro;2017;
HELENA EUZEBIO DE ALMEIDA SANTOS;2.015,60;AUX. DE ENFERMAGEM;Estatutário;1982;Janeiro;2017;
HELENA PINHEIRO DOS SANTOS;1.012,00;ASG EFETIVOS;Estatutário;1999;Janeiro;2017;
HERVILA GABRIELA TAVARES DE MEDEIROS;1.999,99;ASSISTENTE SOCIAL EF (30H);Estatutário;2015;Janeiro;2017;
HIAGO VIEIRA GURGEL DE LIMA;1.841,99;PROF. DE HISTÓRIA/CULTURA - II-A (30Hs);Estatutário;2015;Janeiro;2017;
IAMANY LOPES GARCIA;2.870,90;ENFERMEIRO;Estatutário;2015;Janeiro;2017;
IARA KALIANE PINHEIRO DOS SANTOS;1.267,92;TECNICO DE ENFERMAGEM (40H);Estatutário;2015;Janeiro;2017;
IBIAPINO IZAIAS DA CRUZ FILHO;938,32;MOTORISTA CONTRATADO;CONTRATADO;2016;Janeiro;2017;
IEDA SILVA DE LIMA;2.118,29;COORDENADOR PEDAGÓGICO II-A;Estatutário;2015;Janeiro;2017;
ILANA CRUZ SILVA;880,00;CUIDADOR DE CRIANÇA (INFANTIL);Estatutário;2015;Janeiro;2017;
ILANE SANTOS;880,00;ORIENTADOR SOCIAL (NIV MEDIO);CONTRATADO (PGF);2016;Janeiro;2017;
ILZA MARIA DE LIMA FERREIRA;1.041,16;AGENTE ADMINISTRATIVO (40h);Estatutário;1999;Janeiro;2017;
INACIO ELIZIARIO FERREIRA;1.468,00;GARI (40h);Estatutário;1998;Janeiro;2017;
INGRID INES DE AQUINO SANTOS;968,00;AGENTE ADMINISTRATIVO (30H);Estatutário;2005;Janeiro;2017;
IONARA DE SOUZA JANUARIO;2.500,00;ENFERMEIRO;Estatutário;2015;Janeiro;2017;
IRACEMA CAVALCANTE;909,16;TECNICO DE ENFERMAGEM (40H);Estatutário;2015;Janeiro;2017;
IRANILSA RAIMUNDA DOS SANTOS;3.131,83;PROF. II-A PFII-F (30H)*;Estatutário;1986;Janeiro;2017;
IRANY DE BRITO LEITE CASSIANO;2.152,22;PROF. I-A PFI-C (30H)*;N/A;N/A;Janeiro;2017;
IRINEIDE ATANAZIO DE ARAÚJO SANTOS;1.041,16;ASG EFETIVOS;Estatutário;1999;Janeiro;2017;
ISA RAQUEL SOARES DE QUEIROZ;2.650,00;ENFERMEIRO;Estatutário;2016;Janeiro;2017;
ISABEL LIANA DE MEDEIROS AMARAL;1.306,80;AGENTE COM. DE SAUDE (40h);Estatutário;2015;Janeiro;2017;
ISMAEL ALMEIDA DA SILVA;956,80;MOTORISTA (40h);Estatutário;2015;Janeiro;2017;
IVANALDO RODRIGUES DE LIRA;2.040,00;GARI (40h);Estatutário;1986;Janeiro;2017;
IVANETE DA FONSECA DANTAS;1.596,39;INSPETOR ESCOLAR  II-A (30hs);Estatutário;2016;Janeiro;2017;
IVANETE MARIA DE MEDEIROS;1.100,00;ASG EFETIVOS;Estatutário;1988;Janeiro;2017;
IVO GOMES DA SILVA;2.546,18;PROF III-A PFIII-D (30H);N/A;N/A;Janeiro;2017;
IVONALDO LOPES DE ARAÚJO;5.140,94;PROF. III-A PFIII-D (40H);N/A;N/A;Janeiro;2017;
IVONALDO LOPES DE ARAÚJO;295,20;PROFESSOR - ADICIONAIS;Estatutário;2015;Janeiro;2017;
IVONALDO PEREIRA LOPES;1.041,16;AGENTE DE PORTARIA (40h);Estatutário;2000;Janeiro;2017;
IVONEIDE LOPES DE ARAUJO E SILVA;2.986,18;PROF III-A PFIII-D (30H);N/A;N/A;Janeiro;2017;
IVONILDO LOPES DE ARAUJO;1.267,50;AGENTE COM. DE SAUDE (40h);Estatutário;1999;Janeiro;2017;
IZAURA MARIA BATISTA DE ARAUJO BEZERRA;880,00;CHEFE DO SETOR DE PROGRAMAS ESPECIAIS;N/A;N/A;Janeiro;2017;
JACILENE PEREIRA DE ARAUJO;880,00;CUIDADOR DE CRIANÇA (INFANTIL);Estatutário;2015;Janeiro;2017;
JAILMA RODRIGUES DE ARAUJO;1.221,60;AUX. DE ENFERMAGEM;Estatutário;1998;Janeiro;2017;
JAILSON SERGIO DOS SANTOS;1.206,76;MOTORISTA (40h);Estatutário;2003;Janeiro;2017;
JAILSON SOUZA DO CARMO;2.314,71;PROF II-A PFII-D (30H);Estatutário;1998;Janeiro;2017;
JALMIR FERREIRA DE LIMA;3.394,90;PROF. III-A PFIII-D (40H);Estatutário;1998;Janeiro;2017;
JANAINA DA SILVA TEIXEIRA;2.118,29;COORDENADOR PEDAGÓGICO II-A;Estatutário;2015;Janeiro;2017;
JANAINA DE LIMA FERREIRA;1.841,99;PROF POLIVAL ENS INFANTIL - II-A (30Hs);Estatutário;2015;Janeiro;2017;
JANAINA TORRES DE ARAUJO;1.600,00;ADVOGADO;Estatutário;2015;Janeiro;2017;
JANAT ERIKA FERNANDES DE MEDEIROS;880,00;CUIDADOR DE CRIANÇA (INFANTIL);Estatutário;2015;Janeiro;2017;
JANE KECIA DE MEDEIROS;1.841,99;PROF POLIVAL ENS INFANTIL - II-A (30Hs);Estatutário;2015;Janeiro;2017;
JAURI DE FREITAS SANTOS;1.012,00;ELETRICISTA (40h);Estatutário;1998;Janeiro;2017;
JEANE MEIRE CAMARA SOARES;880,00;VICE DIRETOR (A);Comissionado;2016;Janeiro;2017;
JEANNE ALVES DO AMARAL;1.012,00;ASG EFETIVOS;Estatutário;1998;Janeiro;2017;
JECKSON PEREIRA DA SILVA MATIAS;880,00;MOTORISTA (40h);Estatutário;2015;Janeiro;2017;
JEFERSON DE MEDEIROS SANTOS;880,00;ASG - CONTRATADO;CONTRATADO;2016;Janeiro;2017;
JESSICA DANTAS XAVIER;1.600,00;NUTRICIONISTA EF (40Hs);Estatutário;2016;Janeiro;2017;
JESSICA FERNANDA DE MEDEIROS JUSTINIANO;1.841,99;PROF. DE LINGUA PORTUGUESA - II-A (30Hs);Estatutário;2016;Janeiro;2017;
JESSICA VICENTE DE SOUZA;1.173,33;AGENTE SOCIAL (40H);Estatutário;2015;Janeiro;2017;
JESSYCA LUANA SANTOS BRITO;1.600,00;PSICÓLOGO(A) - 40Hs;Estatutário;2015;Janeiro;2017;
JOAILSON LIMA DE ARAUJO;1.276,00;GARI (40h);Estatutário;1987;Janeiro;2017;
JOANA DARC DE MOURA SILVA;1.026,32;DIGITADOR (40h);Estatutário;2003;Janeiro;2017;
JOANA DARK LOPES DE ALMEIDA;880,00;MONITOR DE ESPORTE(20H);CONTRATADO (PGF);2016;Janeiro;2017;
JOAO ALVES DE ARAÚJO;1.041,16;AGENTE ADMINISTRATIVO (40h);Estatutário;1998;Janeiro;2017;
JOAO BATISTA CASSIANO DA SILVA;938,32;MOTORISTA CONTRATADO;CONTRATADO;2016;Janeiro;2017;
JOAO BATISTA DA SILVA;938,32;ASG - CONTRATADO;CONTRATADO;2016;Janeiro;2017;
JOAO BATISTA DE BRITO;14.000,00;MEDICO;N/A;N/A;Janeiro;2017;
JOAO BATISTA DUTRA;1.517,50;AGENTE COM. DE SAUDE (40h);Estatutário;1996;Janeiro;2017;
JOAO FELICIANO DO CARMO JUNIOR;1.292,00;PEDREIRO (40h);Estatutário;2000;Janeiro;2017;
JOAO LOPES DE ARAUJO NETO;1.357,50;AGENTE COM. DE SAUDE (40h);Estatutário;1996;Janeiro;2017;
JOAO MARIA PEREIRA;968,00;AGENTE SERV.ESPORTIVO;Estatutário;2002;Janeiro;2017;
JOAO PAULO DA SILVA;880,00;CONSELHEIRO (40h);Eletivo;2016;Janeiro;2017;
JOAO SALVIANO DA SILVA;1.400,00;SECRETARIO ADJUNTO;Comissionado;2016;Janeiro;2017;
JOAQUIM ALVES DA COSTA NETO;880,00;DIGITADOR (40h);Estatutário;2015;Janeiro;2017;
JOAQUIM BARROS DOS SANTOS;1.494,00;FISCAL DE TRIBUTOS (40h);Estatutário;1986;Janeiro;2017;
JOCIVAN CONSTANTINO PEREIRA;759,00;AUXILIAR DE ENFERMAGEM (30);Estatutário;1998;Janeiro;2017;
JOEL LOPES GALVÃO NETO;1.400,00;DIRETOR DO DPTO DE LICITAÇÕES, CONTRATOS E CONVÊNI;Comissionado;2015;Janeiro;2017;
JOELMA BATISTA DE ARAUJO;1.276,00;ASG EFETIVOS;Estatutário;1987;Janeiro;2017;
JOELMA DE FATIMA LOPES DE MEDEIROS;2.632,00;SECRETÁRIO MUNICIPAL (EF);N/A;N/A;Janeiro;2017;
JOELMA FRANCISCA DE ARAUJO;909,16;ASG - CONTRATADO;CONTRATADO;2016;Janeiro;2017;
JOELMA GALDINO DE ALENCAR ALEXANDRE;2.472,02;PROF. III-A PFIII-C (30H)*;Estatutário;1999;Janeiro;2017;
JOHNY LOPES DE ARAUJO;938,32;MOTORISTA (40h);Estatutário;2015;Janeiro;2017;
JOILMA ANTONIA DA SILVA ESTEVAM;1.012,00;ASG EFETIVOS;Estatutário;1999;Janeiro;2017;
JOILMA OLIVEIRA DE ARAÚJO;1.012,00;ASG EFETIVOS;Estatutário;1998;Janeiro;2017;
JONNHY VALE DE FIGUEIREDO;1.920,00;BIOQUIMICO-EF (40Hs);Estatutário;2016;Janeiro;2017;
JORAIDA DE FREITAS SANTOS FELINTO;2.850,61;PROF. III-A PFIII-E (30H)*;N/A;N/A;Janeiro;2017;
JORGE LUIZ GURGEL GUERRA JUNIOR;1.180,00;MOTORISTA (40h);Estatutário;2015;Janeiro;2017;
JOSAFA GUIDA DE SOUZA;1.000,00;ASSESSOR ESPECIAL DE GABINETE;Comissionado;2013;Janeiro;2017;
JOSE ALEXANDRE NETO;1.160,00;ASG - CONTRATADO;CONTRATADO;2016;Janeiro;2017;
JOSE ALMEIDA NETO;2.500,00;SECRETARIO MUNICIPAL;Comissionado;2013;Janeiro;2017;
JOSE ANTONIO BATISTA DE ARAUJO;1.981,33;MOTORISTA (40h);Estatutário;1987;Janeiro;2017;
JOSE ANTONIO BATISTA DE ARAUJO;1.517,50;AGENTE COM. DE SAUDE (40h);Estatutário;1996;Janeiro;2017;
JOSÉ ARTUR ALMEIDA FEITOSA SEGUNDO;938,32;PORTEIRO CONTRATADO;CONTRATADO;2016;Janeiro;2017;
JOSE CARLOS DE ALMEIDA;880,00;OFICINEIRO;CONTRATADO (PGF);2016;Janeiro;2017;
JOSE DAVID DA SILVA;880,00;MOTORISTA CONTRATADO;N/A;N/A;Janeiro;2017;
JOSE DE ANCHIETA ARAUJO MEDEIROS;1.012,00;ASG EFETIVOS;Estatutário;1998;Janeiro;2017;
JOSE DE ANCHIETA BATISTA DOS SANTOS;1.362,00;FISCAL DE TRIBUTOS (40h);Estatutário;1999;Janeiro;2017;
JOSE FRANCISCO DA SILVA;1.357,50;AGENTE COM. DE SAUDE (40h);Estatutário;2000;Janeiro;2017;
JOSE FREITAS DA SILVA;880,00;CHEFE DO SETOR DE POLIT AMB, LICENÇAS E OUTORGAS;N/A;N/A;Janeiro;2017;
JOSE JOANILSON BEZERRA DE ALMEIDA;1.517,50;AGENTE COM. DE SAUDE (40h);Estatutário;1996;Janeiro;2017;
JOSE JOAQUIM BEZERRA;1.144,00;ASG EFETIVOS;Estatutário;1984;Janeiro;2017;
JOSE JOAQUIM DOS SANTOS FILHO;1.188,00;GARI (40h);Estatutário;1998;Janeiro;2017;
JOSÉ JOSEMIR DA TRINDADE SILVA;1.209,16;MOTORISTA (40h);Estatutário;2016;Janeiro;2017;
JOSE LUIZ DA SILVA;880,00;VIGIA CONTRATADO;CONTRATADO;2016;Janeiro;2017;
JOSE PEREIRA DA SILVA;1.188,00;GARI (40h);Estatutário;1998;Janeiro;2017;
JOSÉ PETRÔNIO DANTAS DE ARAUJO;1.180,00;MOTORISTA (40h);Estatutário;2015;Janeiro;2017;
JOSE ROMUALDO DA CRUZ;1.012,00;ASG EFETIVOS;Estatutário;1999;Janeiro;2017;
JOSE RONALDO DA SILVA;1.000,00;ASSESSOR ESPECIAL DE GABINETE;Comissionado;2013;Janeiro;2017;
JOSÉ TAIRONE COSTA DE MEDEIROS;1.408,00;AGENTE COMUNITARIO DE COMBATE ÀS ENDEMIAS;Estatutário;2015;Janeiro;2017;
JOSE VIANA DE SALES;1.979,60;MOTORISTA (40h);Estatutário;2002;Janeiro;2017;
JOSE VIEIRA FILHO;1.012,00;VIGIA (40h);Estatutário;1998;Janeiro;2017;
JOSE VIRGILIO PEREIRA JUNIOR;880,00;CHEFE DE SETOR EXECUTIVO DOS CONSELHOS;Comissionado;2016;Janeiro;2017;
JOSEANE MARIA ESTEVAM DA SILVA;1.320,00;ASG EFETIVOS;Estatutário;2003;Janeiro;2017;
JOSEFA BEZERRA DE BRITO ;1.917,60;PROF. I-A PFI-F (30H)*;Estatutário;1984;Janeiro;2017;
JOSEILDO SILVESTRE DA SILVA;880,00;PROF. CONTRATADO;CONTRATADO;2016;Janeiro;2017;
JOSEILMA FAUSTINA DA SILVA;967,48;ASG - CONTRATADO;CONTRATADO;2016;Janeiro;2017;
JOSEMIR LOPES DE ALMEIDA;1.012,00;ASG EFETIVOS;Estatutário;1998;Janeiro;2017;
JOSENILDA LOPES BEZERRA;880,00;ASG - CONTRATADO;CONTRATADO;2016;Janeiro;2017;
JOSENILDA MARIA DA SILVA;1.012,00;AGENTE ADMINISTRATIVO (40h);Estatutário;1998;Janeiro;2017;
JOSETONIO PEREIRA DA SILVA;1.160,00;ASG - CONTRATADO;CONTRATADO;2016;Janeiro;2017;
JOSIANE LOPES DE QUEIROZ ARAUJO;938,32;CHEFE DO SETOR PEDAG DE ESTAB DE ENSINO PRO INFANC;N/A;N/A;Janeiro;2017;
JOSILANE MARINHO QUEIROZ;1.667,50;AGENTE COM. DE SAUDE (40h);Estatutário;1997;Janeiro;2017;
JOSILENE MOURA DOS SANTOS;1.012,00;ASG EFETIVOS;Estatutário;1998;Janeiro;2017;
JOSILMA OLIVEIRA DA SILVA MOURA;2.247,30;PROF. II-A PFII-C (30H)*;Estatutário;1999;Janeiro;2017;
JOSIMAR MARQUES DE OLIVEIRA;1.517,50;AGENTE COM. DE SAUDE (40h);Estatutário;2002;Janeiro;2017;
JOSIMARIA SILVA DE ARAÚJO;2.546,18;PROF III-A PFIII-D(30H);N/A;N/A;Janeiro;2017;
JOSIMIR ESTEVAM DA SILVA;880,00;VIGIA CONTRATADO;CONTRATADO;2016;Janeiro;2017;
JOSINEIDE SOARES DO NASCIMENTO;968,00;ASG EFETIVOS;Estatutário;2004;Janeiro;2017;
JOSUE JOAO ALEXANDRE DA SILVA;938,32;CONSELHEIRO (40h);Eletivo;2016;Janeiro;2017;
JOSUE LUCIO DE ARAUJO;1.468,00;GARI (40h);Estatutário;1998;Janeiro;2017;
JOYCE RAYMIZAM GOMES DOS SANTOS;880,00;RECEPCIONISTA -EF (40Hs);Estatutário;2015;Janeiro;2017;
JOZEILMA MATEUS DA SILVA;1.012,00;ASG EFETIVOS;Estatutário;1999;Janeiro;2017;
JOZINALDO LUCIO DA SILVA;880,00;ASG - CONTRATADO;CONTRATADO;2016;Janeiro;2017;
JUAREZ GARCIA DO AMARAL;1.012,00;MOTORISTA (40h);Estatutário;1998;Janeiro;2017;
JUCIARA DA SILVA TEIXEIRA;2.118,29;COORDENADOR PEDAGÓGICO II-A;Estatutário;2015;Janeiro;2017;
JUCILENE MARIA DE ARAUJO TRIUNFO;2.546,18;PROF III-A PFIII-D (30H);N/A;N/A;Janeiro;2017;
JULIANA GOMES CORTES;880,00;TECNICO DE ENFERMAGEM (40H);Estatutário;2015;Janeiro;2017;
JULIANA PATROCINIO DOS SANTOS;1.130,00;ASG - CONTRATADO;CONTRATADO;2016;Janeiro;2017;
JULIETA BATISTA DE ALMEIDA;1.012,00;ASG EFETIVOS;Estatutário;1998;Janeiro;2017;
JULIO CESAR MEDEIROS;2.500,00;PROCURADOR ESPECIAL;Comissionado;2013;Janeiro;2017;
JULYANA COSTA CABRAL;1.000,00;FISIOTERAPEUTA EF - (20hS);Estatutário;2015;Janeiro;2017;
JURCELIA PEREIRA DANTAS;1.012,00;ASG EFETIVOS;Estatutário;1998;Janeiro;2017;
JURZYANNE BARROSO DE PAIVA;909,16;CHEFE DO SETOR DE RECURSOS HUMANOS;N/A;N/A;Janeiro;2017;
KATIA CILENE DA SILVA BARBOSA;2.546,18;PROF III-A PFIII-D (30H);N/A;N/A;Janeiro;2017;
KATIA CILENE DE AZEVEDO;880,00;ASG - CONTRATADO;CONTRATADO;2016;Janeiro;2017;
KEDILVA ARAÚJO DE MEDEIROS CABRAL;4.354,85;PROF. III-A PFIII-F (40)*;Estatutário;1988;Janeiro;2017;
KELLY CRISTINA SOARES;880,00;CHEFE DE SETOR DE PROTEÇÃO SOCIAL BASICA;N/A;N/A;Janeiro;2017;
KEYWERTON DE VASCONCELOS BRITO;1.209,16;MOTORISTA (40h);Estatutário;2015;Janeiro;2017;
LAIR FERNANDES DA SILVA;1.444,00;MOTORISTA (40h);Estatutário;1984;Janeiro;2017;
LAIS REGINA DA COSTA PEREIRA;3.000,00;ODONTÓLOGO EF -(40Hs);Estatutário;2015;Janeiro;2017;
LAUDECI OLIVEIRA DOS SANTOS;1.411,60;AUX. DE ENFERMAGEM;Estatutário;1998;Janeiro;2017;
LAUDENISIA FERREIRA DA CRUZ;2.506,53;PROF. I-A PFI-F (30H)*;Estatutário;1980;Janeiro;2017;
LAUDINEIDE CONSTANTINO DE ARAUJO;2.546,18;PROF III-A PFIII-D (30H);N/A;N/A;Janeiro;2017;
LAVOISIER PEREIRA COSTA;1.026,32;DIGITADOR (40h);Estatutário;2003;Janeiro;2017;
LAYANNE DE MEDEIROS COSTA ALMEIDA;1.841,99;PROF. ENS. FUNDAMENTAL - I (30Hs);Estatutário;2015;Janeiro;2017;
LAZARO DAMIAO DA SILVA;968,00;ASG EFETIVOS;Estatutário;2004;Janeiro;2017;
LEANDRO MORAIS GIFFONE OVIDIO;2.650,00;ODONTÓLOGO EF -(40Hs);Estatutário;2015;Janeiro;2017;
LEANDRO RODRIGUES DA COSTA;1.705,00;MOTORISTA CONTRATADO;CONTRATADO;2016;Janeiro;2017;
LEIDJANY DUTRA PEREIRA;880,00;ASG - CONTRATADO;CONTRATADO;2016;Janeiro;2017;
LENI CAMPANHA DA SILVA;1.012,00;AUX. DE ENFERMAGEM;Estatutário;1999;Janeiro;2017;
LENI SOARES DE BRITO;3.914,85;PROF. III-A PFIII-F (40)*;N/A;N/A;Janeiro;2017;
LENIRA FIRMINO DE SOUZA ARAÚJO;2.546,18;PROF III-A PFIII-D (30H);N/A;N/A;Janeiro;2017;
LENIVANIA MARIA OLEGARIO DE OLIVEIRA;2.472,02;PROF. III-A PFIII-C (30H)*;Estatutário;1999;Janeiro;2017;
LEONILDES DA SILVA COSTA;2.118,29;COORDENADOR PEDAGÓGICO II-A;Estatutário;2015;Janeiro;2017;
LEYDE DAYANE FERNANDES FONSECA DE MEDEIR;938,32;PROF. CONTRATADO;CONTRATADO;2016;Janeiro;2017;
LIDIA RODRIGUES DA COSTA;1.217,48;TECNICO DE ENFERMAGEM (40H);Estatutário;2015;Janeiro;2017;
LIDJA KALLINY GOMES DOS SANTOS;1.960,00;ORIENTADOR DO P.Q.A.V.S;CONTRATADO;2016;Janeiro;2017;
LILIANE BARBOSA DE ALMEIDA;909,16;PROF. CONTRATADO;CONTRATADO;2016;Janeiro;2017;
LINDALVA BATISTA DE ARAÚJO;2.506,53;PROF. I-A PFI-F (30H)*;Estatutário;1977;Janeiro;2017;
LINDALVA SILVESTRE DE VASCONCELOS;2.314,71;PROF II-A PFII-D (30H);Estatutário;1998;Janeiro;2017;
LINDEMBERG CLEMENTE BARBOSA;1.144,00;COVEIRO (40h);Estatutário;2002;Janeiro;2017;
LINDOELSON CLEMENTINO DE MORAIS;1.137,16;MOTORISTA (40h);Estatutário;2015;Janeiro;2017;
LINDOMAR SILVESTRE DE VASCONCELOS;2.090,00;AGENTE COM. DE SAUDE (40h);Estatutário;2000;Janeiro;2017;
LIZANDRA MARIA DE ARAUJO;909,16;TECNICO DE ENFERMAGEM (40H);Estatutário;2015;Janeiro;2017;
LIZANDRA MEDEIROS DOS SANTOS;1.841,99;PROF. DE LINGUA PORTUGUESA - II-A (30Hs);Estatutário;2015;Janeiro;2017;
LUCIA DE FATIMA DA SILVA BARBOSA;1.517,50;AGENTE COM. DE SAUDE (40h);Estatutário;2000;Janeiro;2017;
LUCIA ELIZABETH BEZERRA SOARES;1.113,68;PROF. I-A PFI-A (30H) (10EF);N/A;N/A;Janeiro;2017;
LUCIA MARGARETE EETEVAM DE ARAÚJO;1.012,00;ASG EFETIVOS;Estatutário;1998;Janeiro;2017;
LUCIANA DA SILVA;909,16;CUIDADOR DE CRIANÇA (NECESS. ESPECIAIS) CONTRA;CONTRATADO;2016;Janeiro;2017;
LUCIANA MEDEIROS DE OLIVEIRA;1.841,99;PROF. ENS. FUNDAMENTAL - I (30Hs);Estatutário;2015;Janeiro;2017;
LUCICLEIDE DAS CHAGAS PEREIRA;1.667,50;AGENTE COM. DE SAUDE (40h);Estatutário;2000;Janeiro;2017;
LUCIENE RUFINO DA SILVA;997,16;ASG EFETIVOS;Estatutário;2003;Janeiro;2017;
LUCIMEIRE RODRIGUES DA SILVA;970,00;AUXILIAR DE SAUDE BUCAL (40Hs);Estatutário;2015;Janeiro;2017;
LUCINETE VALENTIM DE MEDEIROS ARAUJO;2.472,02;PROF. III-A PFIII-C (30H)*;Estatutário;2000;Janeiro;2017;
LUCIVANIA MARIA DE OLIVEIRA;1.012,00;AUX. DE ENFERMAGEM;Estatutário;1998;Janeiro;2017;
LUIZ BALBINO ARAUJO FILHO;924,00;ASG EFETIVOS;Estatutário;2009;Janeiro;2017;
LUIZ GONZAGA DA CRUZ;1.581,60;MOTORISTA (40h);Estatutário;1999;Janeiro;2017;
LUSIENE GALDINO DE MENESES;1.300,00;TECNICO ENFERMAGEM CONTRATADO;CONTRATADO;2016;Janeiro;2017;
LUZANILDA LOPES DE ALENCAR;2.936,14;PROF. III-A PFIII-F (30)*;Estatutário;1987;Janeiro;2017;
LUZIA MARIA ALVES DE ARAUJO;1.841,99;INSPETOR ESCOLAR  II-A (30hs);Estatutário;2015;Janeiro;2017;
LUZIA PAULINA DOS SANTOS BRITO;997,16;ASG EFETIVOS;Estatutário;2003;Janeiro;2017;
LUZIA RAQUEL DA COSTA SILVA;2.148,94;PROF POLIVAL ENS INFANTIL - II-A (30Hs);Estatutário;2015;Janeiro;2017;
LUZINETE FIRMINO DE SOUZA;1.026,32;ASG EFETIVOS;Estatutário;2003;Janeiro;2017;
LUZINETE PEREIRA DE SOUZA;880,00;ASG - CONTRATADO;CONTRATADO;2016;Janeiro;2017;
MACIÉLIO ALVES DE MEDEIROS;1.200,00;OPERADOR DE MOTO NIVELADORA - EF;Estatutário;2015;Janeiro;2017;
MAGALLY DE ARAUJO VIEIRA DE MELO;1.999,99;ASSISTENTE SOCIAL EF (30H);Estatutário;2015;Janeiro;2017;
MAGUILON SOARES GOMES;2.546,18;PROF III-A PFIII-D (30H);N/A;N/A;Janeiro;2017;
MAÍRA IVZE BEZERRA ALVES;2.500,00;CONTROLADOR(A);Comissionado;2016;Janeiro;2017;
MANACES DE BRITO NERI;1.177,60;MOTORISTA (40h);Estatutário;2003;Janeiro;2017;
MANOEL FELICIANO DA CRUZ FILHO;1.468,00;GARI (40h);Estatutário;1998;Janeiro;2017;
MANOEL PEREIRA DUTRA JUNIOR;880,00;VIGIA CONTRATADO;CONTRATADO;2016;Janeiro;2017;
MARCELO JOSE DE LIMA;3.834,90;PROF. III-A PFIII-D (40H);Estatutário;1998;Janeiro;2017;
MARCIA REGINA DE ARAUJO;1.821,60;AUX. DE ENFERMAGEM;Estatutário;1998;Janeiro;2017;
MARCIELMA DOS SANTOS ARAUJO;2.148,94;PROF. ENS. FUNDAMENTAL - I (30Hs);Estatutário;2015;Janeiro;2017;
MARCIELMA DOS SANTOS ARAUJO;184,19;PROFESSOR - ADICIONAIS;Estatutário;2015;Janeiro;2017;
MARCILENE SHEYLA BESERRA DE OLIVEIRA;909,16;COORD. ADMINISTRATIVO-EF (40Hs);Estatutário;2015;Janeiro;2017;
MARCIONE ARAUJO DE MEDEIROS;1.400,00;DIRETOR DEPTO DE ATENÇÃO BÁSICA;N/A;N/A;Janeiro;2017;
MARCIVANIA ARAUJO DE MEDEIROS ALVES;1.407,65;ATENDENTE DE ENFERMAGEM;N/A;N/A;Janeiro;2017;
MARCONDES MEDEIROS DA SILVA;1.056,00;AGENTE COMUNITARIO DE COMBATE ÀS ENDEMIAS;Estatutário;2015;Janeiro;2017;
MARCOS ANTONIO DANTAS DE ARAÚJO;1.102,44;PROFESSOR - ADICIONAIS;Estatutário;2015;Janeiro;2017;
MARCOS ANTONIO DANTAS DE ARAÚJO;3.394,90;PROF. III-A PFIII-D (40H);Estatutário;1998;Janeiro;2017;
MARCUS VINICIUS BEZERRA FRANÇA;2.500,00;PROCURADOR ESPECIAL;Comissionado;2013;Janeiro;2017;
MARGARETH SOARES;3.053,58;PROF. III-A PFIII-F (30)*;Estatutário;1982;Janeiro;2017;
MARGARIDA ANA DOS SANTOS;1.012,00;AUX. DE ENFERMAGEM;Estatutário;1999;Janeiro;2017;
MARGARIDA BEZERRA SOBRINHO;2.546,18;PROF III-A PFIII-D (30H);N/A;N/A;Janeiro;2017;
MARGARIDA IVONETE DE ARAUJO LOPES;1.954,02;PROF. I-A PFI-C (30H)*;Estatutário;1999;Janeiro;2017;
MARGARIDA MARIA DA SILVA;1.667,50;AGENTE COM. DE SAUDE (40h);Estatutário;1998;Janeiro;2017;
MARGARIDA OLIMPIA DE PAIVA CARMO;2.775,98;PROF. II-A PFII-F (30H)*;Estatutário;1985;Janeiro;2017;
MARGARIDA SEGUNDA DE ARAUJO SOARES;1.026,32;DIGITADOR (40h);Estatutário;2003;Janeiro;2017;
MARIA ADRIANA DA SILVA;1.159,16;AUXILIAR DE SAUDE BUCAL (40Hs);Estatutário;2015;Janeiro;2017;
MARIA ADRINA PEREIRA DA SILVA;1.012,00;ASG EFETIVOS;Estatutário;2000;Janeiro;2017;
MARIA ALDENICE BATISTA DA R.ESTEVAM;1.012,00;AGENTE ADMINISTRATIVO (40h);Estatutário;1999;Janeiro;2017;
MARIA AMELIA CAMARA PEREIRA;1.452,00;AUX. DE ENFERMAGEM;Estatutário;1998;Janeiro;2017;
MARIA APARECIDA BATISTA PEREIRA DE ARAUJO;1.703,00;AUX. DE ENFERMAGEM;Estatutário;1988;Janeiro;2017;
MARIA APARECIDA CRUZ LOPES;1.840,00;AGENTE ADMINISTRATIVO (20H);Estatutário;1998;Janeiro;2017;
MARIA APARECIDA DE ASSIS;909,16;ASG - CONTRATADO;CONTRATADO;2016;Janeiro;2017;
MARIA APARECIDA LOURENÇO DA SILVA FONSEC;880,00;ASG - CONTRATADO;CONTRATADO;2016;Janeiro;2017;
MARIA APARECIDA MORAIS PINHEIRO;880,00;CUIDADOR DE CRIANÇA (NECESS. ESPECIAIS) CONTRA;CONTRATADO;2016;Janeiro;2017;
MARIA APARECIDA MOURA DE SOUZA;2.546,18;PROF III-A PFIII-D (30H);N/A;N/A;Janeiro;2017;
MARIA AUCILENE DE JESUS SILVA;1.012,00;ASG EFETIVOS;Estatutário;1999;Janeiro;2017;
MARIA AUXILIADORA DA SILVA;3.701,31;PROF. II-A PFII-F (40H)*;Estatutário;1984;Janeiro;2017;
MARIA AUXILIADORA DA SILVA MELO;880,00;ASG - CONTRATADO;CONTRATADO;2016;Janeiro;2017;
MARIA BETANIA ALMEIDA DE MEDEIROS;1.012,00;ASG EFETIVOS;Estatutário;1999;Janeiro;2017;
MARIA CONCEIÇÃO ALVES DE MEDEIROS;1.839,88;ASG EFETIVOS;Estatutário;1998;Janeiro;2017;
MARIA CONCEIÇÃO DE SOUZA MARQUES;1.041,16;TELEFONISTA (40h);Estatutário;1999;Janeiro;2017;
MARIA CRISTINA DE ARAUJO;1.177,08;TECNICO DE ENFERMAGEM (40H);Estatutário;2015;Janeiro;2017;
MARIA DA CONCEIÇÃO DA SILVA;1.099,48;ASG EFETIVOS;Estatutário;1998;Janeiro;2017;
MARIA DA CONCEIÇAO DE MOURA;1.237,60;AUX. DE ENFERMAGEM;Estatutário;2003;Janeiro;2017;
MARIA DA CONCEIÇÃO L DA SILVA;1.667,50;AGENTE COM. DE SAUDE (40h);Estatutário;2000;Janeiro;2017;
MARIA DA CONCEIÇÃO NERY DA SILVA;2.546,18;PROF III-A PFIII-D(30H);N/A;N/A;Janeiro;2017;
MARIA DA CONCEIÇÃO VICENTE DE SOUZA;880,00;ASG - CONTRATADO;CONTRATADO;2016;Janeiro;2017;
MARIA DA GLORIA AMANCIO DA SILVA;4.228,04;PROF. III-A PFIII-F (40)*;Estatutário;1981;Janeiro;2017;
MARIA DA GLORIA DOS SANTOS;968,00;ASG EFETIVOS;Estatutário;2003;Janeiro;2017;
MARIA DA GUIA DA CRUZ LOPES;2.546,18;PROF III-A PFIII-D (30H);N/A;N/A;Janeiro;2017;
MARIA DA GUIA DE VASCONCELOS;1.102,00;AUX. DE ENFERMAGEM;Estatutário;1998;Janeiro;2017;
MARIA DA GUIA LOPES BEZERRA;1.814,76;PROF. I-A PFI-B (30H)*;Estatutário;2002;Janeiro;2017;
MARIA DA GUIA PAULINO DOS SANTOS;2.572,95;PROF. II-A PFII-C (30H)*;Estatutário;2000;Janeiro;2017;
MARIA DA GUIA SILVA DE OLIVEIRA;1.364,00;ASG EFETIVOS;Estatutário;2000;Janeiro;2017;
MARIA DA GUIA TOMAZ DE AQUINO;997,16;ASG EFETIVOS;Estatutário;2003;Janeiro;2017;
MARIA DA LUZ DE LUCENA;3.053,58;PROF. III-A PFIII-F (30)*;Estatutário;1986;Janeiro;2017;
MARIA DA NATIVIDADE LOPES DA COSTA;1.012,00;ASG EFETIVOS;Estatutário;1998;Janeiro;2017;
MARIA DA PAZ DE ARAUJO;3.914,85;PROF. III-A PFIII-F (40)*;N/A;N/A;Janeiro;2017;
MARIA DA PAZ DE FIGUEIREDO;2.442,71;PROF. II-A PFII-C (30H)*;Estatutário;2000;Janeiro;2017;
MARIA DA PAZ LEITE DE OLIVEIRA;2.364,54;PROF. III-A PFIII-C (30H)*;Estatutário;2003;Janeiro;2017;
MARIA DA PAZ PEREIRA DA SILVA;880,00;ASG - CONTRATADO;CONTRATADO;2016;Janeiro;2017;
MARIA DA VITORIA ALEXANDRE BEZERRA DA SI;938,32;ASG - CONTRATADO;CONTRATADO;2016;Janeiro;2017;
MARIA DAMIANA NERI DA SILVA;1.515,00;AUXILIAR DE ENFERMAGEM (30);Estatutário;1998;Janeiro;2017;
MARIA DANUBIA BATISTA FONSECA;1.012,00;ASG EFETIVOS;Estatutário;1998;Janeiro;2017;
MARIA DARC ALMEIDA DE MEDEIROS;1.100,00;AGENTE ADMINISTRATIVO (40h);Estatutário;1986;Janeiro;2017;
MARIA DAS DORES ALEXANDRE DE MEDEIROS;1.012,00;ASG EFETIVOS;Estatutário;1998;Janeiro;2017;
MARIA DAS DORES ARRUDA DE OLIVEIRA;940,00;ASG - CONTRATADO;CONTRATADO;2016;Janeiro;2017;
MARIA DAS DORES FERREIRA;2.318,71;PROF II-A PFII-D (30H);Estatutário;1999;Janeiro;2017;
MARIA DAS GRACAS ALVES DA SILVA;221,40;PROFESSOR - ADICIONAIS;Estatutário;2012;Janeiro;2017;
MARIA DAS GRACAS ALVES DA SILVA;2.915,18;PROF III-A PFIII-D(30H);N/A;N/A;Janeiro;2017;
MARIA DAS GRACAS ALVES NUNES SANTOS;2.506,53;PROF. I-A PFI-F (30H)*;Estatutário;1979;Janeiro;2017;
MARIA DAS GRAÇAS JUSTINO DE ARAÚJO;2.247,30;PROF. II-A PFII-C (30H)*;Estatutário;1998;Janeiro;2017;
MARIA DAS GRAÇAS LOPES DE ARAUJO;968,00;GARI (40h);Estatutário;2003;Janeiro;2017;
MARIA DAS GRAÇAS PINHEIRO DA CRUZ;909,16;ASG - CONTRATADO;CONTRATADO;2016;Janeiro;2017;
MARIA DAS GRAÇAS RUFINO DE MELO;880,00;AGENTE ADMINISTRATIVO CONTRATO (40h) ;CONTRATADO;2016;Janeiro;2017;
MARIA DAS GRACAS SALUSTIANO DE SOUZA;1.517,50;AGENTE COM. DE SAUDE (40h);Estatutário;2000;Janeiro;2017;
MARIA DAS GRACAS SANTOS DE MEDEIROS;2.148,94;PROF. ENS. FUNDAMENTAL - I (30Hs);Estatutário;2015;Janeiro;2017;
MARIA DAS NEVES BEZERRA DA SILVA;1.012,00;COZINHEIRO (40);Estatutário;1998;Janeiro;2017;
MARIA DAS NEVES DE BRITO DINIZ;997,16;ASG EFETIVOS;Estatutário;2002;Janeiro;2017;
MARIA DAS NEVES MARTINS DOS SANTOS;909,16;ASG - CONTRATADO;CONTRATADO;2016;Janeiro;2017;
MARIA DE FATIMA ALVES DE ARAUJO;1.320,00;AUX. DE ENFERMAGEM;Estatutário;2003;Janeiro;2017;
MARIA DE FATIMA BEZERRA OLIVEIRA;2.723,10;PROF. I-A PFI-F (30H)*;Estatutário;1982;Janeiro;2017;
MARIA DE FATIMA DE ARAUJO;1.012,00;AGENTE DE PORTARIA (40h);Estatutário;2000;Janeiro;2017;
MARIA DE FATIMA LOPES FERNANDES;1.012,00;ASG EFETIVOS;Estatutário;1998;Janeiro;2017;
MARIA DE FATIMA MOURA DA SILVA;1.357,50;AGENTE COM. DE SAUDE (40h);Estatutário;1996;Janeiro;2017;
MARIA DE FATIMA SANTANA DE L ALMEIDA;1.012,00;ASG EFETIVOS;Estatutário;1999;Janeiro;2017;
MARIA DE JESUS DOS SANTOS ARAUJO;1.341,60;AUX. DE ENFERMAGEM;Estatutário;1998;Janeiro;2017;
MARIA DE LOURDES;1.012,00;AUX. DE ENFERMAGEM;Estatutário;1998;Janeiro;2017;
MARIA DE LOURDES DA COSTA;1.144,00;AUX. DE ENFERMAGEM;Estatutário;1986;Janeiro;2017;
MARIA DE LOURDES DA SILVA;1.954,02;PROF. I-A PFI-C (30H)*;Estatutário;2000;Janeiro;2017;
MARIA DE LOURDES DE MEDEIROS NETA;1.041,16;ASG EFETIVOS;Estatutário;1998;Janeiro;2017;
MARIA DILMA FERNANDES DE ARAUJO;1.517,50;AGENTE COM. DE SAUDE (40h);Estatutário;2000;Janeiro;2017;
MARIA DO CARMO PEREIRA DA SILVA;1.517,50;AGENTE COM. DE SAUDE (40h);Estatutário;2006;Janeiro;2017;
MARIA DO CEU FRANCELINO SOARES;1.172,00;ASG EFETIVOS;Estatutário;1998;Janeiro;2017;
MARIA DO CEU ROQUE;1.012,00;ASG EFETIVOS;Estatutário;1998;Janeiro;2017;
MARIA DO ROSARIO CAMARA;938,32;ASG - CONTRATADO;CONTRATADO;2016;Janeiro;2017;
MARIA DO ROSARIO LOPES;1.100,00;AGENTE ADMINISTRATIVO (40h);Estatutário;1988;Janeiro;2017;
MARIA DO ROSARIO PEREIRA DE MEDEIROS;1.466,80;AGENTE COM. DE SAUDE (40h);Estatutário;2015;Janeiro;2017;
MARIA DO SOCORRO DA SILVA;909,16;ASG - CONTRATADO;CONTRATADO;2016;Janeiro;2017;
MARIA DO SOCORRO DAVID DE SALES;997,16;ASG EFETIVOS;Estatutário;2003;Janeiro;2017;
MARIA DO SOCORRO DE BRITO DINIZ ;1.384,80;AUX. DE ENFERMAGEM;Estatutário;2000;Janeiro;2017;
MARIA DO SOCORRO GOMES DE ARAUJO;2.936,14;PROF. III-A PFIII-F (30)*;Estatutário;1988;Janeiro;2017;
MARIA DO SOCORRO GOMES DE ARAUJO;2.546,18;PROF III-A PFIII-D (30H);N/A;N/A;Janeiro;2017;
MARIA DO SOCORRO NERY DA SILVA;2.986,18;PROF III-A PFIII-D(30H);N/A;N/A;Janeiro;2017;
MARIA DO SOCORRO SANTOS FERREIRA;880,00;ASG - CONTRATADO;CONTRATADO;2016;Janeiro;2017;
MARIA DO SOCORRO SOARES TEIXEIRA;2.878,29;SUPERVISOR II-A SPIII-D (30)*;Estatutário;1998;Janeiro;2017;
MARIA DULCINEIDE MARTINS PINHEIRO;1.089,60;TECNICO DE ENFERMAGEM (40H);Estatutário;2015;Janeiro;2017;
MARIA EDILEUSA ALVES SOARES;1.404,00;AUX. DE ENFERMAGEM;Estatutário;2006;Janeiro;2017;
MARIA ELITA DE SOUZA;3.914,85;PROF. III-A PFIII-F (40)*;N/A;N/A;Janeiro;2017;
MARIA ELIZABETE ARAUJO DE MEDEIROS;1.517,50;AGENTE COM. DE SAUDE (40h);Estatutário;1996;Janeiro;2017;
MARIA ELIZABETH DE LIMA FELICIANO SOARES;1.306,80;AGENTE COM. DE SAUDE (40h);Estatutário;2015;Janeiro;2017;
MARIA ELIZETE DE ARAUJO;2.472,02;PROF. III-A PFIII-C (30H)*;Estatutário;2000;Janeiro;2017;
MARIA ELZA TEIXEIRA ;2.181,84;PROF. II-A PFII-B (30H)*;Estatutário;2000;Janeiro;2017;
MARIA FRANCISCA ALEXANDRE DA CRUZ;1.012,00;ASG EFETIVOS;Estatutário;1998;Janeiro;2017;
MARIA FRANCISCA MOURA DE SOUZA;2.546,18;PROF III-A PFIII-D (30H);N/A;N/A;Janeiro;2017;
MARIA FRANCISCA PINHEIRO DA CRUZ;1.954,02;PROF. I-A PFI-C (30H)*;Estatutário;1998;Janeiro;2017;
MARIA GEOVANIA OLIVEIRA DE SOUSA;2.148,94;PROF POLIVAL ENS INFANTIL - II-A (30Hs);Estatutário;2015;Janeiro;2017;
MARIA GERTRUDES DE ANDRADE;880,00;ASG - CONTRATADO;CONTRATADO;2016;Janeiro;2017;
MARIA GILMA DA SILVA;909,16;ASG - CONTRATADO;CONTRATADO;2016;Janeiro;2017;
MARIA GOMES DE ARAÚJO;3.295,99;PROF. III-A PFIII-C (40H)*;Estatutário;1999;Janeiro;2017;
MARIA GORETH DE ARAUJO;1.401,60;AUX. DE ENFERMAGEM;Estatutário;1998;Janeiro;2017;
MARIA HELENA DA CONCEICAO;1.100,00;ASG EFETIVOS;Estatutário;1988;Janeiro;2017;
MARIA HELENISE MOREIRA PEREIRA;1.517,50;AGENTE COM. DE SAUDE (40h);Estatutário;2000;Janeiro;2017;
MARIA ILZA NERY;2.413,70;PROF. I-A PFI-F (30H)*;Estatutário;1982;Janeiro;2017;
MARIA INES ALVES DANTAS;880,00;ASG - CONTRATADO;CONTRATADO;2016;Janeiro;2017;
MARIA IRANICE JALES LOPES;968,00;ASG EFETIVOS;Estatutário;2002;Janeiro;2017;
MARIA IRANILCE FERREIRA FREIRE;1.012,00;ASG EFETIVOS;Estatutário;1999;Janeiro;2017;
MARIA JOILMA DE BRITO;1.378,49;AUX. DE ENFERMAGEM;Estatutário;1999;Janeiro;2017;
MARIA JOSE ALEXANDRE;1.012,00;ASG EFETIVOS;Estatutário;1998;Janeiro;2017;
MARIA JOSE ALVES DA SILVA;880,00;ASG - CONTRATADO;CONTRATADO;2016;Janeiro;2017;
MARIA JOSE ARAUJO LOPES DE SA;5.097,50;CHEFE DE GABINETE CIVIL;N/A;N/A;Janeiro;2017;
MARIA JOSE BEZERRA DE ARAUJO;2.320,86;PROF. I-A PFI-F (30H)*;Estatutário;1988;Janeiro;2017;
MARIA JOSE DA SILVA;880,00;ASG - CONTRATADO;CONTRATADO;2016;Janeiro;2017;
MARIA JOSE DA SILVA DANTAS;1.517,50;AGENTE COM. DE SAUDE (40h);Estatutário;1996;Janeiro;2017;
MARIA JOSE DE ARAUJO;1.640,00;AUX. DE ENFERMAGEM;Estatutário;1998;Janeiro;2017;
MARIA JOSE DE SOUZA;3.171,03;PROF. III-A PFIII-F (30)*;N/A;N/A;Janeiro;2017;
MARIA JOSE DUTRA DE ARAUJO;1.130,00;ASG EFETIVOS;Estatutário;1989;Janeiro;2017;
MARIA JOSE NERY;1.954,02;PROF. I-A PFI-C (30H)*;Estatutário;1998;Janeiro;2017;
MARIA JOSE RODRIGUES DA SILVA CARLOS;909,16;ASG - CONTRATADO;CONTRATADO;2016;Janeiro;2017;
MARIA JOSE SOARES DE FREITAS;1.130,00;AUXILIAR DE SAUDE BUCAL (40Hs);Estatutário;2015;Janeiro;2017;
MARIA LEIDIANE DE QUEIROZ;1.841,99;PROF. DE CIENCIAS DA NATUREZA - II-A (30Hs);Estatutário;2016;Janeiro;2017;
MARIA LUCIA DE MOURA;2.546,18;PROF III-A PFIII-D(30H);N/A;N/A;Janeiro;2017;
MARIA LUCIA PEREIRA DE ARAUJO SILVA;1.012,00;TECNICO DE CONTABILIDADE;Estatutário;1999;Janeiro;2017;
MARIA LUCIENE DA SILVA;1.056,00;AGENTE COMUNITARIO DE COMBATE ÀS ENDEMIAS;Estatutário;2015;Janeiro;2017;
MARIA LUCIETE PEREIRA DA CRUZ;3.722,02;PROF. III-A PFIII-C (30H)*;Estatutário;1998;Janeiro;2017;
MARIA LUCINETE DE SOUZA BRITO;2.413,70;PROF. I-A PFI-F (30H)*;Estatutário;1982;Janeiro;2017;
MARIA LUIZA CLEMENTE DOS SANTOS;1.012,00;ASG EFETIVOS;Estatutário;1998;Janeiro;2017;
MARIA LUZIMAR DE ALMEIDA BRITO;1.012,00;ASG EFETIVOS;Estatutário;1998;Janeiro;2017;
MARIA LUZINETE DANTAS DE ARAUJO;2.148,94;PROF POLIVAL ENS INFANTIL - II-A (30Hs);Estatutário;2015;Janeiro;2017;
MARIA LUZINETE DANTAS DE ARAUJO;184,19;PROFESSOR - ADICIONAIS;Estatutário;2015;Janeiro;2017;
MARIA MARGARETH BEZERRA DE OLIVEIRA SOUZ;1.814,76;PROF. I-A PFI-B (30H)*;Estatutário;2002;Janeiro;2017;
MARIA MARGARIDA DA SILVA;880,00;ASG - CONTRATADO;CONTRATADO;2016;Janeiro;2017;
MARIA MARGARIDA RIBEIRO DANTAS;1.041,16;ASG EFETIVOS;Estatutário;1998;Janeiro;2017;
MARIA NOEMIA DE MOURA BATALHA;2.364,54;PROF. III-A PFIII-C (30H)*;Estatutário;2002;Janeiro;2017;
MARIA REDJANE DA SILVA FONSECA;1.012,00;ASG EFETIVOS;Estatutário;1998;Janeiro;2017;
MARIA RIZONETE DUTRA SILVA;1.012,00;ASG EFETIVOS;Estatutário;1999;Janeiro;2017;
MARIA ROSALIA ALVES MEDEIROS SILVA;1.012,00;TECNICO DE CADASTRO;Estatutário;1999;Janeiro;2017;
MARIA SALETE RAMALHO DA SILVA;880,00;CUIDADOR DE CRIANÇA (INFANTIL);Estatutário;2015;Janeiro;2017;
MARIA SALOME DE ARAÚJO;2.253,27;PROF. I-A PFI-E (30H)CMG;Estatutário;1988;Janeiro;2017;
MARIA SELMA BATISTA DE MEDEIROS AZEVEDO;1.012,00;ASG EFETIVOS;Estatutário;1998;Janeiro;2017;
MARIA SELMA PINHEIRO DOS SANTOS;1.746,80;TEC.DE ENFERMAGEM;Estatutário;1998;Janeiro;2017;
MARIA SUELI DE OLIVEIRA SILVA;880,00;ASG - CONTRATADO;CONTRATADO;2016;Janeiro;2017;
MARIA SUELY CARDOSO DE MEDEIROS;2.148,94;PROF POLIVAL ENS INFANTIL - II-A (30Hs);Estatutário;2015;Janeiro;2017;
MARIA SUZANA DE MEDEIROS LOURENCO;968,00;TECNICO DE CONTABILIDADE;Estatutário;2002;Janeiro;2017;
MARIANA CARLA BATISTA DOS SANTOS;3.200,00;ENFERMEIRO;Estatutário;2015;Janeiro;2017;
MARIANA PINHEIRO JUSTINO;1.600,00;DIRETOR DEPTO DE ATENÇÃO HOSPITALAR E URGENCIA;N/A;N/A;Janeiro;2017;
MARICELY DE FATIMA DA SILVA;2.878,29;SUPERVISOR II-A SPIII-D (30)*;Estatutário;1998;Janeiro;2017;
MARILDE LOPES BEZERRA;1.012,00;ASG EFETIVOS;Estatutário;1999;Janeiro;2017;
MARILENE DA SILVA MEDEIROS;1.188,00;ASG EFETIVOS;Estatutário;1999;Janeiro;2017;
MARILU MARIA DOS SANTOS SOUZA;2.546,18;PROF III-A PFIII-D (30H);N/A;N/A;Janeiro;2017;
MARINA RITA DOS SANTOS;1.332,00;ASG EFETIVOS;Estatutário;1987;Janeiro;2017;
MARINALVA BEZERRA DE OLIVEIRA;880,00;ASG - CONTRATADO;CONTRATADO;2016;Janeiro;2017;
MARINALVA DE SOUZA CABRAL PAIVA;1.100,00;AGENTE ADMINISTRATIVO (40h);Estatutário;1987;Janeiro;2017;
MARINALVA MENEZES DE MEDEIROS;1.012,00;ATENDENTE DE ENFERMAGEM;Estatutário;1998;Janeiro;2017;
MARINICE BEZERRA GOMES;1.012,00;AGENTE DE PORTARIA (40h);Estatutário;2000;Janeiro;2017;
MARISE KAIRES LOPES DE ALMEIDA;938,32;CUIDADOR DE CRIANÇA (NECESS. ESPECIAIS) CONTRA;CONTRATADO;2016;Janeiro;2017;
MARISTELA PEREIRA DE ARAUJO;1.841,99;PROF. DE HISTÓRIA/CULTURA - II-A (30Hs);Estatutário;2015;Janeiro;2017;
MARKISON JOSE DE LIRA;2.148,94;PROF. ENS. FUNDAMENTAL - I (30Hs);Estatutário;2015;Janeiro;2017;
MARLEIDE BATISTA LOPES;938,32;PROF. CONTRATADO;CONTRATADO;2016;Janeiro;2017;
MARLENE SANTINA DE OLIVEIRA;997,16;ASG EFETIVOS;Estatutário;2003;Janeiro;2017;
MARLON NERIS SOARES;880,00;VIGIA CONTRATADO;CONTRATADO;2016;Janeiro;2017;
MARLUCE PEREIRA GALVAO;2.472,02;PROF. III-A PFIII-C (30H)*;Estatutário;2000;Janeiro;2017;
MARTILANIA MEDEIROS GALVÃO;909,16;ASG - CONTRATADO;CONTRATADO;2016;Janeiro;2017;
MARTILENE DO CARMO COSTA;1.085,16;AGENTE COMUNITARIO DE COMBATE ÀS ENDEMIAS;Estatutário;2015;Janeiro;2017;
MAURO VIEIRA DA SILVA;1.468,00;GARI (40h);Estatutário;1998;Janeiro;2017;
MEIRINARDY OLIMPIA DE PAIVA BRITO;2.314,71;PROF II-A PFII-D (30H);Estatutário;2000;Janeiro;2017;
MEIRY ILANY PEREIRA DE OLIVEIRA;880,00;CHEFE DO SETOR ADMINISTRATIVO DO CAPS;N/A;N/A;Janeiro;2017;
MERCIA AMARAL DE MENEZES;1.751,60;AUX. DE ENFERMAGEM;Estatutário;1998;Janeiro;2017;
MERCIA ARAUJO DA SILVA SANTOS;880,00;ASG - CONTRATADO;CONTRATADO;2016;Janeiro;2017;
MICHELL ANGELO EUFRAZIO DE MEDEIROS;14.000,00;MEDICO ESF (40H);Estatutário;2016;Janeiro;2017;
MIGUEL ANTONIO DA COSTA SILVA;968,00;DIGITADOR (40h);Estatutário;2003;Janeiro;2017;
MILLA CHIANCA GOMES VARELA;2.650,00;ENFERMEIRO;Estatutário;2015;Janeiro;2017;
MIRELLE MEDEIROS ANTUNES;2.000,00;PSICÓLOGO(A) - 40Hs;Estatutário;2015;Janeiro;2017;
MONALISA NOGUEIRA DE MEDEIROS;880,00;PROF. CONTRATADO;CONTRATADO;2016;Janeiro;2017;
MONICA GURGEL DE OLIVEIRA;1.130,00;TECNICO DE ENFERMAGEM (40H);Estatutário;2016;Janeiro;2017;
NANAEL SIMÃO DE ARAUJO;880,00;CHEFE DO SETOR PEDAG DE ESTAB DE ENS ANOS INICIAIS;N/A;N/A;Janeiro;2017;
NATALI MARIANA CREMONESE;14.000,00;MEDICO;CONTRATADO (PGF);2016;Janeiro;2017;
NECI ALMEIDA DOS SANTOS;1.540,00;AUX. DE ENFERMAGEM;Estatutário;1998;Janeiro;2017;
NEILY FABIANE MOURA DE OLIVEIRA;1.012,00;DATILOGRAFO (40h);Estatutário;1998;Janeiro;2017;
NIEDJA VALCACIA ARAUJO CARVALHO;1.600,00;ORIENTADOR SOCIAL (40H);N/A;N/A;Janeiro;2017;
NILDA ALVES DE MENEZES;1.012,00;ASG EFETIVOS;Estatutário;1998;Janeiro;2017;
NILVA ALICE TAVARES DE MEDEIROS SANTOS;3.394,90;PROF. III-A PFIII-D (40H);Estatutário;1998;Janeiro;2017;
OGICLEIDE BEZERRA DE SOUZA;909,16;CHEFE DO SETOR PEDAG DE ESTAB DE ENS ANOS FINAIS;N/A;N/A;Janeiro;2017;
ORESTES BEZERRA DE ARAUJO;1.724,00;GARI (40h);Estatutário;1999;Janeiro;2017;
ORLANDO SOUSA DE ARAUJO;1.200,00;OPERADOR DE RETROESCAVADEIRA (40Hs);Estatutário;2015;Janeiro;2017;
OTILIA DIAS PEREIRA NETA;2.546,18;PROF III-A PFIII-D (30H);N/A;N/A;Janeiro;2017;
OZENIR BATISTA DE ARAUJO;2.613,33;AUX. DE ENFERMAGEM;Estatutário;1999;Janeiro;2017;
OZINEIDE DIAS DE ARAUJO;1.070,32;ASG EFETIVOS;Estatutário;1998;Janeiro;2017;
PABLO RONIELLE CASSIANO ARAUJO;2.500,00;SECRETARIO MUNICIPAL;Comissionado;2013;Janeiro;2017;
PALOMA MIRELLI SANTOS DO AMARAL;880,00;TECNICO DE ENFERMAGEM (40H);Estatutário;2015;Janeiro;2017;
PALOMA OLIVEIRA DA CRUZ;2.300,00;NUTRICIONISTA EF (40Hs);Estatutário;2015;Janeiro;2017;
PATRICIA SOUZA DO CARMO SILVA;909,16;CUIDADOR DE CRIANÇA (NECESSIDADES ESPECIAIS);Estatutário;2015;Janeiro;2017;
PAULA CLEDINA BEZERRA DE ARAUJO LOPES;6.000,00;VICE-PREFEITO;Eletivo gabinete civil;2013;Janeiro;2017;
PAULINO COSME DA SILVA;1.188,00;GARI (40h);Estatutário;1998;Janeiro;2017;
PEDRO EPAMINONDAS LOPES NETO;14.000,00;MEDICO ESF (40H);Estatutário;2015;Janeiro;2017;
PEDRO EPAMINONDAS LOPES NETO;8.000,00;MEDICO PLANTONISTA;Estatutário;2015;Janeiro;2017;
PEDRO PEREIRA DA SILVA NETO;1.841,99;PROF. DE CIENCIAS DA NATUREZA - II-A (30Hs);Estatutário;2015;Janeiro;2017;
PEDRO SERGIO PEREIRA FELIX;880,00;MOTORISTA (40h);Estatutário;2015;Janeiro;2017;
PLABITO LOPES SOUTO;1.841,99;PROF. DE LINGUA PORTUGUESA - II-A (30Hs);Estatutário;2015;Janeiro;2017;
RADIR BATISTA DOS SANTOS;1.100,00;ASG EFETIVOS;Estatutário;1986;Janeiro;2017;
RAFAEL ALEXANDRE DE ARAUJO;1.138,00;ASG - CONTRATADO;CONTRATADO;2016;Janeiro;2017;
RAFAEL ARAUJO DA CUNHA;1.056,00;AGENTE COMUNITARIO DE COMBATE ÀS ENDEMIAS;Estatutário;2015;Janeiro;2017;
RAFAEL LOPES DE MEDEIROS SILVA;2.500,00;ODONTÓLOGO EF -(40Hs);N/A;N/A;Janeiro;2017;
RAFAELLA CRISTINA DE SOUZA ARAUJO SENA;3.000,00;ENFERMEIRO;Estatutário;2015;Janeiro;2017;
RAIMUNDA BALBINO GONZAGA DE SOUZA;1.012,00;ASG EFETIVOS;Estatutário;1998;Janeiro;2017;
RAIMUNDA BATISTA DE MEDEIROS;2.964,64;PROF. III-A PFIII-E (30H)*;Estatutário;1986;Janeiro;2017;
RAIMUNDA FLORENCIO DE OLIVEIRA;2.472,02;PROF. III-A PFIII-C (30H)*;Estatutário;1998;Janeiro;2017;
RAIMUNDO ALVES CAMPELO;1.468,00;GARI (40h);Estatutário;1998;Janeiro;2017;
RAIMUNDO NONATO DE ALMEIDA;938,32;MOTORISTA CONTRATADO;CONTRATADO;2016;Janeiro;2017;
RAIMUNDO PEIXOTO;1.584,00;GARI (40h);Estatutário;1999;Janeiro;2017;
RAMON GOMES LEOPOLDO;1.056,00;AGENTE COMUNITARIO DE COMBATE ÀS ENDEMIAS;Estatutário;2015;Janeiro;2017;
RAQUEL ARAUJO NOBREGA;3.460,48;ENFERMEIRO;Estatutário;2015;Janeiro;2017;
RAQUEL TEIXEIRA DE ARAUJO COSTA;1.000,00;TECNICO DE ENFERMAGEM (40H);Estatutário;2016;Janeiro;2017;
RAUL DAVID SANTOS DE FREITAS;2.500,00;ODONTÓLOGO EF -(40Hs);Estatutário;2015;Janeiro;2017;
REDJANE SOARES DE VASCONCELOS;909,16;PROF. CONTRATADO;N/A;N/A;Janeiro;2017;
REGIANE DA SILVA BRITO BARROS;1.600,00;ASSISTENTE SOCIAL EF (30H);Estatutário;2015;Janeiro;2017;
REGINA LUCIA DOS SANTOS BATISTAS;1.267,92;TECNICO DE ENFERMAGEM (40H);Estatutário;2015;Janeiro;2017;
REGINALDO FREITAS DE ARAUJO;1.160,00;ASG - CONTRATADO;CONTRATADO;2016;Janeiro;2017;
REGINALDO GALDINO DE ALENCAR;2.167,60;MOTORISTA (40h);Estatutário;1986;Janeiro;2017;
REINAILZA CARLA PEREIRA DE MEDEIROS;938,32;CUIDADOR DE CRIANÇA (INFANTIL);Estatutário;2015;Janeiro;2017;
RENATA FONSECA NOLASCO;5.280,00;ENGENHEIRO CIVIL-EF (30Hs);Estatutário;2015;Janeiro;2017;
RENATO DIAS DOS SANTOS;880,00;MOTORISTA (40h);Estatutário;2015;Janeiro;2017;
RENATO MARQUES;1.841,99;PROF. DE LINGUA PORTUGUESA - II-A (30Hs);Estatutário;2015;Janeiro;2017;
RENILDA BATISTA DE MEDEIROS;1.012,00;ATENDENTE DE ENFERMAGEM;Estatutário;1998;Janeiro;2017;
RENILDA MARIA DE ARAUJO;1.276,00;ASG EFETIVOS;Estatutário;1988;Janeiro;2017;
RENILDO FRANCISCO MARQUES;880,00;ASG - CONTRATADO;CONTRATADO;2016;Janeiro;2017;
RICARTE PROCÓPIO DE LUCENA JUNIOR;14.000,00;MEDICO;CONTRATADO (PGF);2016;Janeiro;2017;
RIDALVO PAIVA DE LUCENA;909,16;DIGITADOR (40h);Estatutário;2016;Janeiro;2017;
RISONEIDE FELIX DA SILVA MATEUS;1.070,32;ASG EFETIVOS;Estatutário;1999;Janeiro;2017;
RITA JACI DE OLIVEIRA;1.012,00;ASG EFETIVOS;Estatutário;1998;Janeiro;2017;
RITA MARTINS DE AZEVEDO;880,00;ASG - CONTRATADO;CONTRATADO;2016;Janeiro;2017;
RITA QUEIROZ DE AZEVEDO ALVES;1.100,00;ASG EFETIVOS;Estatutário;1988;Janeiro;2017;
RITA SHIRLEI DE MEDEIROS;2.472,02;PROF. III-A PFIII-C (30H)*;N/A;N/A;Janeiro;2017;
RIVAILDA DANTAS DA SILVA;880,00;PROF. CONTRATADO;CONTRATADO;2016;Janeiro;2017;
RIVANEIDE DE FATIMA IVO DE ALMEIDA;1.869,07;PROF. I-A PFI-C (30H)*;N/A;N/A;Janeiro;2017;
ROBERTA PRISCILA MEDEIROS DE ARAUJO;880,00;CUIDADOR DE CRIANÇA (INFANTIL);Estatutário;2015;Janeiro;2017;
ROBERTA VERAS SALDANHA;2.149,59;PROF. II-A PFII-C (30H)*;Estatutário;2002;Janeiro;2017;
ROBERTO OLIVEIRA DE PAIVA;1.349,33;TELEFONISTA (40h);Estatutário;1999;Janeiro;2017;
ROBERTO SANDRO DE OLIVEIRA;953,16;MOTORISTA (40h);Estatutário;2007;Janeiro;2017;
ROBERTO SOARES DA CRUZ;880,00;ORIENTADOR SOCIAL (NIV MEDIO);CONTRATADO (PGF);2016;Janeiro;2017;
RODRIGO OLIVEIRA DA FONSECA;2.300,00;FONOAUDIOLOGO - 40HS EF;Estatutário;2015;Janeiro;2017;
RODRIGO SANTOS DA SILVA;146,66;AUXILIAR ADMINISTRATIVO (40Hs);Estatutário;2016;Janeiro;2017;
ROGERIO SOARES DE BRITO;1.468,00;GARI (40h);Estatutário;1999;Janeiro;2017;
ROMUALDO ARAUJO DE LIRA;1.188,00;ASG EFETIVOS;Estatutário;1998;Janeiro;2017;
RONALDO BEZERRA MARIZ;1.720,00;VETERINÁRIO;Estatutário;2002;Janeiro;2017;
RONNIE VON DE OLIVEIRA;2.546,18;PROF III-A PFIII-D (30H);N/A;N/A;Janeiro;2017;
ROSA CRISTINA SOARES;2.472,02;PROF. III-A PFIII-C (30H)*;Estatutário;1999;Janeiro;2017;
ROSA MARIA DA SILVA BESERRA;1.667,50;AGENTE COM. DE SAUDE (40h);Estatutário;1996;Janeiro;2017;
ROSA MARIA GOMES DE MEDEIROS;880,00;ASG - CONTRATADO;CONTRATADO;2016;Janeiro;2017;
ROSA MARIA OLIVEIRA DOS SANTOS;880,00;ASG - CONTRATADO;CONTRATADO;2016;Janeiro;2017;
ROSANGELA DE FATIMA GARCIA S FREITAS;1.760,00;ASSISTENTE SOCIAL EF (30H);Estatutário;2003;Janeiro;2017;
ROSANGELA PEREIRA DA SILVA;2.546,18;PROF III-A PFIII-D (30H);N/A;N/A;Janeiro;2017;
ROSEMBERG DE SOUZA BRITO;1.216,80;AGENTE COM. DE SAUDE (40h);Estatutário;2015;Janeiro;2017;
ROSICLEIDE SOUZA DO CARMO LIMA;1.041,16;ASG EFETIVOS;Estatutário;1998;Janeiro;2017;
ROSILDA FRANCISCA DA SILVA;1.012,00;ASG EFETIVOS;Estatutário;1999;Janeiro;2017;
ROSINALVA ALVES DA COSTA;1.012,00;AUX. DE ENFERMAGEM;Estatutário;1999;Janeiro;2017;
ROSINEIDE MARIA DA SILVA;3.124,78;PROF. I-A PFI-E (40H)*;N/A;N/A;Janeiro;2017;
ROXANA SILVA;1.841,99;PROF.(AEE) ATEND EDUC ESPECIALIZADO - II-A (30Hs);Estatutário;2015;Janeiro;2017;
RUI LOPES DA SILVA;1.877,33;MOTORISTA (40h);Estatutário;2003;Janeiro;2017;
RUVIA LOURENA LOPES SANTOS;880,00;AUXILIAR DE SAUDE BUCAL (40Hs);Estatutário;2015;Janeiro;2017;
SAINT CLAIR PEREIRA DE ARAUJO;938,32;ASG - CONTRATADO;CONTRATADO;2016;Janeiro;2017;
SÂMARA DANIELLY DE MEDEIROS ALVES;2.500,00;ENFERMEIRO;Estatutário;2015;Janeiro;2017;
SAMARA ZAYANE LOPES DE MEDEIROS;733,33;CHEFE DO SETOR DE UBS URBANA;Estatutário;2016;Janeiro;2017;
SAMARA ZAYANE LOPES DE MEDEIROS;733,33;AUXILIAR ADMINISTRATIVO (40Hs);Estatutário;2016;Janeiro;2017;
SANDRA AZEVEDO QUEIROZ;1.600,00;NUTRICIONISTA EF (40Hs);Estatutário;2015;Janeiro;2017;
SANDRA KALINA ARAÚJO DA COSTA;2.866,11;PROF. II-A PFII-C (40H)*;Estatutário;2002;Janeiro;2017;
SANDRA MARIA DA SILVA;1.517,50;AGENTE COM. DE SAUDE (40h);Estatutário;2000;Janeiro;2017;
SANDRA MARIA LOPES DE MEDEIROS;2.012,63;PROF. I-A PFI-D (30H)*;Estatutário;1998;Janeiro;2017;
SANDRA MARIA SOARES PINHEIRO;1.667,50;AGENTE COM. DE SAUDE (40h);Estatutário;2000;Janeiro;2017;
SANDRA PEREIRA DA SILVA;2.472,02;PROF. III-A PFIII-C (30H)*;Estatutário;1998;Janeiro;2017;
SANDRO MARCELINO DA SILVA ALVES;909,16;ASG - CONTRATADO;CONTRATADO;2016;Janeiro;2017;
SANTANA DA SILVA LIMA BEZERRA;1.517,50;AGENTE COM. DE SAUDE (40h);Estatutário;1996;Janeiro;2017;
SARA LOPES DE SA;1.012,00;PSICOLOGO (20H);Estatutário;2000;Janeiro;2017;
SAULO KAYRON MEDEIROS DE ARAUJO;1.841,99;PROF. ENS. FUNDAMENTAL - I (30Hs);Estatutário;2015;Janeiro;2017;
SEBASTIANA MELO DE AQUINO;997,16;ASG EFETIVOS;Estatutário;2002;Janeiro;2017;
SEBASTIAO BELARMINO PEREIRA FILHO;1.257,80;TECNICO DE ENFERMAGEM (30);Estatutário;1998;Janeiro;2017;
SEBASTIAO FELINTO SEGUNDO;2.546,18;PROF III-A PFIII-D (30H);N/A;N/A;Janeiro;2017;
SEBASTIAO VICENTE FERREIRA;1.328,00;GARI (40h);Estatutário;1998;Janeiro;2017;
SEFORA KALINE LOURENCO DE MEDEIROS;1.452,00;ATENDENTE DE ENFERMAGEM;Estatutário;1998;Janeiro;2017;
SEGILANE DOS SANTOS LIMA;1.841,99;PROF POLIVAL ENS INFANTIL - II-A (30Hs);Estatutário;2016;Janeiro;2017;
SELMA LOPES DE ARAUJO FLAUSINO;1.217,16;ASG EFETIVOS;Estatutário;1999;Janeiro;2017;
SERGIO GUILHERME FILHO;1.012,00;VIGIA (40h);Estatutário;1998;Janeiro;2017;
SERGIVALDO MARQUES DOS SANTOS;1.041,16;AGENTE ADMINISTRATIVO (40h);Estatutário;2000;Janeiro;2017;
SEVERINA LUCIA DE ARAUJO SIMOES MEDEIROS;880,00;ASG - CONTRATADO;CONTRATADO;2016;Janeiro;2017;
SIDNEY SOUZA DE MEDEIROS;1.841,99;PROFESSOR DE MATEMATTICA - II-A (30Hs);Estatutário;2015;Janeiro;2017;
SILVANIA PEREIRA DE ARAUJO;968,00;ASG EFETIVOS;Estatutário;2003;Janeiro;2017;
SILVIA PATRICIA BATISTA DE ARAUJO;909,16;CHEFE DO SETOR DE ENSINO DE LINGUA ESTRANGEIRA;N/A;N/A;Janeiro;2017;
SIMONE DUARTE DO AMARAL;1.300,00;CHEFE DO SETOR DE ALMOXARIFADO E DISTRIBUIÇÃO;Comissionado;2013;Janeiro;2017;
SIMONE FONTES LEITE ANDRADE;2.148,94;PROF POLIVAL ENS INFANTIL - II-A (30Hs);Estatutário;2015;Janeiro;2017;
SIMONE FONTES LEITE ANDRADE;184,19;PROFESSOR - ADICIONAIS;Estatutário;2015;Janeiro;2017;
SIMONE GOMES DA SILVA;1.216,80;AGENTE COM. DE SAUDE (40h);Estatutário;2015;Janeiro;2017;
SOLANGE FERREIRA DOS SANTOS CLEMENTE;1.041,16;AGENTE ADMINISTRATIVO (40h);Estatutário;1999;Janeiro;2017;
SONIA MARIA DA SILVA;1.945,00;ASG EFETIVOS;Estatutário;1998;Janeiro;2017;
SONIA MARIA DE MOURA PEREIRA;2.475,28;PROF. II-A PFII-C (30H)*;Estatutário;2002;Janeiro;2017;
SONIA MARIA PINHEIRO DA CRUZ;2.912,02;PROF. III-A PFIII-C (30H)*;Estatutário;1999;Janeiro;2017;
SUELI VICENTE DOS SANTOS SILVA;1.357,50;AGENTE COM. DE SAUDE (40h);Estatutário;1996;Janeiro;2017;
SUZANA MEDEIROS DE ARAUJO SANTOS;1.028,32;TECNICO DE ENFERMAGEM (40H);Estatutário;2016;Janeiro;2017;
SUZANA TERCIA DE MEDEIROS;1.408,05;AGENTE ADMINISTRATIVO (40h);Estatutário;2004;Janeiro;2017;
TACIANA MARIA FELICIANO DE SOUZA;2.650,00;ODONTÓLOGO EF -(40Hs);Estatutário;2015;Janeiro;2017;
TAIZA MEDEIROS DE ARAUJO;1.841,99;PROFESSOR DE MATEMATTICA - II-A (30Hs);Estatutário;2015;Janeiro;2017;
TATIANE DUARTE DOS SANTOS;880,00;CHEFE DO SETOR DE REGULAÇÃO;N/A;N/A;Janeiro;2017;
TATYANNE ALVES ARAUJO;880,00;CUIDADOR DE CRIANÇA (INFANTIL);Estatutário;2015;Janeiro;2017;
TAYANNE SHIRLEY DE MEDEIROS SILVA;909,16;ATENDENTE DE FARMACIA (40Hs);Estatutário;2016;Janeiro;2017;
TERESA CRISTINA DE ALBUQUERQUE PINTO MRAZKOVA;1.841,99;PROF. DE LINGUA INGLESA - II-A (30Hs);Estatutário;2015;Janeiro;2017;
TERESINHA BEZERRA DA SILVA;2.472,02;PROF. III-A PFIII-C (30H)*;Estatutário;1998;Janeiro;2017;
THALISSON HENRIQUE DOS SANTOS CRUZ;880,00;DIRETOR DEPTO DE MAQUINAS E FROTA;N/A;N/A;Janeiro;2017;
THASIA THALLYNNY DE CASTRO SILVA;2.500,00;ODONTÓLOGO EF -(40Hs);Estatutário;2016;Janeiro;2017;
THENILY MARCELLY ALVES DE ARAUJO;1.841,99;PROF. ENS. FUNDAMENTAL - I (30Hs);Estatutário;2015;Janeiro;2017;
THIAGO CORTÊZ MEIRA DE MEDEIROS;3.000,00;PROCURADOR GERAL;Comissionado;2013;Janeiro;2017;
THIAGO DIEGO FERNANDES SILVA;880,00;CHEFE DO SETOR DE LABORATORIAL;N/A;N/A;Janeiro;2017;
THIAGO ESPINOLA DE MEDEIROS;1.841,99;PROF. DE LINGUA PORTUGUESA - II-A (30Hs);Estatutário;2015;Janeiro;2017;
TULIO CESAR VIEIRA DE ARAUJO;2.500,00;ENFERMEIRO;Estatutário;2015;Janeiro;2017;
UALISON BEZERRA COSTA UCHOA;14.000,00;MEDICO ESF (40H);Estatutário;2015;Janeiro;2017;
UBIRAJARA ALVES DOS SANTOS;1.517,50;AGENTE COM. DE SAUDE (40h);Estatutário;2000;Janeiro;2017;
VALBA PATROCINIO DOS SANTOS;1.041,16;DATILOGRAFO (40h);Estatutário;1998;Janeiro;2017;
VALCACIA BATISTA DE SOUZA;968,00;DIGITADOR (40h);Estatutário;2003;Janeiro;2017;
VALCACIA MIRELLA MEDEIROS PEREIRA;4.080,77;ENFERMEIRO;Estatutário;2015;Janeiro;2017;
VALDENUZIA DE BRITO RODRIGUES;2.333,13;PROF POLIVAL ENS INFANTIL - II-A (30Hs);Estatutário;2015;Janeiro;2017;
VALDERLI BATISTA DE MEDEIROS;880,00;AUXILIAR DE SAUDE BUCAL (40Hs);Estatutário;2015;Janeiro;2017;
VALDINEZ VIEIRA DA SILVA;1.364,00;DATILOGRAFO (40h);Estatutário;1998;Janeiro;2017;
VALDIR DE MEDEIROS AZEVEDO;968,00;MOTORISTA (40h);Estatutário;2003;Janeiro;2017;
VALERIA RABELO CARNEIRO FREITAS;1.012,00;DENTISTA (20H) EFETIVO;Estatutário;1998;Janeiro;2017;
VALQUIRIA BIATO DE MEDEIROS;880,00;ASG - CONTRATADO;CONTRATADO;2016;Janeiro;2017;
VANIA LUCIA BATISTA DE ARAÚJO;2.986,18;PROF III-A PFIII-D (30H);N/A;N/A;Janeiro;2017;
VANILSON PAULO DE MEDEIROS;2.546,18;PROF III-A PFIII-D (30H);N/A;N/A;Janeiro;2017;
VANUSA OLIVEIRA DE BRITO ALVES;2.546,18;PROF III-A PFIII-D (30H);N/A;N/A;Janeiro;2017;
VELUCIA GOMES DE MEDEIROS;1.012,00;TECNICO DE CADASTRO;Estatutário;1999;Janeiro;2017;
VERA LUCIA SILVA MEDEIROS;880,00;SUB COORDENADOR;Comissionado;2016;Janeiro;2017;
VERUSKA LOPES FORTUNATO;3.000,00;ODONTÓLOGO EF -(40Hs);Estatutário;2015;Janeiro;2017;
VICTOR HUGO DE OLIVEIRA SANTOS;1.841,99;PROF. DE CIENCIAS DA NATUREZA - II-A (30Hs);Estatutário;2015;Janeiro;2017;
VICTOR RICHELLY DE BRITO;1.841,99;PROF. DE EDUCAÇÃO FÍSICA - II-A (30Hs);Estatutário;2016;Janeiro;2017;
VILANIR GOMES DE MEDEIROS BRITO;2.878,29;SUPERVISOR II-A SPIII-D (30)*;Estatutário;1998;Janeiro;2017;
VILMA MARIA DA SILVA;880,00;ASG - CONTRATADO;CONTRATADO;2016;Janeiro;2017;
VIRGÍNIA MARIA DE MEDEIROS;1.056,00;AGENTE COMUNITARIO DE COMBATE ÀS ENDEMIAS;Estatutário;2015;Janeiro;2017;
VITAL OTAVIO DE OLIVEIRA;1.188,00;GARI (40h);Estatutário;1998;Janeiro;2017;
VIVANIA ARAÚJO DA SILVA;440,00;CHEFE DO SETOR PEDAG DE ESTAB DE ENSINO - EJA;N/A;N/A;Janeiro;2017;
VIVANIA ARAÚJO DA SILVA;2.149,59;PROF. II-A PFII-C (30H)*;Estatutário;2002;Janeiro;2017;
WALBER CARLOS TAVARES;2.000,00;ASSESSOR TECNICO NIV SUPERIOR;Comissionado;2016;Janeiro;2017;
WALLACY DE MENESES;880,00;ASG - CONTRATADO;CONTRATADO;2016;Janeiro;2017;
WALLESKA JULIANE COSTA LEITE;614,00;PROF. DE CIENCIAS DA NATUREZA - II-A (30Hs);Estatutário;2016;Janeiro;2017;
WELLINGTON COSTA DE ARAUJO;2.500,00;SECRETARIO MUNICIPAL;Comissionado;2013;Janeiro;2017;
WELLINGTON FRANCISCO DA SILVA;880,00;AUXILIAR ADMINISTRATIVO (40Hs);Estatutário;2015;Janeiro;2017;
WELMA MARIA DA SILVA;880,00;CUIDADOR DE CRIANÇA (INFANTIL);Estatutário;2015;Janeiro;2017;
WENDEL OLIVEIRA FELIPE;880,00;AUXILIAR ADMINISTRATIVO (40Hs);Estatutário;2015;Janeiro;2017;
WESCLEY FERNANDES DOS SANTOS;880,00;TECNICO DE LABORATÓRIO;CONTRATADO;2016;Janeiro;2017;
WIDNES ROBERT ALVES DA SILVA;880,00;COORD. ADMINISTRATIVO-EF (40Hs);Estatutário;2015;Janeiro;2017;
WILSON DOMINGOS ALVES DA SILVA;1.468,00;GARI (40h);Estatutário;1998;Janeiro;2017;
YAN AGUIAR XIMENES OVIDIO;880,00;ARTE EDUCADOR;CONTRATADO (PGF);2016;Janeiro;2017;
ZAIRA ALMEIDA DOS SANTOS;880,00;CHEFE DO SETOR SAUDE BUCAL;N/A;N/A;Janeiro;2017;
ZEILMA MARIA DAS GRAÇAS;938,32;ASG - CONTRATADO;CONTRATADO;2016;Janeiro;2017;
ZILDA MARIA DOS SANTOS;2.118,29;COORDENADOR PEDAGÓGICO II-A;Estatutário;2015;Janeiro;2017;
ZILMA DOS SANTOS SILVA;2.936,14;PROF. III-A PFIII-F (30)*;Estatutário;1988;Janeiro;2017;
ZILMA JULIA DA SILVA;880,00;ASG - CONTRATADO;CONTRATADO;2016;Janeiro;2017;
