Nome;Salario;Cargo;Vinculo;Ingresso;Mes;Ano
ADAISA DANTAS DE MEDEIROS;2.920,05;PROF III-A PFIII-D (30H);Estatutário;2002;Agosto;2018;
ADEILVA PEREIRA DA SILVA TRINDADE;954,00;CONSELHEIRO (40h);Conselheiro Tutelar;2017;Agosto;2018;
ADELY CRISTINA MARTINS DE ARAUJO;3.250,00;CHEFE DE GABINETE CIVIL;Estatutário;2016;Agosto;2018;
ADENILDA MARIA DE SOUZA;2.839,67;PROF. III-A PFIII-C (30H)*;Estatutário;2002;Agosto;2018;
ADERITO VITAL DE ARAUJO JUNIOR;954,00;CHEFE ADMINISTRATIVO DO ABATEDOURO;Comissionado;2017;Agosto;2018;
ADONILSON DA SILVA;1.804,60;VIGIA (40h);Estatutário;1981;Agosto;2018;
ADRIANO ALVES DA SILVA;1.901,43;TECNICO DE ENFERMAGEM (40H);N/A;N/A;Agosto;2018;
ADRIANO MOURA DA SILVA;1.335,60;GARI (40h);Estatutário;2017;Agosto;2018;
AECIO NOGUEIRA MORAIS ROCHA;3.250,00;SECRETARIO MUNICIPAL;Comissionado;2017;Agosto;2018;
AGEDILVA PEREIRA DA SILVA;2.433,63;AUX. DE ENFERMAGEM;Estatutário;1998;Agosto;2018;
AGMAR DAYARA LOPES DE SÁ E SILVA;954,00;ASG EFETIVOS;Estatutário;2017;Agosto;2018;
ALAIDE QUEIROZ DE OLIVEIRA;2.839,67;PROF. III-A PFIII-C (30H)*;Estatutário;1999;Agosto;2018;
ALBA LUCIA DOS SANTOS GOMES ARRUDA;2.920,05;PROF III-A PFIII-D (30H);Estatutário;2000;Agosto;2018;
ALBERTO CLEMENTE DE ARAÚJO;3.000,00;PROCURADOR GERAL;Comissionado;2017;Agosto;2018;
ALBERTO SILVA FELIPE;1.320,42;ASG EFETIVOS;Estatutário;2017;Agosto;2018;
ALCILENE MARIA DOS SANTOS;1.484,65;ASG EFETIVOS;Estatutário;1999;Agosto;2018;
ALDENIR FERNANDES DE ARAUJO;3.241,26;PROF III-A PFIII-D (30H);N/A;N/A;Agosto;2018;
ALDENORA BEZERRA DOS SANTOS;2.005,11;TELEFONISTA (40h);N/A;N/A;Agosto;2018;
ALDERISA MARIA DE SOUZA;1.264,70;ASG EFETIVOS;Estatutário;2003;Agosto;2018;
ALDILENE RODRIGUES DE MENEZES SILVA;1.264,70;ASG EFETIVOS;Estatutário;1999;Agosto;2018;
ALDO FERNANDES DE OLIVEIRA;4.401,21;SUPERVISOR II-A SP-III-D (40H);Estatutário;2000;Agosto;2018;
ALEX NUNES DA SILVA;1.060,92;MOTORISTA (40h);Estatutário;2015;Agosto;2018;
ALEXSANDRA RODRIGUES DOS SANTOS;954,00;CUID. DE CRIANÇA COM DEFICIÊNCIA - CONTRATO;CONTRATADO;2018;Agosto;2018;
ALEXSANDRO FERNANDES DOS SANTOS;1.555,94;MOTORISTA (40h);Estatutário;2015;Agosto;2018;
ALINE CRISTINA MOURA DE MEDEIROS ARAUJO;985,71;CHEFE DO SETOR DE GESTÃO DO TRABALHO;Comissionado;2017;Agosto;2018;
ALINE SAMARA DE OLIVEIRA SILVA;997,50;CUIDADOR DE CRIANÇA (INFANTIL);Estatutário;2017;Agosto;2018;
ALLANDERSON MATHEUS PAULO E SILVA;1.474,50;DIGITADOR (40h);Estatutário;2016;Agosto;2018;
ALMAIZA PATRICIA DANTAS DE MEDEIROS;954,00;ENTREVISTADOR DO CADASTRO UNICO/PBF;CONTRATADO;2018;Agosto;2018;
ALVANY SILVA DE SOUZA;1.400,00;DIRETOR DO DEPARTAMENTO DE TURISMO;Comissionado;2017;Agosto;2018;
AMANDA CORDEIRO DE MEDEIROS;2.117,74;PROF. POLIVALENTE ENS. FUNDAMENTAL - I (30Hs);Estatutário;2015;Agosto;2018;
AMANDA DELAYNE LOPES PALHARES;997,50;FISCAL DE TRIBUTOS (40h);Estatutário;2016;Agosto;2018;
AMARALINA DA SILVA SANTOS;1.144,80;ASG EFETIVOS;Estatutário;2017;Agosto;2018;
AMINADABE LIRA RODRIGUES;3.921,49;PROF. POLIVALENTE ENS. FUNDAMENTAL - I (30Hs);Estatutário;2015;Agosto;2018;
ANA CLEIDE ALVES DA SILVA MARCELINO;1.029,21;AGENTE COM. DE SAUDE (40h);Estatutário;2018;Agosto;2018;
ANA FRANCISCA SANTANA DE LIMA;2.920,05;PROF III-A PFIII-D(30H);Estatutário;1999;Agosto;2018;
ANA FRANCISCA SANTANA DE LIMA;677,10;PROFESSOR - ADICIONAIS;Estatutário;2013;Agosto;2018;
ANA KAROLYNE XAVIER BEZERRA;1.144,80;ASG EFETIVOS;Estatutário;2017;Agosto;2018;
ANA LUCIA ASSIS DE MEDEIROS;2.117,74;PROF. POLIVALENTE ENS. FUNDAMENTAL - I (30Hs);Estatutário;2015;Agosto;2018;
ANA LUCIA BARBOSA DA SILVA;1.558,89;AGENTE COM. DE SAUDE (40h);Estatutário;1999;Agosto;2018;
ANA MARIA LOPES BEZERRA;1.391,17;TECNICO DE CADASTRO;Estatutário;1999;Agosto;2018;
ANA PAULA ALVES MUNIZ;2.117,74;PROF. POLIVALENTE ENS. FUNDAMENTAL - I (30Hs);Estatutário;2015;Agosto;2018;
ANA PAULA ALVES MUNIZ;352,95;PROFESSOR - ADICIONAIS;Estatutário;2018;Agosto;2018;
ANA PAULA DE MEDEIROS;985,71;ORIENTADOR SOCIAL (40H);CONTRATADO;2018;Agosto;2018;
ANA PAULA DE MOURA;1.786,50;AUXILIAR DE SAUDE BUCAL (40Hs);Estatutário;2015;Agosto;2018;
ANA SANTANA ALEXANDRE VALE;1.739,64;ASG EFETIVOS;N/A;N/A;Agosto;2018;
ANA SANTANA BARROS DANTAS;2.117,74;PROF. POLIVALENTE ENS. FUNDAMENTAL - I (30Hs);Estatutário;2018;Agosto;2018;
ANA SANTANA BARROS DANTAS;352,96;PROFESSOR - ADICIONAIS;Estatutário;2018;Agosto;2018;
ANAILMA MARIA PEREIRA;1.539,64;ASG EFETIVOS;N/A;N/A;Agosto;2018;
ANALDETE AUGUSTA DE MORAIS SILVA;1.539,64;ASG EFETIVOS;N/A;N/A;Agosto;2018;
ANDRE LUIZ FIDELES CAMPOS;1.197,00;RECEPCIONISTA -EF (40Hs);Estatutário;2016;Agosto;2018;
ANGEANIA PAULA DE LIMA;2.117,74;COORDENADOR PEDAGÓGICO II-A;Estatutário;2015;Agosto;2018;
ANGELA COSTA DE ARAUJO;2.117,74;COORDENADOR PEDAGÓGICO II-A;Estatutário;2017;Agosto;2018;
ANNE CAROLINE MONTEIRO ROQUE;4.400,00;ENFERMEIRO;Estatutário;2015;Agosto;2018;
ANTENOR CASSIANO;2.084,52;GARI (40h);Estatutário;1998;Agosto;2018;
ANTONIA BARBOSA DA SILVA;1.484,65;ASG EFETIVOS;Estatutário;1999;Agosto;2018;
ANTONIA FELIPE DOS SANTOS CRUZ;1.319,69;ASG EFETIVOS;Estatutário;1998;Agosto;2018;
ANTONIA LURDETE MENEZES DA FONSECA;1.539,64;ASG EFETIVOS;N/A;N/A;Agosto;2018;
ANTONIA OLIVEIRA BEZERRA;4.000,00;MEDICO PLANTONISTA;CONTRATADO;2017;Agosto;2018;
ANTONIA OLIVEIRA BEZERRA;14.000,00;MEDICO;CONTRATADO (PGF);2016;Agosto;2018;
ANTONIA OLIVEIRA DA SILVA FLORENCIO;1.539,64;ASG EFETIVOS;N/A;N/A;Agosto;2018;
ANTONIO ALVES DA SILVA;1.759,59;GARI (40h);N/A;N/A;Agosto;2018;
ANTONIO DOMINGOS DA SILVA FILHO;1.909,64;GARI (40h);N/A;N/A;Agosto;2018;
ANTONIO FRANCISCO DA FONSECA;3.786,23;PROF. III-A PFIII-C (40H)*;Estatutário;1999;Agosto;2018;
ANTONIO KLEBER MEDEIROS DANTAS;1.144,80;ASG EFETIVOS;Estatutário;2017;Agosto;2018;
ANTONIO MARCOS SARAIVA DE LIMA;2.508,46;PROF. II-A PFII-B (30H)*;Estatutário;2002;Agosto;2018;
ANTONIO PINHEIRO DE SOUZA;1.759,59;GARI (40h);N/A;N/A;Agosto;2018;
ANTONIO RANIERE SANTOS;1.996,69;AGENTE COM. DE SAUDE (40h);Estatutário;2006;Agosto;2018;
ANTONIO ROBERTO LOPES DE MELO;3.250,00;SECRETARIO MUNICIPAL;Comissionado;2017;Agosto;2018;
ANTONIO SEGUNDO CARLOS DE FREITAS;1.631,35;MOTORISTA (40h);Estatutário;2003;Agosto;2018;
ARINALDO LOPES DE ARAUJO;1.977,94;FISCAL DE URBANISMO (40h);Estatutário;1999;Agosto;2018;
ARINALVA DA SILVA LIMA;1.616,63;AUX. DE ENFERMAGEM;Estatutário;1998;Agosto;2018;
ARINALVA LOPES DE ARAUJO;1.847,57;AGENTE ADMINISTRATIVO (40h);N/A;N/A;Agosto;2018;
ARISLANIO KEDSON INACIO DE LIMA;1.529,50;CUIDADOR DE CRIANÇA (INFANTIL);Estatutário;2017;Agosto;2018;
ARLETE ALICE DA SILVA;1.659,94;ASG EFETIVOS;Estatutário;1998;Agosto;2018;
ARMANDO DANTAS DE CARVALHO NETO;1.767,27;OPERADOR DE MOTO NIVELADORA - EF;Estatutário;2015;Agosto;2018;
ARNILDO FELICIANO DA SILVA;677,10;PROFESSOR - ADICIONAIS;Estatutário;2011;Agosto;2018;
ARNILDO FELICIANO DA SILVA;3.047,00;PROF III-A PFIII-D(30H);Estatutário;1998;Agosto;2018;
ARYAN PETRUS LOPES SOUZA ARAUJO;1.197,00;MOTORISTA (40h);Estatutário;2015;Agosto;2018;
AUKLLEY MEDEIROS CABRAL;2.500,00;PSICÓLOGO(A) - 40Hs;Estatutário;2017;Agosto;2018;
AURENI CANDIDA DA SILVA;2.117,74;COORDENADOR PEDAGÓGICO II-A;Estatutário;2015;Agosto;2018;
BENEDITA MARIA JOSE MELO BARRA;2.117,74;PROF POLIVAL ENS INFANTIL - II-A (30Hs);Estatutário;2015;Agosto;2018;
BENEDITA MARIA JOSE MELO BARRA;564,72;PROFESSOR - ADICIONAIS;Estatutário;2017;Agosto;2018;
BETANIA FRANCISCA DA SILVA;1.454,95;AGENTE COM. DE SAUDE (40h);Estatutário;1996;Agosto;2018;
BRENO MAGELA BEZERRA DA COSTA;1.250,00;FARMACÊUTICO-EF (20HS);Estatutário;2015;Agosto;2018;
BRUNO EDSON DA SILVA;1.208,22;VIGILANTE;Estatutário;2017;Agosto;2018;
BRUNO RAFAEL GOIS DE OLIVEIRA;1.144,80;ASG EFETIVOS;Estatutário;2017;Agosto;2018;
CAINHARA LOPES BEZERRA;658,46;PROFESSOR - ADICIONAIS;Estatutário;2018;Agosto;2018;
CAINHARA LOPES BEZERRA;2.839,67;PROF. III-A PFIII-C (30H)*;Estatutário;2002;Agosto;2018;
CAMILA CARLA DANTAS SOARES;1.500,00;FISCAL SANITARIO ENFERMEIRO (20H);Estatutário;2017;Agosto;2018;
CARLA DEYSE SILVA;1.254,00;TECNICO DE ENFERMAGEM (40H);Estatutário;2016;Agosto;2018;
CARLA LUCIO ALVES;2.117,74;PSICOPEDAGOGO - EF (30Hs);Estatutário;2015;Agosto;2018;
CARLA NATALI DA SILVA SIMAO;997,50;CUIDADOR DE CRIANÇA (INFANTIL);Estatutário;2015;Agosto;2018;
CARLA SIMONE IVO DE ARAUJO;2.117,74;PROF POLIVAL ENS INFANTIL - II-A (30Hs);Estatutário;2015;Agosto;2018;
CARLA SIMONE IVO DE ARAUJO;564,72;PROFESSOR - ADICIONAIS;Estatutário;2016;Agosto;2018;
CARLOS ALBERTO RODRIGUES;2.533,58;GARI (40h);Estatutário;1998;Agosto;2018;
CARLOS ANTONIO CASSIANO DA SILVA;1.329,21;MOTORISTA (40h);Estatutário;2015;Agosto;2018;
CARLOS HENRIQUE DUARTE UBARANA;1.820,11;MOTORISTA (40h);N/A;N/A;Agosto;2018;
CELIA MARTINS BARROS VIANA;3.514,28;PROF. II-A PFII-F (30H)*;N/A;N/A;Agosto;2018;
CELIA SUELLE DE MELO;628,34;AUXILIAR DE SAUDE BUCAL (40Hs);N/A;N/A;Agosto;2018;
CELINALDO BARBOSA DA SILVA;985,71;CHEFE DO SETOR DE TRANSPORTE ESCOLAR;Comissionado;2017;Agosto;2018;
CELIO ALVES DA SILVA;1.400,00;SECRETARIO ADJUNTO;Comissionado;2017;Agosto;2018;
CESARIANA REJANE GOMES ALEXANDRE;1.484,65;ASG EFETIVOS;Estatutário;1999;Agosto;2018;
CIRILO NOGUEIRA JUNIOR;2.117,74;PROF POLIVAL ENS INFANTIL - II-A (30Hs);Estatutário;2016;Agosto;2018;
CLARISSA RACKEL BATISTA AZEVEDO;4.879,65;ODONTÓLOGO EF -(40Hs);Estatutário;2015;Agosto;2018;
CLAUDIA LUANA DANTAS OLIVEIRA;2.117,74;PROF. POLIVALENTE ENS. FUNDAMENTAL - I (30Hs);Estatutário;2017;Agosto;2018;
CLAUDIO PINHEIRO GOMES;2.020,78;MOTORISTA (40h);Estatutário;1999;Agosto;2018;
CLAUDISSEIA NERI DE MORAIS;2.216,30;AUX. DE ENFERMAGEM;Estatutário;1998;Agosto;2018;
CLEDILSON AUGUSTO DE ARAUJO;1.565,89;ASG EFETIVOS;N/A;N/A;Agosto;2018;
CLEDINALVA FERNANDES DE SOUZA;4.509,55;PROF. III-A PFIII-D (40H);N/A;N/A;Agosto;2018;
CLEDJANE BATISTA DE MEDEIROS;2.500,00;ASSISTENTE SOCIAL EF (30H);Estatutário;2017;Agosto;2018;
CLEIDSON DANTAS BALBINO;2.117,74;PROF. DE EDUCAÇÃO FÍSICA - II-A (30Hs);Estatutário;2015;Agosto;2018;
CLETO EUZEBIO DE ALMEIDA;2.581,52;PROF. II-A PFII-C (30H)*;N/A;N/A;Agosto;2018;
CLEUNICE CRISTINA SILVA ARAUJO;2.117,74;PROF. DE LINGUA PORTUGUESA - II-A (30Hs);Estatutário;2016;Agosto;2018;
CLOVILMA MARIA SILVA OLIVEIRA;2.117,74;PROF. POLIVALENTE ENS. FUNDAMENTAL - I (30Hs);Estatutário;2015;Agosto;2018;
CLOVIS MARTINS DA COSTA;1.327,94;FISCAL DE URBANISMO (40h);Estatutário;1999;Agosto;2018;
CREDIMARIA MARIA DA FONSECA;2.508,46;PROF. II-A PFII-B (30H)*;Estatutário;2003;Agosto;2018;
CYNTHIANE LOUYSE MENEZES DE ARAUJO;2.350,00;FISIOTERAPEUTA  (20H) - EFETIVO;Estatutário;2015;Agosto;2018;
DALIANE ARAUJO DA CRUZ;1.144,80;ASG EFETIVOS;Estatutário;2017;Agosto;2018;
DALVA MARIA DE MOURA;2.839,67;PROF. III-A PFIII-C (30H)*;Estatutário;2000;Agosto;2018;
DALVACI BATISTA DE OLIVEIRA MARQUES;3.893,38;PROF. III-A PFIII-D (40H);Estatutário;1999;Agosto;2018;
DALVACI BEZERRA ARAUJO DELGADO;3.192,40;AUX. DE ENFERMAGEM;N/A;N/A;Agosto;2018;
DAMIANA DA CONCEIÇÃO DA SILVA;1.553,50;TECNICO DE ENFERMAGEM (30);Estatutário;1998;Agosto;2018;
DAMIANA DA CRUZ DOS SANTOS SILVA;1.537,14;ASG EFETIVOS;N/A;N/A;Agosto;2018;
DAMIANA MARIA DOS SANTOS SILVA;1.017,42;CUID. DE CRIANÇA COM DEFICIÊNCIA - CONTRATO;CONTRATADO;2018;Agosto;2018;
DAMIAO DENER BEZERRA DE ARAUJO;1.536,15;GARI (40h);N/A;N/A;Agosto;2018;
DAMIAO FIDELIS DE ARAUJO;1.947,44;AGENTE COM. DE SAUDE (40h);Estatutário;1996;Agosto;2018;
DAMIAO JOSE DE ARAUJO;1.333,02;OPERADOR DE TRATOR DE PNEUS;Estatutário;2015;Agosto;2018;
DAMIAO MARCIO DA SILVA;2.328,52;AGENTE COM. DE SAUDE (40h);Estatutário;2000;Agosto;2018;
DANIELE CRISTINE PEREIRA DA SILVA;997,50;CUIDADOR DE CRIANÇA (INFANTIL);Estatutário;2017;Agosto;2018;
DANILO BEZERRA ARAÚJO;2.000,00;ASSESSOR TECNICO NIV SUPERIOR;Comissionado;2017;Agosto;2018;
DARCSON NOGUEIRA DANTAS FILHO;5.862,27;ENFERMEIRO;Estatutário;2015;Agosto;2018;
DAVID FERNANDES BARROS;1.190,33;ASG EFETIVOS;Estatutário;2017;Agosto;2018;
DAYANNE KALLYNE MORAIS DE ARAUJO OLIVEIRA;4.600,00;ENFERMEIRO;Estatutário;2016;Agosto;2018;
DEBORA LIVIA DE QUEIROZ BANDEIRA;14.000,00;MEDICO;CONTRATADO (PGF);2016;Agosto;2018;
DEBORA LIVIA DE QUEIROZ BANDEIRA;6.400,00;MEDICO PLANTONISTA;CONTRATADO;2017;Agosto;2018;
DENISE MARIA MELO DA SILVA;3.000,00;ASSISTENTE SOCIAL EF (30H);Estatutário;2015;Agosto;2018;
DERLAN MOURA DOS SANTOS;3.478,14;MOTORISTA (40h);N/A;N/A;Agosto;2018;
DINA AURELIA DE MORAIS ARAUJO;1.909,64;TELEFONISTA (40h);N/A;N/A;Agosto;2018;
DINARTE MARTINS DA FONSECA JUNIOR;1.573,43;AGENTE COMUNITARIO DE COMBATE ÀS ENDEMIAS;N/A;N/A;Agosto;2018;
DINARTE SOBREIRA FORMIGA;1.498,51;MOTORISTA (40h);Estatutário;2016;Agosto;2018;
EDILENE ARAUJO MOREIRA;352,95;PROFESSOR - ADICIONAIS;Estatutário;2018;Agosto;2018;
EDILENE ARAUJO MOREIRA;2.117,74;PROF. POLIVALENTE ENS. FUNDAMENTAL - I (30Hs);Estatutário;2015;Agosto;2018;
EDILEUZA FERREIRA RODRIGUES;2.016,63;AGENTE COM. DE SAUDE (40h);Estatutário;1998;Agosto;2018;
EDILEUZA RUFINO DE MELO;2.581,52;PROF. II-A PFII-C (30H)*;N/A;N/A;Agosto;2018;
EDILEUZA RUFINO DE MELO;598,61;PROFESSOR - ADICIONAIS;Estatutário;2018;Agosto;2018;
EDILSON PEREIRA DA SILVA;1.509,71;AGENTE ADMINISTRATIVO (40h);Estatutário;2004;Agosto;2018;
EDILZA AUTA DE ARAUJO MELO;5.154,26;PROF. III-A PFIII-F (40)*;N/A;N/A;Agosto;2018;
EDINALVA BATISTA DA SILVA;1.413,95;ASG EFETIVOS;N/A;N/A;Agosto;2018;
EDINALVA DANTAS DE ARAUJO SANTOS;1.029,21;CUIDADOR DE CRIANÇA (INFANTIL);Estatutário;2015;Agosto;2018;
EDIVAN FERNANDES DA COSTA;2.344,25;MOTORISTA (40h);Estatutário;2003;Agosto;2018;
EDMAR SOARES PINHEIRO;1.363,68;VIG.SANITARIO (40h);Estatutário;1998;Agosto;2018;
EDNALDO BEZERRA DA SILVA;3.482,62;PROF. III-A PFIII-F (30)*;Estatutário;1984;Agosto;2018;
EDNILSON DOS SANTOS SILVA;1.031,71;ASSESSOR ESPECIAL DE GABINETE;Comissionado;2017;Agosto;2018;
EDNILZA FERREIRA DOS SANTOS ALMEIDA;1.335,60;ASG EFETIVOS;Estatutário;1998;Agosto;2018;
EDSON DOS SANTOS BRITO;1.144,80;ASG EFETIVOS;Estatutário;2017;Agosto;2018;
EIDER LOPES BARBOSA;2.402,32;MOTORISTA (40h);N/A;N/A;Agosto;2018;
ELANE MENDES DE CARVALHO LOPES;2.117,74;PROF. POLIVALENTE ENS. FUNDAMENTAL - I (30Hs);Estatutário;2017;Agosto;2018;
ELIANA MARIA DE FIGUEIREDO;4.062,66;PROF. III-A PFIII-D (40H);N/A;N/A;Agosto;2018;
ELIANA MARIA DE SOUZA;2.117,74;COORDENADOR PEDAGÓGICO II-A;Estatutário;2015;Agosto;2018;
ELIANE SOARES DE SOUZA;997,50;CUIDADOR DE CRIANÇA (INFANTIL);Estatutário;2015;Agosto;2018;
ELIETE MARQUES DOS SANTOS FERNANDES;2.278,29;ASG EFETIVOS;Estatutário;1998;Agosto;2018;
ELISANGELA PATRICIA NUNES ABRANTES;3.720,94;FISIOTERAPEUTA;Estatutário;2002;Agosto;2018;
ELITA SAMARA DAVI DA SILVA;997,50;CUIDADOR DE CRIANÇA (INFANTIL);Estatutário;2015;Agosto;2018;
ELIZABETHE DIAS DE AZEVEDO;1.029,21;AUXILIAR ADMINISTRATIVO (40Hs);Estatutário;2018;Agosto;2018;
ELIZIMAR BEZERRA DE SOUZA ARRUDA;3.287,79;PROF. II-A PFII-F (30H)*;Estatutário;1982;Agosto;2018;
ELMA GABRIELLA BEZERRA DE OLIVEIRA COSTA;1.060,92;ATENDENTE DE FARMACIA (40Hs);Estatutário;2015;Agosto;2018;
ELMA GABRIELLA BEZERRA DE OLIVEIRA COSTA;375,00;ATENDENTE DE FARMACIA (40Hs);N/A;N/A;Agosto;2018;
ELVIRO FERREIRA NETO;2.117,74;INSPETOR ESCOLAR  II-A (30hs);Estatutário;2015;Agosto;2018;
ENICLEIDE AUGUSTO DE ARAUJO;1.992,80;AGENTE COM. DE SAUDE (40h);N/A;N/A;Agosto;2018;
ERIDALVA TRINDADE DA SILVA;2.117,74;PROF POLIVAL ENS INFANTIL - II-A (30Hs);Estatutário;2015;Agosto;2018;
ERIFRAN PAULO DE SOUZA;3.047,00;PROF III-A PFIII-D (30H);Estatutário;1998;Agosto;2018;
ERINALDA BATISTA SILVA;1.519,66;AGENTE COM. DE SAUDE (40h);Estatutário;2005;Agosto;2018;
ERINEIDE BEZERRA DE AQUINO;2.920,05;PROF III-A PFIII-D (30H);Estatutário;2000;Agosto;2018;
ERINEIDE BEZERRA DE AQUINO;423,19;PROFESSOR - ADICIONAIS;Estatutário;2017;Agosto;2018;
ERINEIDE RAMALHO DA SILVA FELINTO;1.296,41;ASG EFETIVOS;Estatutário;1999;Agosto;2018;
ERIVAN ALMEIDA DE BRITO;649,44;PROFESSOR - ADICIONAIS;Estatutário;2011;Agosto;2018;
ERIVAN ALMEIDA DE BRITO;3.514,28;PROF. II-A PFII-F (30H)*;N/A;N/A;Agosto;2018;
ERIZE DANTAS DA SILVA MEDEIROS;1.486,50;AUXILIAR DE SAUDE BUCAL (40Hs);Estatutário;2015;Agosto;2018;
ERNANDES NOGUEIRA DE LUCENA;1.208,22;ASG EFETIVOS;Estatutário;2017;Agosto;2018;
ERONILSON JUSTINIANO DA SILVA;1.000,00;ASSESSOR ESPECIAL DE GABINETE;Comissionado;2017;Agosto;2018;
ESTELA GARCIA DA SILVA MEDEIROS;2.500,00;PSICÓLOGO(A) - 40Hs;Estatutário;2015;Agosto;2018;
EUDFRAN DA SILVA;1.144,80;ASG EFETIVOS;Estatutário;2017;Agosto;2018;
EUDFRAN DA SILVA;200,00;ASG EFEIVO (ADICIONAIS);Estatutário;2018;Agosto;2018;
EUKARINE DO NASCIMENTO DUDA AZEVEDO;2.117,74;PROFESSOR DE MATEMATTICA - II-A (30Hs);Estatutário;2015;Agosto;2018;
EVA FRANCISCA DA SILVA;1.017,42;CONSELHEIRO (40h);Conselheiro Tutelar;2016;Agosto;2018;
EVA VILMA BATALHA DA SILVA;4.062,66;PROF. III-A PFIII-D (40H);N/A;N/A;Agosto;2018;
EVANDRO MACEDO DOS SANTOS;1.759,59;GARI (40h);N/A;N/A;Agosto;2018;
EXPEDITO SIMAO DA SILVA;1.759,59;GARI (40h);N/A;N/A;Agosto;2018;
FABIANA MEDEIROS DA SILVA;954,00;CONSELHEIRO (40h);Conselheiro Tutelar;2017;Agosto;2018;
FABIOLA DA COSTA ALVES;954,00;ASG EFETIVOS;Estatutário;2017;Agosto;2018;
FABIOLA DA COSTA SILVA;1.330,00;AUXILIAR ADMINISTRATIVO (40Hs);Estatutário;2015;Agosto;2018;
FABRICIA NATALIA DE ARAUJO;985,71;ORIENTADOR SOCIAL (40H);CONTRATADO;2018;Agosto;2018;
FABRICIO LEITE DANTAS;1.250,00;FARMACEUTICO 20H;Estatutário;2017;Agosto;2018;
FATIMA LIDUINA CARDOSO DE SOUZA;1.264,70;ASG EFETIVOS;Estatutário;1999;Agosto;2018;
FERNANDO LUIZ DA SILVA;1.648,89;AGENTE COM. DE SAUDE (40h);Estatutário;2000;Agosto;2018;
FLAVIA NETHANIA GURGEL PEREIRA;2.117,74;PROF.(AEE) ATEND EDUC ESPECIALIZADO - II-A (30Hs);Estatutário;2015;Agosto;2018;
FLAVIO LEYDSON PEREIRA DA SILVA;997,50;DIGITADOR (40h);Estatutário;2015;Agosto;2018;
FLORIZA DE MACEDO NETA SILVA;2.117,74;COORDENADOR PEDAGÓGICO II-A;Estatutário;2017;Agosto;2018;
FRANCIELIA GUEDES DA SILVA;1.017,42;CHEFE DE SETOR DE PROTEÇÃO SOCIAL ESPECIAL;Comissionado;2017;Agosto;2018;
FRANCILENE PEREIRA DE MELO;3.047,00;PROF III-A PFIII-D (30H);Estatutário;1998;Agosto;2018;
FRANCINEIDE BARROSO DE ARAUJO;1.558,89;AGENTE COM. DE SAUDE (40h);Estatutário;2000;Agosto;2018;
FRANCINEIDE GOMES BEZERRA;1.539,64;ASG EFETIVOS;N/A;N/A;Agosto;2018;
FRANCINEIDE PEREIRA DA SILVA;2.404,63;ASG EFETIVOS;Estatutário;1998;Agosto;2018;
FRANCINETE BEZERRA DE ARAÚJO;1.264,70;ASG EFETIVOS;Estatutário;2000;Agosto;2018;
FRANCINETE MARIA DA SILVA;3.241,26;PROF III-A PFIII-D (30H);N/A;N/A;Agosto;2018;
FRANCINETE PEREIRA GUIMARAES RIBEIRO;2.545,78;PARTEIRA;N/A;N/A;Agosto;2018;
FRANCINILDO FELICIANO DOS SANTOS;2.119,50;GARI (40h);Estatutário;1998;Agosto;2018;
FRANCINILDO SILVESTRE DA SILVA;2.654,59;PROF II-A PFII-D (30;Estatutário;1999;Agosto;2018;
FRANCINILDO SILVESTRE DA SILVA;615,55;PROFESSOR - ADICIONAIS;Estatutário;2011;Agosto;2018;
FRANCINILSON BATISTA DA SILVA;3.250,00;SECRETARIO MUNICIPAL;Comissionado;2017;Agosto;2018;
FRANCISCA ALDENIR DA SILVA ALVES;1.313,50;TECNICO DE ENFERMAGEM (30);Estatutário;1998;Agosto;2018;
FRANCISCA ALVES DE ARAUJO;2.613,63;AUX. DE ENFERMAGEM;Estatutário;1998;Agosto;2018;
FRANCISCA ALVES DE MOURA;2.117,74;PROF POLIVAL ENS INFANTIL - II-A (30Hs);Estatutário;2015;Agosto;2018;
FRANCISCA BEZERRA DE MEDEIROS ;1.319,69;ASG EFETIVOS;Estatutário;1998;Agosto;2018;
FRANCISCA DAS CHAGAS BATISTA GOMES;954,00;MERENDEIRA(O) - CONTRATOS;CONTRATADO;2018;Agosto;2018;
FRANCISCA DAS CHAGAS CARLOS DE FREITAS;1.385,68;DATILOGRAFO (40h);Estatutário;1998;Agosto;2018;
FRANCISCA DOS SANTOS SILVA;3.047,00;PROF III-A PFIII-D (30H);Estatutário;1998;Agosto;2018;
FRANCISCA DOS SANTOS SILVA;846,39;PROFESSOR - ADICIONAIS;Estatutário;2018;Agosto;2018;
FRANCISCA FREITAS DA SILVA;2.457,26;AUX. DE ENFERMAGEM;Estatutário;1998;Agosto;2018;
FRANCISCA GILVANEIDE HOLANDA DO CARMO;5.662,27;ENFERMEIRO;Estatutário;2015;Agosto;2018;
FRANCISCA HELENA DE VASCONCELOS;423,19;PROFESSOR - ADICIONAIS;N/A;N/A;Agosto;2018;
FRANCISCA HELENA DE VASCONCELOS;3.047,00;PROF III-A PFIII-D (30H);Estatutário;1998;Agosto;2018;
FRANCISCA MARIA CONSTANTINO DE OLIVEIRA;3.047,00;PROF III-A PFIII-D (30H);Estatutário;1998;Agosto;2018;
FRANCISCA MARIA DANTAS;1.622,13;ASG EFETIVOS;Estatutário;1998;Agosto;2018;
FRANCISCA MARIA DOS SANTOS SILVA;1.224,83;TECNICO DE ENFERMAGEM (30);Estatutário;1999;Agosto;2018;
FRANCISCA PEREIRA DAS CHAGAS;985,71;ORIENTADOR SOCIAL (40H);CONTRATADO;2018;Agosto;2018;
FRANCISCA ROSANA DANTAS;1.539,64;ASG EFETIVOS;N/A;N/A;Agosto;2018;
FRANCISCA SOUZA LIMA;3.047,00;PROF III-A PFIII-D (30H);Estatutário;1998;Agosto;2018;
FRANCISCA TEIXEIRA DA SILVA OLIVEIRA;1.204,48;ASG EFETIVOS;Estatutário;2003;Agosto;2018;
FRANCISCO AVELINO DE BRITO;2.858,95;PROF. I-A PFI-F (30H)*;Estatutário;1982;Agosto;2018;
FRANCISCO AYRES DA SILVA;2.140,33;ASG EFETIVOS;Estatutário;2017;Agosto;2018;
FRANCISCO BALBINO DA C. FILHO;2.640,50;GARI (40h);Estatutário;1998;Agosto;2018;
FRANCISCO CAMPANHA SILVA DE OLIVEIRA;2.420,37;MOTORISTA (40h);Estatutário;2015;Agosto;2018;
FRANCISCO CANINDE DE MEDEIROS SENA;1.875,00;MAESTRO - 30H;Estatutário;2016;Agosto;2018;
FRANCISCO CANINDE FERREIRA;3.047,00;PROF III-A PFIII-D(30H);Estatutário;1998;Agosto;2018;
FRANCISCO CANINDE SOARES;1.400,00;SECRETARIO ADJUNTO;Comissionado;2017;Agosto;2018;
FRANCISCO DAS CHAGAS DE SOUZA;1.655,02;ASG EFETIVOS;Estatutário;1986;Agosto;2018;
FRANCISCO DAS CHAGAS PEREIRA DA SILVA;2.059,52;GARI (40h);Estatutário;1998;Agosto;2018;
FRANCISCO DE ASSIS BRITO CARDOSO FILHO;15.400,00;MEDICO ESF (40H);Estatutário;2017;Agosto;2018;
FRANCISCO DE ASSIS DA SILVA;2.581,52;PROF. II-A PFII-C (30H)*;N/A;N/A;Agosto;2018;
FRANCISCO DE ASSIS DOS SANTOS;3.482,62;PROF. III-A PFIII-F (30)*;Estatutário;1988;Agosto;2018;
FRANCISCO DE ASSIS DOS SANTOS;714,38;PROFESSOR - ADICIONAIS;Estatutário;2017;Agosto;2018;
FRANCISCO DE ASSIS JUNIOR;985,71;DIRETOR DEPTO DE MAQUINAS E FROTA;Comissionado;2017;Agosto;2018;
FRANCISCO DE ASSIS SILVA;2.162,50;ELETRICISTA (40h);Estatutário;1998;Agosto;2018;
FRANCISCO DEGBERTO MEDEIROS DOS SANTOS;1.400,00;SECRETARIO ADJUNTO;Comissionado;2017;Agosto;2018;
FRANCISCO DONIZETE DE SOUZA;724,32;PROFESSOR - ADICIONAIS;Estatutário;2018;Agosto;2018;
FRANCISCO DONIZETE DE SOUZA;3.123,64;PROF. IV-A PF IV- C (30)*;Estatutário;1999;Agosto;2018;
FRANCISCO GEILSON SILVA DE ARRUDA;1.600,00;DIRETOR DO SETOR DE INFRAESTRUTURA;Comissionado;2017;Agosto;2018;
FRANCISCO LOURENCO FILHO;4.225,00;AG.F.TRIBUTOS;Estatutário;1988;Agosto;2018;
FRANCISCO MARINHEIRO DE SOUZA FILHO;1.327,94;AGENTE ADMINISTRATIVO (40h);Estatutário;2000;Agosto;2018;
FRANCISCO MONTEIRO;2.117,74;PROF. DE CIENCIAS DA NATUREZA - II-A (30Hs);Estatutário;2016;Agosto;2018;
FRANCISCO MONTEIRO;705,91;PROFESSOR - ADICIONAIS;Estatutário;2018;Agosto;2018;
FRANCISCO RIVONALDO MENEZES FREITAS;1.454,95;DIGITADOR (40h);Estatutário;1996;Agosto;2018;
FRANCKTO PEREIRA DA SILVA;997,50;CUIDADOR DE CRIANÇA (NECESSIDADES ESPECIAIS);Estatutário;2015;Agosto;2018;
FYLIPPE FERNANDES DE MELO COSTA;3.250,00;SECRETARIO MUNICIPAL;Comissionado;2017;Agosto;2018;
GABRIEL FIDELIS ALVES DE ARAUJO;954,00;ASG EFETIVOS;Estatutário;2017;Agosto;2018;
GABRIELLE MORAIS ARRUDA COSTA;4.400,00;ENFERMEIRO;Estatutário;2015;Agosto;2018;
GEISA DA SILVA FELICIANO DE LIMA;1.200,00;ASSESSOR EM PREGOES;Comissionado;2017;Agosto;2018;
GEISA MARCIA GOMES DE OLIVEIRA;1.236,19;ASG EFETIVOS;N/A;N/A;Agosto;2018;
GENILDA LIMA DOS SANTOS;3.047,00;PROF III-A PFIII-D(30H);Estatutário;1998;Agosto;2018;
GENILDO ASSIS DE MEDEIROS;3.047,00;PROF III-A PFIII-D (30H);Estatutário;1998;Agosto;2018;
GENILIA LIMA DOS SANTOS;3.950,84;PROF. III-A PFIII-C (40H)*;Estatutário;1998;Agosto;2018;
GERALDO GUTEMBERG PEREIRA;2.223,20;ELETRICISTA (40h);N/A;N/A;Agosto;2018;
GERALDO PEREIRA DOS SANTOS;1.400,00;SECRETARIO ADJUNTO;Comissionado;2017;Agosto;2018;
GERVASIO BEZERRA DE MEDEIROS;1.576,20;ASG EFETIVOS;Estatutário;1987;Agosto;2018;
GESSYCA DA SILVA LOPES SOUZA;2.117,74;PROF. POLIVALENTE ENS. FUNDAMENTAL - I (30Hs);Estatutário;2015;Agosto;2018;
GILDEONE JERONIMO DE SOUZA;2.117,74;PROF. DE EDUCAÇÃO FÍSICA - II-A (30Hs);Estatutário;2015;Agosto;2018;
GILDETE BESERRA DE MEDEIROS TAVARES;1.454,95;AGENTE ADMINISTRATIVO (40h);Estatutário;1996;Agosto;2018;
GILSON DE BRITO NERI;2.347,73;MOTORISTA (40h);Estatutário;1999;Agosto;2018;
GILVAN FELIPE DA SILVA;1.849,57;GARI (40h);N/A;N/A;Agosto;2018;
GIRLANE LOPES DE ARAUJO;1.385,68;DATILOGRAFO (40h);Estatutário;1998;Agosto;2018;
GISA CARLA GOMES DE OLIVEIRA MEDEIROS;2.839,67;PROF. III-A PFIII-C (30H)*;Estatutário;2002;Agosto;2018;
GISA CARLA GOMES DE OLIVEIRA MEDEIROS;411,54;PROFESSOR - ADICIONAIS;Estatutário;2018;Agosto;2018;
GLADIANA LOPES DUARTE;2.097,44;AGENTE COM. DE SAUDE (40h);Estatutário;1996;Agosto;2018;
GLAUCIA FERNANDES DE AZEVEDO;5.100,00;ODONTÓLOGO EF -(40Hs);Estatutário;2015;Agosto;2018;
GLECIO ALVES MARIZ;1.144,80;ASG EFETIVOS;Estatutário;2017;Agosto;2018;
GLEDSON MICHELL ALBERTO DE ARAUJO;1.494,74;MOTORISTA (40h);Estatutário;2015;Agosto;2018;
GLENIO DE AZEVEDO ALVES;2.117,74;PROF. DE HISTÓRIA/CULTURA - II-A (30Hs);Estatutário;2016;Agosto;2018;
GUSTAVO BATISTA DE ARAUJO;997,50;DIGITADOR (40h);Estatutário;2015;Agosto;2018;
HÉBIA JANAÍNA NOBRE DE MEDEIROS;1.862,00;AUXILIAR DE SAUDE BUCAL (40Hs);Estatutário;2016;Agosto;2018;
HELDER SHAKIELLY DE MEDEIROS;997,50;DIGITADOR (40h);Estatutário;2015;Agosto;2018;
HELENA EUZEBIO DE ALMEIDA SANTOS;3.339,11;AUX. DE ENFERMAGEM;N/A;N/A;Agosto;2018;
HELENA PINHEIRO DOS SANTOS;1.484,65;ASG EFETIVOS;Estatutário;1999;Agosto;2018;
HELIMÁRIO MOREIRA PEREIRA ;3.250,00;SECRETARIO MUNICIPAL;Comissionado;2017;Agosto;2018;
HERCULES CAWARINNY DA SILVA SOUZA;1.144,80;ASG EFETIVOS;Estatutário;2017;Agosto;2018;
HERMINIO PEREIRA DE LUCENA NETO;2.500,00;CONTROLADOR(A);Comissionado;2017;Agosto;2018;
HERVILA GABRIELA TAVARES DE MEDEIROS;2.500,00;ASSISTENTE SOCIAL EF (30H);Estatutário;2015;Agosto;2018;
HIAGO VIEIRA GURGEL DE LIMA;2.117,74;PROF. DE HISTÓRIA/CULTURA - II-A (30Hs);Estatutário;2015;Agosto;2018;
HIAGO VIEIRA GURGEL DE LIMA;564,73;PROFESSOR - ADICIONAIS;Estatutário;2018;Agosto;2018;
HISSA HAMYLLE MENEZES MOTA;2.500,00;ASSISTENTE SOCIAL EF (30H);Estatutário;2017;Agosto;2018;
IAMANY LOPES GARCIA;4.862,27;ENFERMEIRO;Estatutário;2015;Agosto;2018;
IARA KALIANE PINHEIRO DOS SANTOS;1.003,92;TECNICO DE ENFERMAGEM (30);Estatutário;2015;Agosto;2018;
IEDA SILVA DE LIMA;2.117,74;COORDENADOR PEDAGÓGICO II-A;Estatutário;2015;Agosto;2018;
ILANA CRUZ SILVA;997,50;CUIDADOR DE CRIANÇA (INFANTIL);Estatutário;2015;Agosto;2018;
ILZA MARIA DE LIMA FERREIRA;1.327,94;AGENTE ADMINISTRATIVO (40h);Estatutário;1999;Agosto;2018;
INÁCIA RIBEIRO MARIZ;2.117,74;INSPETOR ESCOLAR  II-A (30hs);Estatutário;2016;Agosto;2018;
INACIO ELIZIARIO FERREIRA;1.909,55;GARI (40h);Estatutário;1998;Agosto;2018;
INGRID INES DE AQUINO SANTOS;1.612,95;AGENTE ADMINISTRATIVO (40h);Estatutário;2005;Agosto;2018;
IONARA DE SOUZA JANUARIO;4.400,00;ENFERMEIRO;Estatutário;2015;Agosto;2018;
IRACEMA CAVALCANTE;1.620,02;TECNICO DE ENFERMAGEM (40H);Estatutário;2015;Agosto;2018;
IRANILSA RAIMUNDA DOS SANTOS;3.166,02;PROF. II-A PFII-F (30H)*;Estatutário;1986;Agosto;2018;
IRINEIDE ATANAZIO DE ARAÚJO SANTOS;1.264,70;ASG EFETIVOS;Estatutário;1999;Agosto;2018;
ISA RAQUEL SOARES DE QUEIROZ;3.900,00;ENFERMEIRO;Estatutário;2016;Agosto;2018;
ISABEL LIANA DE MEDEIROS AMARAL;1.346,84;AGENTE COM. DE SAUDE (40h);Estatutário;2015;Agosto;2018;
ISMAEL ALMEIDA DA SILVA;1.695,27;MOTORISTA (40h);Estatutário;2015;Agosto;2018;
ITAMARA MIRANDA BEZERRA DOS SANTOS;2.117,74;PROF. POLIVALENTE ENS. FUNDAMENTAL - I (30Hs);Estatutário;2017;Agosto;2018;
IVANALDO RODRIGUES DE LIRA;1.655,02;GARI (40h);Estatutário;1986;Agosto;2018;
IVANETE DA FONSECA DANTAS;2.117,74;INSPETOR ESCOLAR  II-A (30hs);Estatutário;2016;Agosto;2018;
IVANETE MARIA DE MEDEIROS;2.762,56;ASG EFETIVOS;Estatutário;1988;Agosto;2018;
IVANILDO DE MEDEIROS HIGINO;1.144,80;ASG EFETIVOS;Estatutário;2017;Agosto;2018;
IVANILTON VICENTE DA SILVA;954,00;MERENDEIRA(O) - CONTRATOS;CONTRATADO;2018;Agosto;2018;
IVO GOMES DA SILVA;3.047,00;PROF III-A PFIII-D (30H);Estatutário;1998;Agosto;2018;
IVONALDO LOPES DE ARAÚJO;4.062,66;PROF. III-A PFIII-D (40H);N/A;N/A;Agosto;2018;
IVONALDO LOPES DE ARAÚJO;338,55;PROFESSOR - ADICIONAIS;Estatutário;2015;Agosto;2018;
IVONALDO PEREIRA LOPES;1.527,94;AGENTE DE PORTARIA (40h);Estatutário;2000;Agosto;2018;
IVONEIDE LOPES DE ARAUJO E SILVA;3.047,00;PROF III-A PFIII-D (30H);Estatutário;1998;Agosto;2018;
IVONILDO LOPES DE ARAUJO;1.558,89;AGENTE COM. DE SAUDE (40h);Estatutário;1999;Agosto;2018;
JACILENE PEREIRA DE ARAUJO;997,50;CUIDADOR DE CRIANÇA (INFANTIL);Estatutário;2015;Agosto;2018;
JAILMA RODRIGUES DE ARAUJO;1.671,74;AUX. DE ENFERMAGEM;Estatutário;1998;Agosto;2018;
JAILSON SERGIO DOS SANTOS;1.977,04;MOTORISTA (40h);Estatutário;2003;Agosto;2018;
JAILSON SOUZA DO CARMO;2.770,01;PROF II-A PFII-D (30;Estatutário;1998;Agosto;2018;
JAIR CELIO SILVA DE MEDEIROS;1.144,80;ASG EFETIVOS;Estatutário;2017;Agosto;2018;
JAIR MEDEIROS DE ARAUJO;1.144,80;ASG EFETIVOS;Estatutário;2017;Agosto;2018;
JALMIR FERREIRA DE LIMA;4.062,66;PROF. III-A PFIII-D (40H);N/A;N/A;Agosto;2018;
JAMISON GONZAGA DE SOUZA;1.400,00;SECRETARIO ADJUNTO;Comissionado;2017;Agosto;2018;
JANAINA DA SILVA TEIXEIRA;2.117,74;COORDENADOR PEDAGÓGICO II-A;Estatutário;2015;Agosto;2018;
JANAINA DE LIMA FERREIRA;2.117,74;PROF POLIVAL ENS INFANTIL - II-A (30Hs);Estatutário;2015;Agosto;2018;
JANAINA RAFIA DE BRITO;2.117,74;PROF. DE CIENCIAS DA NATUREZA - II-A (30Hs);Estatutário;2017;Agosto;2018;
JANAINA TORRES DE ARAUJO;2.500,00;ADVOGADO;Estatutário;2015;Agosto;2018;
JANAT ERIKA FERNANDES DE MEDEIROS;997,50;CUIDADOR DE CRIANÇA (INFANTIL);Estatutário;2015;Agosto;2018;
JANE KECIA DE MEDEIROS;2.117,74;PROF POLIVAL ENS INFANTIL - II-A (30Hs);Estatutário;2015;Agosto;2018;
JANICE DE MEDEIROS FERREIRA;1.176,51;ASG EFETIVOS;Estatutário;2017;Agosto;2018;
JANICLEIDE SOUZA DO CARMO;985,71;ORIENTADOR SOCIAL PROG CRIANÇA FELIZ(40H);CONTRATADO;2018;Agosto;2018;
JANILSON PAULO FERREIRA DA SILVA;1.300,00;DIRETOR DO DEPARTAMENTO DE ESPORTES;Comissionado;2017;Agosto;2018;
JAURI DE FREITAS SANTOS;1.847,57;ELETRICISTA (40h);N/A;N/A;Agosto;2018;
JAZRAEL JOSE MORAIS SILVA;1.144,80;ASG EFETIVOS;Estatutário;2017;Agosto;2018;
JEAN JOSE DA SILVA;1.400,00;SECRETARIO ADJUNTO;N/A;N/A;Agosto;2018;
JEANNE ALVES DO AMARAL;1.539,64;ASG EFETIVOS;N/A;N/A;Agosto;2018;
JECKSON PEREIRA DA SILVA MATIAS;1.299,02;MOTORISTA (40h);Estatutário;2015;Agosto;2018;
JERLÂNIA FRANCISCA NERES;1.590,00;CHEFE DE SETOR DE PROTOCOLO E ARQUIVO;Comissionado;2017;Agosto;2018;
JERLANY HOLANDA DA COSTA;352,95;PROFESSOR - ADICIONAIS;Estatutário;2018;Agosto;2018;
JERLANY HOLANDA DA COSTA;2.117,74;PROF. POLIVALENTE ENS. FUNDAMENTAL - I (30Hs);Estatutário;2018;Agosto;2018;
JESSICA DANTAS XAVIER;2.500,00;NUTRICIONISTA EF (40Hs);Estatutário;2016;Agosto;2018;
JESSICA FERNANDA DE MEDEIROS JUSTINIANO;2.117,74;PROF. DE LINGUA PORTUGUESA - II-A (30Hs);Estatutário;2016;Agosto;2018;
JESSICA VICENTE DE SOUZA FERREIRA;997,50;AGENTE SOCIAL (40H);Estatutário;2015;Agosto;2018;
JOAILSON LIMA DE ARAUJO;2.061,18;GARI (40h);N/A;N/A;Agosto;2018;
JOALSE ALVES DE BRITO;2.117,74;PROF. POLIVALENTE ENS. FUNDAMENTAL - I (30Hs);Estatutário;2017;Agosto;2018;
JOANA DARC DE MOURA SILVA;1.328,12;DIGITADOR (40h);Estatutário;2003;Agosto;2018;
JOAO ALVES DE ARAÚJO;1.385,68;AGENTE ADMINISTRATIVO (40h);Estatutário;1998;Agosto;2018;
JOAO BATISTA DE BRITO;16.800,00;MEDICO PLANTONISTA;CONTRATADO;2017;Agosto;2018;
JOAO BATISTA DE SOUZA;600,00;CARGO REQUISITADO;Cedido;2017;Agosto;2018;
JOAO BATISTA DUTRA;1.947,44;AGENTE COM. DE SAUDE (40h);Estatutário;1996;Agosto;2018;
JOAO BATISTA JUNIOR;1.498,51;MOTORISTA (40h);Estatutário;2017;Agosto;2018;
JOAO FELICIANO DO CARMO JUNIOR;1.747,09;PEDREIRO (40h);N/A;N/A;Agosto;2018;
JOAO LOPES DE ARAUJO NETO;1.787,44;AGENTE COM. DE SAUDE (40h);Estatutário;1996;Agosto;2018;
JOAO MARIA PEREIRA;1.264,70;AGENTE SERV.ESPORTIVO;Estatutário;2002;Agosto;2018;
JOAO PAULO DA SILVA;954,00;CONSELHEIRO (40h);Conselheiro Tutelar;2016;Agosto;2018;
JOAO PAULO SEGUNDO COSTA;1.176,51;ASG EFETIVOS;Estatutário;2017;Agosto;2018;
JOAQUIM ALVES DA COSTA NETO;997,50;DIGITADOR (40h);Estatutário;2015;Agosto;2018;
JOCIVAN CONSTANTINO PEREIRA;1.814,56;TECNICO DE ENFERMAGEM (30);Estatutário;1998;Agosto;2018;
JOELMA BATISTA DE ARAUJO;2.933,69;ASG EFETIVOS;Estatutário;1987;Agosto;2018;
JOELMA DE FATIMA LOPES DE MEDEIROS;1.385,68;AGENTE ADMINISTRATIVO (20H);Estatutário;1998;Agosto;2018;
JOELMA GALDINO DE ALENCAR ALEXANDRE;2.920,05;PROF III-A PFIII-D (30H);Estatutário;1999;Agosto;2018;
JOHNY LOPES DE ARAUJO;1.360,92;MOTORISTA (40h);Estatutário;2015;Agosto;2018;
JOILMA ANTONIA DA SILVA ESTEVAM;1.264,70;ASG EFETIVOS;Estatutário;1999;Agosto;2018;
JOILMA OLIVEIRA DE ARAÚJO;1.539,64;ASG EFETIVOS;N/A;N/A;Agosto;2018;
JONATHAN CLEMENTE DE OLIVEIRA E SILVA;1.197,00;AUXILIAR ADMINISTRATIVO (40Hs);Estatutário;2016;Agosto;2018;
JONNHY VALE DE FIGUEIREDO;4.000,00;BIOQUIMICO-EF (40Hs);Estatutário;2016;Agosto;2018;
JORGE LUIZ GURGEL GUERRA JUNIOR;1.460,73;MOTORISTA (40h);Estatutário;2015;Agosto;2018;
JOSE ANTONIO BATISTA DE ARAUJO;1.947,44;AGENTE COM. DE SAUDE (40h);Estatutário;1996;Agosto;2018;
JOSE ANTONIO BATISTA DE ARAUJO;2.285,78;MOTORISTA (40h);N/A;N/A;Agosto;2018;
JOSE DE ANCHIETA ARAUJO MEDEIROS;1.319,69;ASG EFETIVOS;Estatutário;1998;Agosto;2018;
JOSE DE ANCHIETA BATISTA DOS SANTOS;1.770,59;FISCAL DE TRIBUTOS (40h);N/A;N/A;Agosto;2018;
JOSE DE SOUZA NETO;1.543,75;GARI (40h);Estatutário;2017;Agosto;2018;
JOSE DOMINGOS DA SILVA;954,00;MERENDEIRA(O) - CONTRATOS;CONTRATADO;2018;Agosto;2018;
JOSE FRANCISCO DA SILVA;1.648,89;AGENTE COM. DE SAUDE (40h);Estatutário;2000;Agosto;2018;
JOSE JEFFERSON DE OLIVEIRA FELINTO;1.335,60;GARI (40h);Estatutário;2017;Agosto;2018;
JOSE JOANILSON BEZERRA DE ALMEIDA;1.947,44;AGENTE COM. DE SAUDE (40h);Estatutário;1996;Agosto;2018;
JOSE JOAQUIM BEZERRA;1.655,02;ASG EFETIVOS;Estatutário;1984;Agosto;2018;
JOSE JOAQUIM DOS SANTOS FILHO;2.554,68;GARI (40h);Estatutário;1998;Agosto;2018;
JOSÉ JOSEMIR DA TRINDADE SILVA;1.958,52;MOTORISTA (40h);Estatutário;2016;Agosto;2018;
JOSE PEDRO DE ARAUJO NETO;7.800,00;VICE-PREFEITO;N/A;N/A;Agosto;2018;
JOSE PEREIRA DA SILVA;1.909,55;GARI (40h);Estatutário;1998;Agosto;2018;
JOSÉ PETRÔNIO DANTAS DE ARAUJO;1.460,73;MOTORISTA (40h);Estatutário;2015;Agosto;2018;
JOSE ROMUALDO DA CRUZ;1.264,70;ASG EFETIVOS;Estatutário;1999;Agosto;2018;
JOSÉ TAIRONE COSTA DE MEDEIROS;1.612,56;AGENTE COMUNITARIO DE COMBATE ÀS ENDEMIAS;Estatutário;2015;Agosto;2018;
JOSE VIANA DE SALES;2.177,54;MOTORISTA (40h);Estatutário;2002;Agosto;2018;
JOSE VIANA DE SALES JUNIOR;1.150,00;CHEFE DO SETOR DE COMPRAS;Comissionado;2017;Agosto;2018;
JOSE VIEIRA FILHO;2.084,52;GARI (40h);Estatutário;1998;Agosto;2018;
JOSEANE MARIA ESTEVAM DA SILVA;1.236,19;ASG EFETIVOS;N/A;N/A;Agosto;2018;
JOSEMIR LOPES DE ALMEIDA;1.319,69;ASG EFETIVOS;Estatutário;1998;Agosto;2018;
JOSENILDA MARIA DA SILVA;1.385,68;AGENTE ADMINISTRATIVO (40h);Estatutário;1998;Agosto;2018;
JOSIANE AMARO DA SILVA;613,71;CONSELHEIRO (40h);Conselheiro Tutelar;2018;Agosto;2018;
JOSILANE MARINHO QUEIROZ;2.008,75;AGENTE COM. DE SAUDE (40h);Estatutário;1997;Agosto;2018;
JOSILENE MOURA DOS SANTOS;1.539,64;ASG EFETIVOS;N/A;N/A;Agosto;2018;
JOSILMA OLIVEIRA DA SILVA MOURA;2.654,59;PROF II-A PFII-D (30;Estatutário;1999;Agosto;2018;
JOSIMAR MARQUES DE OLIVEIRA;1.734,65;AGENTE COM. DE SAUDE (40h);Estatutário;2002;Agosto;2018;
JOSIMARIA SILVA DE ARAÚJO;3.047,00;PROF III-A PFIII-D(30H);Estatutário;1998;Agosto;2018;
JOSINEIDE SOARES DO NASCIMENTO;1.152,11;ASG EFETIVOS;Estatutário;2004;Agosto;2018;
JOSUE JOAO ALEXANDRE DA SILVA;985,71;CONSELHEIRO (40h);Conselheiro Tutelar;2016;Agosto;2018;
JOSUE LUCIO DE ARAUJO;2.001,22;GARI (40h);Estatutário;1998;Agosto;2018;
JOYCE RAYMIZAM GOMES DOS SANTOS;997,50;RECEPCIONISTA -EF (40Hs);Estatutário;2015;Agosto;2018;
JOZEILMA MATEUS DA SILVA;1.484,65;ASG EFETIVOS;Estatutário;1999;Agosto;2018;
JUCIARA DA SILVA TEIXEIRA;2.117,74;COORDENADOR PEDAGÓGICO II-A;Estatutário;2015;Agosto;2018;
JUCILENE MARIA DE ARAUJO ;3.047,00;PROF III-A PFIII-D (30H);Estatutário;1998;Agosto;2018;
JUCIMAR PEREIRA DANTAS;3.250,00;SECRETARIO MUNICIPAL;Comissionado;2017;Agosto;2018;
JULIANA GOMES CORTES;1.504,00;TECNICO DE ENFERMAGEM (40H);Estatutário;2015;Agosto;2018;
JULIETA BATISTA DE ALMEIDA;1.539,64;ASG EFETIVOS;N/A;N/A;Agosto;2018;
JULYANA COSTA CABRAL;2.350,00;FISIOTERAPEUTA  (20H) - EFETIVO;Estatutário;2015;Agosto;2018;
JURCELIA PEREIRA DANTAS;1.319,69;ASG EFETIVOS;Estatutário;1998;Agosto;2018;
KATIA CILENE DA SILVA BARBOSA;3.047,00;PROF III-A PFIII-D (30H);Estatutário;1998;Agosto;2018;
KEDILVA ARAÚJO DE MEDEIROS CABRAL;5.154,26;PROF. III-A PFIII-F (40)*;N/A;N/A;Agosto;2018;
KENNIA KELLY DE BRITO ARAUJO;954,00;ORIENTADOR SOCIAL (40H);CONTRATADO;2018;Agosto;2018;
KEYWERTON DE VASCONCELOS BRITO;1.460,73;MOTORISTA (40h);Estatutário;2015;Agosto;2018;
LAIR FERNANDES DA SILVA;3.410,96;MOTORISTA (40h);Estatutário;1984;Agosto;2018;
LAIS REGINA DA COSTA PEREIRA;4.400,00;ODONTÓLOGO EF -(40Hs);Estatutário;2015;Agosto;2018;
LAUDECI OLIVEIRA DOS SANTOS;2.151,74;AUX. DE ENFERMAGEM;Estatutário;1998;Agosto;2018;
LAUDINEIDE CONSTANTINO DE ARAUJO;3.382,17;PROF III-A PFIII-D (30H);N/A;N/A;Agosto;2018;
LAVOISIER PEREIRA COSTA;1.328,12;DIGITADOR (40h);Estatutário;2003;Agosto;2018;
LAYANNE DE MEDEIROS COSTA ALMEIDA;2.117,74;PROF. POLIVALENTE ENS. FUNDAMENTAL - I (30Hs);Estatutário;2015;Agosto;2018;
LAZARO DAMIAO DA SILVA;1.183,82;ASG EFETIVOS;Estatutário;2004;Agosto;2018;
LAZARO TAVARES DE FARIAS;954,00;ASG EFETIVOS;Estatutário;2017;Agosto;2018;
LEANDRO MORAIS GIFFONE OVIDIO;4.400,00;ODONTÓLOGO EF -(40Hs);Estatutário;2015;Agosto;2018;
LEILANIA RODRIGUES DE SOUZA;1.176,51;ASG EFETIVOS;Estatutário;2017;Agosto;2018;
LENI CAMPANHA DA SILVA;1.558,89;AUX. DE ENFERMAGEM;Estatutário;1999;Agosto;2018;
LENI SOARES DE BRITO;5.154,26;PROF. III-A PFIII-F (40)*;N/A;N/A;Agosto;2018;
LENIRA FIRMINO DE SOUZA ARAÚJO;3.647,00;PROF III-A PFIII-D (30H);Estatutário;1998;Agosto;2018;
LENIVANIA MARIA OLEGARIO DE OLIVEIRA;2.920,05;PROF III-A PFIII-D (30H);Estatutário;1999;Agosto;2018;
LENIVANIA MARIA OLEGARIO DE OLIVEIRA;846,39;PROFESSOR - ADICIONAIS;Estatutário;2018;Agosto;2018;
LEONILDES DA SILVA COSTA;1.949,46;COORDENADOR PEDAGÓGICO II-A;N/A;N/A;Agosto;2018;
LEYDSON LOPES BEZERRA;954,00;VIGILANTE;Estatutário;2017;Agosto;2018;
LIDIA RODRIGUES COSTA;1.504,00;TECNICO DE ENFERMAGEM (40H);Estatutário;2015;Agosto;2018;
LINDALVA SILVESTRE DE VASCONCELOS;2.770,01;PROF II-A PFII-D (30;Estatutário;1998;Agosto;2018;
LINDEMBERG CLEMENTE BARBOSA;1.623,43;COVEIRO (40h);N/A;N/A;Agosto;2018;
LINDOELSON CLEMENTINO DE MORAIS;1.294,45;MOTORISTA (40h);Estatutário;2015;Agosto;2018;
LINDOMAR SILVESTRE DE VASCONCELOS;1.958,89;AGENTE COM. DE SAUDE (40h);N/A;N/A;Agosto;2018;
LIZANDRA MARIA DE ARAUJO;1.254,00;TECNICO DE ENFERMAGEM (40H);Estatutário;2015;Agosto;2018;
LUCAS FELIPE FERNANDES BARROS ;954,00;ASG EFETIVOS;Estatutário;2017;Agosto;2018;
LUCIA DE FATIMA DA SILVA BARBOSA;1.808,89;AGENTE COM. DE SAUDE (40h);N/A;N/A;Agosto;2018;
LUCIA ELIZABETH BEZERRA SOARES;2.117,74;PROF. I-A PFI-A (30H) (10EF);Estatutário;2000;Agosto;2018;
LUCIA MARGARETE EETEVAM DE ARAÚJO;1.319,69;ASG EFETIVOS;Estatutário;1998;Agosto;2018;
LUCIANA DA SILVA;985,71;CUID. DE CRIANÇA COM DEFICIÊNCIA - CONTRATO;CONTRATADO;2018;Agosto;2018;
LUCIANA MEDEIROS DE OLIVEIRA;2.117,74;PROF. POLIVALENTE ENS. FUNDAMENTAL - I (30Hs);Estatutário;2015;Agosto;2018;
LUCICLEIDE DAS CHAGAS PEREIRA;1.938,36;AGENTE COM. DE SAUDE (40h);N/A;N/A;Agosto;2018;
LUCICLELIA TOMAZ DE AQUINO;2.272,94;PROF.ENS. FUNDAMENTAL NIVEL- I (30Hs);Cedido;2017;Agosto;2018;
LUCIDESTO RODRIGUES DA CRUZ;1.834,56;PEDREIRO (40h);Estatutário;2000;Agosto;2018;
LUCIENE RUFINO DA SILVA;518,46;ASG EFETIVOS;Estatutário;2003;Agosto;2018;
LUCIMEIRE RODRIGUES DA SILVA;1.486,50;AUXILIAR DE SAUDE BUCAL (40Hs);Estatutário;2015;Agosto;2018;
LUCINETE VALENTIM DE MEDEIROS ARAUJO;2.839,67;PROF. III-A PFIII-C (30H)*;Estatutário;2000;Agosto;2018;
LUCIVANIA MARIA DE OLIVEIRA;2.844,57;AUX. DE ENFERMAGEM;N/A;N/A;Agosto;2018;
LUIZ BALBINO ARAUJO FILHO;1.246,88;ASG EFETIVOS;Estatutário;2009;Agosto;2018;
LUIZ GONZAGA DA CRUZ;2.118,29;MOTORISTA (40h);Estatutário;1999;Agosto;2018;
LUIZA CARLA DA COSTA;954,00;ASG EFETIVOS;Estatutário;2017;Agosto;2018;
LUZIA MARIA ALVES DE ARAUJO;2.117,74;INSPETOR ESCOLAR  II-A (30hs);Estatutário;2015;Agosto;2018;
LUZIA PAULINA DOS SANTOS BRITO;1.413,95;ASG EFETIVOS;N/A;N/A;Agosto;2018;
LUZIA RAQUEL DA COSTA SILVA;2.117,74;PROF POLIVAL ENS INFANTIL - II-A (30Hs);Estatutário;2015;Agosto;2018;
LUZIA RAQUEL DA COSTA SILVA;352,95;PROFESSOR - ADICIONAIS;Estatutário;2018;Agosto;2018;
LUZINETE FIRMINO DE SOUZA;1.267,90;ASG EFETIVOS;N/A;N/A;Agosto;2018;
MACIÉLIO ALVES DE MEDEIROS;1.767,27;OPERADOR DE MOTO NIVELADORA - EF;Estatutário;2015;Agosto;2018;
MACILON BEZERRA DE ARAÚJO NETO;3.250,00;SECRETARIO MUNICIPAL;Comissionado;2017;Agosto;2018;
MADSON SHERMAN CARLOS ARAUJO;1.387,46;VIGILANTE;Estatutário;2017;Agosto;2018;
MAGALLY DE ARAUJO VIEIRA DE MELO;2.500,00;ASSISTENTE SOCIAL EF (30H);Estatutário;2015;Agosto;2018;
MAGLEIDSON DA SILVA SOUZA;1.144,80;ASG EFETIVOS;Estatutário;2017;Agosto;2018;
MAGNA MANUELA DANTAS FERNANDES;2.117,74;PROF.(AEE) ATEND EDUC ESPECIALIZADO - II-A (30Hs);Estatutário;2017;Agosto;2018;
MAGUILON SOARES GOMES;3.047,00;PROF III-A PFIII-D (30H);Estatutário;1998;Agosto;2018;
MANACES DE BRITO NERI;2.233,44;MOTORISTA (40h);Estatutário;2003;Agosto;2018;
MANOEL FELICIANO DA CRUZ FILHO;1.701,29;GARI (40h);Estatutário;1998;Agosto;2018;
MANOEL NAUTIFRAN DA CUNHA;1.595,78;GARI (40h);Estatutário;2017;Agosto;2018;
MARCELO JOSE DE LIMA;4.062,66;PROF. III-A PFIII-D (40H);N/A;N/A;Agosto;2018;
MARCIA REGINA DE ARAUJO;1.851,74;AUX. DE ENFERMAGEM;Estatutário;1998;Agosto;2018;
MARCIELMA DOS SANTOS ARAUJO;1.058,87;PROF. POLIVALENTE ENS. FUNDAMENTAL - I (30Hs);Estatutário;2015;Agosto;2018;
MARCIELMA DOS SANTOS ARAUJO;282,36;PROFESSOR - ADICIONAIS;Estatutário;2015;Agosto;2018;
MARCILENE SHEYLA BESERRA DE OLIVEIRA;1.029,21;COORD. ADMINISTRATIVO-EF (40Hs);Estatutário;2015;Agosto;2018;
MARCIO SALES DE SOUZA;954,00;ENTREVISTADOR DO CADASTRO UNICO/PBF;CONTRATADO;2018;Agosto;2018;
MARCIVANIA ARAUJO DE MEDEIROS ALVES;2.155,73;ATENDENTE DE ENFERMAGEM;Estatutário;1998;Agosto;2018;
MARCONDES MEDEIROS DA SILVA;1.629,08;AGENTE COMUNITARIO DE COMBATE ÀS ENDEMIAS;Estatutário;2015;Agosto;2018;
MARCOS ANTONIO DANTAS DE ARAÚJO;4.062,66;PROF. III-A PFIII-D (40H);N/A;N/A;Agosto;2018;
MARGARETH SOARES;4.416,23;PROF. III-A PFIII-F (30)*;N/A;N/A;Agosto;2018;
MARGARIDA ANA DOS SANTOS;1.558,89;AUX. DE ENFERMAGEM;Estatutário;1999;Agosto;2018;
MARGARIDA BEZERRA SOBRINHO;3.047,00;PROF III-A PFIII-D (30H);Estatutário;1998;Agosto;2018;
MARGARIDA IVONETE DE ARAUJO LOPES;2.581,52;PROF. II-A PFII-C (30H)*;N/A;N/A;Agosto;2018;
MARGARIDA MARIA DA SILVA;1.616,63;AGENTE COM. DE SAUDE (40h);Estatutário;1998;Agosto;2018;
MARGARIDA SEGUNDA DE ARAUJO SOARES;1.011,76;DIGITADOR (40h);Estatutário;2003;Agosto;2018;
MARIA ADRIANA DA SILVA;1.646,50;AUXILIAR DE SAUDE BUCAL (40Hs);Estatutário;2015;Agosto;2018;
MARIA ADRINA PEREIRA DA SILVA;1.264,70;ASG EFETIVOS;Estatutário;2000;Agosto;2018;
MARIA ALDENICE BATISTA DA R.ESTEVAM;1.327,94;AGENTE ADMINISTRATIVO (40h);Estatutário;1999;Agosto;2018;
MARIA ALVES BATISTA;954,00;CHEFE DE SETOR DE PROTEÇÃO SOCIAL BASICA;Comissionado;2017;Agosto;2018;
MARIA AMELIA CAMARA PEREIRA;1.616,63;AUX. DE ENFERMAGEM;Estatutário;1998;Agosto;2018;
MARIA APARECIDA BATISTA PEREIRA DE ARAUJO;3.585,93;AUX. DE ENFERMAGEM;Estatutário;1988;Agosto;2018;
MARIA APARECIDA DA CRUZ LOPES;1.616,63;AGENTE ADMINISTRATIVO (20H);Estatutário;1998;Agosto;2018;
MARIA APARECIDA MOURA DE SOUZA;3.047,00;PROF III-A PFIII-D (30H);Estatutário;1998;Agosto;2018;
MARIA APARECIDA VICENTE DE SOUZA;997,50;AGENTE DE ABORDAGEM (40HS);Estatutário;2017;Agosto;2018;
MARIA AUCILENE DE JESUS SILVA;1.264,70;ASG EFETIVOS;Estatutário;1999;Agosto;2018;
MARIA BETANIA ALMEIDA DE MEDEIROS;1.264,70;ASG EFETIVOS;Estatutário;1999;Agosto;2018;
MARIA CONCEIÇÃO ALVES DE MEDEIROS;1.722,93;ASG EFETIVOS;Estatutário;1998;Agosto;2018;
MARIA CONCEIÇÃO DE SOUZA MARQUES;1.558,89;TELEFONISTA (40h);Estatutário;1999;Agosto;2018;
MARIA CRISTINA DE ARAUJO;1.543,88;TECNICO DE ENFERMAGEM (40H);Estatutário;2015;Agosto;2018;
MARIA DA CONCEIÇÃO ALVES DE MOURA;954,00;CHEFE DE SETOR EXECUTIVO DOS CONSELHOS;Comissionado;2017;Agosto;2018;
MARIA DA CONCEIÇÃO DA SILVA;1.569,64;ASG EFETIVOS;N/A;N/A;Agosto;2018;
MARIA DA CONCEIÇAO DE MOURA;2.120,64;AUX. DE ENFERMAGEM;Estatutário;2003;Agosto;2018;
MARIA DA CONCEIÇÃO L DA SILVA;1.558,89;AGENTE COM. DE SAUDE (40h);Estatutário;2000;Agosto;2018;
MARIA DA CONCEIÇAO SANTOS DE MEDEIROS;985,71;CUID. DE CRIANÇA COM DEFICIÊNCIA - CONTRATO;CONTRATADO;2018;Agosto;2018;
MARIA DA GLORIA DOS SANTOS;1.204,48;ASG EFETIVOS;Estatutário;2003;Agosto;2018;
MARIA DA GUIA DA SILVA;1.228,71;FISCAL SANITARIO TECNICO (40h);Estatutário;2017;Agosto;2018;
MARIA DA GUIA DE VASCONCELOS;1.783,59;TECNICO DE ENFERMAGEM (40H);N/A;N/A;Agosto;2018;
MARIA DA GUIA LOPES BEZERRA;2.508,46;PROF. II-A PFII-B (30H)*;Estatutário;2002;Agosto;2018;
MARIA DA GUIA PAULINO DOS SANTOS;2.581,52;PROF. II-A PFII-C (30H)*;N/A;N/A;Agosto;2018;
MARIA DA GUIA PAULINO DOS SANTOS;748,26;PROFESSOR - ADICIONAIS;Estatutário;2017;Agosto;2018;
MARIA DA GUIA SILVA DE OLIVEIRA;1.713,42;ASG EFETIVOS;Estatutário;2000;Agosto;2018;
MARIA DA GUIA TOMAZ DE AQUINO;1.204,48;ASG EFETIVOS;Estatutário;2003;Agosto;2018;
MARIA DA NATIVIDADE LOPES DA COSTA;1.363,68;ASG EFETIVOS;Estatutário;1998;Agosto;2018;
MARIA DA PAZ DE ARAUJO;4.643,48;PROF. III-A PFIII-F (40)*;Estatutário;1987;Agosto;2018;
MARIA DA PAZ DE FIGUEIREDO;2.581,52;PROF. II-A PFII-C (30H)*;N/A;N/A;Agosto;2018;
MARIA DA PAZ DE FIGUEIREDO;224,48;PROFESSOR - ADICIONAIS;Estatutário;2017;Agosto;2018;
MARIA DA PAZ LEITE DE OLIVEIRA;2.839,67;PROF. III-A PFIII-C (30H)*;Estatutário;2003;Agosto;2018;
MARIA DAGUIA ALVES FELICIANO;400,00;CARGO REQUISITADO;Cedido;2017;Agosto;2018;
MARIA DAMIANA NERI DA SILVA;1.933,11;TECNICO DE ENFERMAGEM (30);Estatutário;1998;Agosto;2018;
MARIA DANUBIA BATISTA FONSECA;1.739,64;ASG EFETIVOS;N/A;N/A;Agosto;2018;
MARIA DARC ALMEIDA DE MEDEIROS;1.737,76;AGENTE ADMINISTRATIVO (40h);Estatutário;1986;Agosto;2018;
MARIA DAS DORES ALEXANDRE DE MEDEIROS;1.539,64;ASG EFETIVOS;N/A;N/A;Agosto;2018;
MARIA DAS DORES FERREIRA;2.654,59;PROF II-A PFII-D (30;Estatutário;1999;Agosto;2018;
MARIA DAS GRACAS ALVES DA SILVA;2.920,05;PROF III-A PFIII-D(30H);Estatutário;1999;Agosto;2018;
MARIA DAS GRACAS ALVES DA SILVA;550,14;PROFESSOR - ADICIONAIS;Estatutário;2012;Agosto;2018;
MARIA DAS GRACAS ALVES NUNES SANTOS;3.173,43;PROF. I-A PFI-F (30H)*;N/A;N/A;Agosto;2018;
MARIA DAS GRAÇAS JUSTINO DE ARAÚJO;2.693,76;PROF. II-A PFII-C (30H)*;Estatutário;1998;Agosto;2018;
MARIA DAS GRACAS SALUSTIANO DE SOUZA;1.808,89;AGENTE COM. DE SAUDE (40h);N/A;N/A;Agosto;2018;
MARIA DAS GRACAS SANTOS DE MEDEIROS;2.117,74;PROF. POLIVALENTE ENS. FUNDAMENTAL - I (30Hs);Estatutário;2015;Agosto;2018;
MARIA DAS NEVES BEZERRA DA SILVA;1.539,64;COZINHEIRO (40);N/A;N/A;Agosto;2018;
MARIA DAS NEVES DE BRITO DINIZ;1.413,95;ASG EFETIVOS;N/A;N/A;Agosto;2018;
MARIA DE FATIMA ALVES DE ARAUJO;1.484,65;AUX. DE ENFERMAGEM;Estatutário;2003;Agosto;2018;
MARIA DE FÁTIMA BATISTA;985,71;CUID. DE CRIANÇA COM DEFICIÊNCIA - CONTRATO;CONTRATADO;2018;Agosto;2018;
MARIA DE FATIMA DE ARAUJO;1.327,94;AGENTE DE PORTARIA (40h);Estatutário;2000;Agosto;2018;
MARIA DE FATIMA MOURA DA SILVA;1.787,44;AGENTE COM. DE SAUDE (40h);Estatutário;1996;Agosto;2018;
MARIA DE FATIMA SANTANA DE L ALMEIDA;1.484,65;ASG EFETIVOS;Estatutário;1999;Agosto;2018;
MARIA DE JESUS DOS SANTOS ARAUJO;1.791,74;AUX. DE ENFERMAGEM;Estatutário;1998;Agosto;2018;
MARIA DE LOURDES;2.155,50;AUX. DE ENFERMAGEM;Estatutário;1998;Agosto;2018;
MARIA DE LOURDES DA COSTA;1.303,31;AUX. DE ENFERMAGEM;Estatutário;1986;Agosto;2018;
MARIA DE LOURDES DE MEDEIROS NETA;1.539,64;ASG EFETIVOS;N/A;N/A;Agosto;2018;
MARIA DILMA FERNANDES DE ARAUJO;1.808,89;AGENTE COM. DE SAUDE (40h);N/A;N/A;Agosto;2018;
MARIA DO CARMO DA SILVA;985,71;CUID. DE CRIANÇA COM DEFICIÊNCIA - CONTRATO;CONTRATADO;2018;Agosto;2018;
MARIA DO CARMO PEREIRA DA SILVA;1.679,66;AGENTE COM. DE SAUDE (40h);N/A;N/A;Agosto;2018;
MARIA DO CEU ROQUE;1.539,64;ASG EFETIVOS;N/A;N/A;Agosto;2018;
MARIA DO ROSARIO LOPES;1.655,02;AGENTE ADMINISTRATIVO (40h);Estatutário;1988;Agosto;2018;
MARIA DO ROSARIO LOPES;600,00;VICE DIRETOR (VDE-1);Estatutário;2017;Agosto;2018;
MARIA DO ROSARIO PEREIRA DE MEDEIROS;1.506,84;AGENTE COM. DE SAUDE (40h);Estatutário;2015;Agosto;2018;
MARIA DO SOCORRO DAVID DE SALES;1.361,58;ASG EFETIVOS;Estatutário;2003;Agosto;2018;
MARIA DO SOCORRO DE BRITO DINIZ ;2.486,83;AUX. DE ENFERMAGEM;Estatutário;2000;Agosto;2018;
MARIA DO SOCORRO DE LIMA;985,71;CUID. DE CRIANÇA COM DEFICIÊNCIA - CONTRATO;CONTRATADO;2018;Agosto;2018;
MARIA DO SOCORRO GOMES DE ARAUJO;3.047,00;PROF III-A PFIII-D (30H);Estatutário;1998;Agosto;2018;
MARIA DO SOCORRO NERY DA SILVA;3.047,00;PROF III-A PFIII-D(30H);Estatutário;1998;Agosto;2018;
MARIA DO SOCORRO SOARES TEIXEIRA;3.427,88;SUPERVISOR II-A SPIII-D (30)*;Estatutário;1998;Agosto;2018;
MARIA DULCINEIDE MARTINS PINHEIRO;1.494,00;TECNICO DE ENFERMAGEM (40H);Estatutário;2015;Agosto;2018;
MARIA EDILEUSA ALVES SOARES;2.748,91;TECNICO DE ENFERMAGEM (40H);N/A;N/A;Agosto;2018;
MARIA ELIZABETE ARAUJO DE MEDEIROS;1.947,44;AGENTE COM. DE SAUDE (40h);Estatutário;1996;Agosto;2018;
MARIA ELIZABETH DE LIMA FELICIANO SOARES;1.320,26;AGENTE COM. DE SAUDE (40h);N/A;N/A;Agosto;2018;
MARIA ELIZETE DE ARAUJO;2.839,67;PROF. III-A PFIII-C (30H)*;Estatutário;2000;Agosto;2018;
MARIA ELZA TEIXEIRA ;2.508,46;PROF. II-A PFII-B (30H)*;Estatutário;2000;Agosto;2018;
MARIA FRANCISCA ALEXANDRE DA CRUZ;1.539,64;ASG EFETIVOS;N/A;N/A;Agosto;2018;
MARIA FRANCISCA MOURA DE SOUZA;3.047,00;PROF III-A PFIII-D (30H);Estatutário;1998;Agosto;2018;
MARIA FRANCISCA MOURA DE SOUZA;846,39;PROFESSOR - ADICIONAIS;Estatutário;2017;Agosto;2018;
MARIA GEOVANIA OLIVEIRA DE SOUSA;2.117,74;PROF POLIVAL ENS INFANTIL - II-A (30Hs);Estatutário;2015;Agosto;2018;
MARIA GOMES DE ARAÚJO;4.606,23;PROF. III-A PFIII-C (40H)*;Estatutário;1999;Agosto;2018;
MARIA GORETH DE ARAUJO;1.791,74;AUX. DE ENFERMAGEM;Estatutário;1998;Agosto;2018;
MARIA HELENISE MOREIRA PEREIRA;1.808,89;AGENTE COM. DE SAUDE (40h);Estatutário;2000;Agosto;2018;
MARIA ILZA NERY;3.173,43;PROF. I-A PFI-F (30H)*;N/A;N/A;Agosto;2018;
MARIA IRANICE JALES LOPES;1.413,95;ASG EFETIVOS;N/A;N/A;Agosto;2018;
MARIA IRANICE JALES LOPES;200,00;ASG EFEIVO (ADICIONAIS);Estatutário;2018;Agosto;2018;
MARIA IRANILCE FERREIRA FREIRE;1.264,70;ASG EFETIVOS;Estatutário;1999;Agosto;2018;
MARIA JOILMA DE BRITO;1.558,89;AUX. DE ENFERMAGEM;Estatutário;1999;Agosto;2018;
MARIA JOSE ALEXANDRE;3.009,04;ASG EFETIVOS;Estatutário;1998;Agosto;2018;
MARIA JOSE ARAUJO LOPES DE SA;6.120,00;AGENTE ADMINISTRATIVO (40h);Estatutário;1979;Agosto;2018;
MARIA JOSE DA SILVA DANTAS;1.947,44;AGENTE COM. DE SAUDE (40h);Estatutário;1996;Agosto;2018;
MARIA JOSE DE ARAUJO;2.453,68;AUX. DE ENFERMAGEM;N/A;N/A;Agosto;2018;
MARIA JOSE DUTRA DE ARAUJO;2.085,94;ASG EFETIVOS;Estatutário;1989;Agosto;2018;
MARIA JOSE NERY;2.342,40;PROF. I-A PFI-C (30H)*;Estatutário;1998;Agosto;2018;
MARIA JOSE SOARES DE FREITAS;1.646,50;AUXILIAR DE SAUDE BUCAL (40Hs);Estatutário;2015;Agosto;2018;
MARIA KALIANE COSTA DOS SANTOS;564,73;PROFESSOR - ADICIONAIS;Estatutário;2018;Agosto;2018;
MARIA KALIANE COSTA DOS SANTOS;2.117,74;PROF. POLIVALENTE ENS. FUNDAMENTAL - I (30Hs);Estatutário;2018;Agosto;2018;
MARIA LEIDIANE DE QUEIROZ;2.117,74;PROF. DE CIENCIAS DA NATUREZA - II-A (30Hs);Estatutário;2016;Agosto;2018;
MARIA LIDIANE DE ALMEIDA BATISTA;2.117,74;PROF POLIVAL ENS INFANTIL - II-A (30Hs);Estatutário;2016;Agosto;2018;
MARIA LUCIA DE MOURA;3.047,00;PROF III-A PFIII-D(30H);Estatutário;1998;Agosto;2018;
MARIA LUCIA PEREIRA DE ARAUJO ;1.391,17;TECNICO DE CONTABILIDADE;Estatutário;1999;Agosto;2018;
MARIA LUCIANA DA SILVA;954,00;ASG EFETIVOS;Estatutário;2017;Agosto;2018;
MARIA LUCIETE PEREIRA DA CRUZ;2.963,14;PROF. III-A PFIII-C (30H)*;Estatutário;1998;Agosto;2018;
MARIA LUIZA CLEMENTE DOS SANTOS;1.919,69;ASG EFETIVOS;Estatutário;1998;Agosto;2018;
MARIA LUZINETE DANTAS DE ARAUJO;2.117,74;PROF POLIVAL ENS INFANTIL - II-A (30Hs);Estatutário;2015;Agosto;2018;
MARIA LUZINETE DANTAS DE ARAUJO;917,67;PROFESSOR - ADICIONAIS;Estatutário;2015;Agosto;2018;
MARIA MARGARETH BEZERRA DE OLIVEIRA SOUZ;2.759,31;PROF. III-A PFIII-B (30H);Estatutário;2002;Agosto;2018;
MARIA MARGARETH BEZERRA DE OLIVEIRA SOUZ;799,80;PROFESSOR - ADICIONAIS;Estatutário;2017;Agosto;2018;
MARIA MARGARIDA RIBEIRO DANTAS;1.319,69;ASG EFETIVOS;Estatutário;1998;Agosto;2018;
MARIA NOEMIA DE MOURA BATALHA;2.839,67;PROF. III-A PFIII-C (30H)*;Estatutário;2002;Agosto;2018;
MARIA REDJANE DA SILVA FONSECA;1.539,64;ASG EFETIVOS;N/A;N/A;Agosto;2018;
MARIA REGINA GOMES DE ARAUJO;620,10;ORIENTADOR SOCIAL (40H);CONTRATADO;2018;Agosto;2018;
MARIA RIZONETE DUTRA SILVA;1.484,65;ASG EFETIVOS;Estatutário;1999;Agosto;2018;
MARIA ROSALIA ALVES MEDEIROS SILVA;1.391,17;TECNICO DE CADASTRO;Estatutário;1999;Agosto;2018;
MARIA SALETE RAMALHO DA SILVA;997,50;CUIDADOR DE CRIANÇA (INFANTIL);Estatutário;2015;Agosto;2018;
MARIA SELMA BATISTA DE MEDEIROS AZEVEDO;1.539,64;ASG EFETIVOS;N/A;N/A;Agosto;2018;
MARIA SELMA PINHEIRO DOS SANTOS;1.871,33;TEC.DE ENFERMAGEM;Estatutário;1998;Agosto;2018;
MARIA SUELY CARDOSO DE MEDEIROS;2.937,74;PROF POLIVAL ENS INFANTIL - II-A (30Hs);Estatutário;2015;Agosto;2018;
MARIA SUZANA DE MEDEIROS LOURENCO;1.324,93;TECNICO DE CONTABILIDADE;N/A;N/A;Agosto;2018;
MARIANA CARLA BATISTA DOS SANTOS;3.900,00;ENFERMEIRO;Estatutário;2015;Agosto;2018;
MARICELY DE FATIMA DA SILVA;3.427,88;SUPERVISOR II-A SPIII-D (30)*;Estatutário;1998;Agosto;2018;
MARILDE LOPES BEZERRA;1.264,70;ASG EFETIVOS;Estatutário;1999;Agosto;2018;
MARILENE DA SILVA MEDEIROS;1.264,70;ASG EFETIVOS;Estatutário;1999;Agosto;2018;
MARILU MARIA DOS SANTOS SOUZA;3.047,00;PROF III-A PFIII-D (30H);Estatutário;1998;Agosto;2018;
MARINALVA DE SOUZA CABRAL PAIVA;1.655,02;AGENTE ADMINISTRATIVO (40h);Estatutário;1987;Agosto;2018;
MARINALVA MENEZES DE MEDEIROS;1.916,63;ATENDENTE DE ENFERMAGEM;Estatutário;1998;Agosto;2018;
MARINILVA MAGNA MENEZES DE MEDEIROS;2.500,00;PROCURADOR ESPECIAL;Comissionado;2017;Agosto;2018;
MARISTELA PEREIRA DE ARAUJO;2.117,74;PROF. DE HISTÓRIA/CULTURA - II-A (30Hs);Estatutário;2015;Agosto;2018;
MARKISON JOSE DE LIRA;2.117,74;PROF. POLIVALENTE ENS. FUNDAMENTAL - I (30Hs);Estatutário;2015;Agosto;2018;
MARKISON JOSE DE LIRA;352,95;PROFESSOR - ADICIONAIS;Estatutário;2015;Agosto;2018;
MARLENE SANTINA DE OLIVEIRA;1.413,95;ASG EFETIVOS;N/A;N/A;Agosto;2018;
MARLUCE PEREIRA GALVAO;1.774,80;PROF. III-A PFIII-C (30H)*;Estatutário;2000;Agosto;2018;
MAURO VIEIRA DA SILVA;2.119,50;GARI (40h);Estatutário;1998;Agosto;2018;
MAYALISON KAIO LIMA BRITO;1.335,60;GARI (40h);Estatutário;2017;Agosto;2018;
MEIRINARDY OLIMPIA DE PAIVA BRITO;550,15;PROFESSOR - ADICIONAIS;Estatutário;2013;Agosto;2018;
MEIRINARDY OLIMPIA DE PAIVA BRITO;2.920,05;PROF III-A PFIII-D(30H);Estatutário;2000;Agosto;2018;
MERCIA AMARAL DE MENEZES;2.031,74;AUX. DE ENFERMAGEM;Estatutário;1998;Agosto;2018;
MICHELL ANGELO EUFRAZIO DE MEDEIROS;15.400,00;MEDICO ESF (40H);Estatutário;2016;Agosto;2018;
MIGUEL ANTONIO DA COSTA SILVA;1.264,70;DIGITADOR (40h);Estatutário;2003;Agosto;2018;
MILLA CHIANCA GOMES VARELA;4.050,00;ENFERMEIRO;Estatutário;2015;Agosto;2018;
MIRELLE MEDEIROS ANTUNES;3.700,00;PSICÓLOGO(A) - 40Hs;Estatutário;2015;Agosto;2018;
MONICA GURGEL DE OLIVEIRA;1.504,00;TECNICO DE ENFERMAGEM (40H);Estatutário;2016;Agosto;2018;
MYLENA KAREN DE ARAÚJO FREITAS;985,71;ORIENTADOR SOCIAL (40H);CONTRATADO;2018;Agosto;2018;
NECI ALMEIDA DOS SANTOS;2.253,99;AUX. DE ENFERMAGEM;Estatutário;1998;Agosto;2018;
NEILY FABIANE MOURA DE OLIVEIRA;1.847,57;DATILOGRAFO (40h);N/A;N/A;Agosto;2018;
NEYILSON BEZERRA LOPES;954,00;ORIENTADOR SOCIAL DE ARTES MARCIAIS (40h);CONTRATADO;2018;Agosto;2018;
NILDA ALVES DE MENEZES;1.319,69;ASG EFETIVOS;Estatutário;1998;Agosto;2018;
NILVA ALICE TAVARES DE MEDEIROS SANTOS;4.822,66;PROF. III-A PFIII-D (40H);Estatutário;1998;Agosto;2018;
ORESTES BEZERRA DE ARAUJO;2.054,51;GARI (40h);Estatutário;1999;Agosto;2018;
ORLANDO SOUSA DE ARAUJO;1.521,82;OPERADOR DE RETROESCAVADEIRA (40Hs);Estatutário;2015;Agosto;2018;
OSENIR BATISTA DE ARAUJO;3.237,40;AUX. DE ENFERMAGEM;Estatutário;1999;Agosto;2018;
OTILIA DIAS PEREIRA NETA;3.047,00;PROF III-A PFIII-D (30H);Estatutário;1998;Agosto;2018;
OZINEIDE DIAS DE ARAUJO;1.319,69;ASG EFETIVOS;Estatutário;1998;Agosto;2018;
PALOMA MIRELLI SANTOS DO AMARAL;1.254,00;TECNICO DE ENFERMAGEM (40H);Estatutário;2015;Agosto;2018;
PALOMA OLIVEIRA DA CRUZ;3.400,00;NUTRICIONISTA EF (40Hs);Estatutário;2015;Agosto;2018;
PATRICIA SOUZA DO CARMO SILVA;1.029,21;CUIDADOR DE CRIANÇA (NECESSIDADES ESPECIAIS);Estatutário;2015;Agosto;2018;
PAULA CHRISTINA CAVALCANTE DOS SANTOS;1.144,80;ASG EFETIVOS;Estatutário;2017;Agosto;2018;
PAULINO COSME DA SILVA;1.759,59;GARI (40h);N/A;N/A;Agosto;2018;
PEDRO BATISTA DO NASCIMENTO;954,00;ORIENTADOR SOCIAL DE ARTES MANUAIS;CONTRATADO;2018;Agosto;2018;
PEDRO EPAMINONDAS LOPES NETO;15.400,00;MEDICO ESF (40H);Estatutário;2015;Agosto;2018;
PEDRO HENRIQUE CASSIANO ARAUJO;2.500,00;PSICÓLOGO(A) - 40Hs;Estatutário;2016;Agosto;2018;
PEDRO SERGIO PEREIRA FELIX;1.197,00;MOTORISTA (40h);Estatutário;2015;Agosto;2018;
PLABITO LOPES SOUTO;2.117,74;PROF. DE LINGUA PORTUGUESA - II-A (30Hs);Estatutário;2015;Agosto;2018;
PLABITO LOPES SOUTO;282,36;PROFESSOR - ADICIONAIS;Estatutário;2018;Agosto;2018;
RADIR BATISTA DOS SANTOS;1.655,02;ASG EFETIVOS;Estatutário;1986;Agosto;2018;
RAFAEL ARAUJO DA CUNHA;1.533,40;AGENTE COMUNITARIO DE COMBATE ÀS ENDEMIAS;Estatutário;2015;Agosto;2018;
RAFAEL GOMES DOS SANTOS;2.347,33;FISIOTERAPEUTA  (20H) - EFETIVO;Estatutário;2016;Agosto;2018;
RAFAEL LOPES DE MEDEIROS SILVA;4.400,00;ODONTÓLOGO EF -(40Hs);Estatutário;2016;Agosto;2018;
RAFAELLA CRISTINA DE SOUZA ARAUJO SENA;4.400,00;ENFERMEIRO;Estatutário;2015;Agosto;2018;
RAIMUNDA BALBINO GONZAGA DE SOUZA;1.539,64;ASG EFETIVOS;N/A;N/A;Agosto;2018;
RAIMUNDA BALBINO GONZAGA DE SOUZA;200,00;ASG EFEIVO (ADICIONAIS);Estatutário;2018;Agosto;2018;
RAIMUNDA BATISTA DE MEDEIROS SILVA;3.764,86;PROF. III-A PFIII-E (30H)*;N/A;N/A;Agosto;2018;
RAIMUNDA FLORENCIO DE OLIVEIRA;2.963,14;PROF. III-A PFIII-C (30H)*;N/A;N/A;Agosto;2018;
RAIMUNDO ALVES CAMPELO;2.059,52;GARI (40h);Estatutário;1998;Agosto;2018;
RAIMUNDO GUNDIM NETO LIRA;1.310,33;ASG EFETIVOS;Estatutário;2017;Agosto;2018;
RAIMUNDO PEIXOTO;1.907,05;GARI (40h);Estatutário;1999;Agosto;2018;
RAMON GOMES LEOPOLDO;1.419,60;AGENTE COMUNITARIO DE COMBATE ÀS ENDEMIAS;Estatutário;2015;Agosto;2018;
RAQUEL TEIXEIRA DE ARAUJO COSTA;1.543,88;TECNICO DE ENFERMAGEM (40H);Estatutário;2016;Agosto;2018;
RAUL DAVID SANTOS DE FREITAS;4.900,00;ODONTÓLOGO EF -(40Hs);Estatutário;2015;Agosto;2018;
REGIANE DA SILVA BRITO BARROS;2.500,00;ASSISTENTE SOCIAL EF (30H);Estatutário;2015;Agosto;2018;
REGINA LUCIA DOS SANTOS BATISTAS;1.317,42;TECNICO DE ENFERMAGEM (40H);Estatutário;2015;Agosto;2018;
REGINALDO GALDINO DE ALENCAR;3.297,61;MOTORISTA (40h);N/A;N/A;Agosto;2018;
REINAILMA CASSIA PEREIRA;954,00;ORIENTADOR SOCIAL (40H);CONTRATADO;2018;Agosto;2018;
REINAILZA CARLA PEREIRA DE MEDEIROS;1.029,21;CUIDADOR DE CRIANÇA (INFANTIL);Estatutário;2015;Agosto;2018;
RENATA FONSECA NOLASCO;5.280,00;ENGENHEIRO CIVIL-EF (30Hs);Estatutário;2015;Agosto;2018;
RENATA PERISLANNY SILVA NOBRE ARAUJO DE MEDEIROS;5.200,00;ENFERMEIRO;Estatutário;2017;Agosto;2018;
RENATO DIAS DOS SANTOS;1.794,03;MOTORISTA (40h);Estatutário;2015;Agosto;2018;
RENATO MARQUES;2.117,74;PROF. DE LINGUA PORTUGUESA - II-A (30Hs);Estatutário;2015;Agosto;2018;
RENATO MARQUES;705,91;PROFESSOR - ADICIONAIS;Estatutário;2018;Agosto;2018;
RENILDA BATISTA DE MEDEIROS;1.616,63;ATENDENTE DE ENFERMAGEM;Estatutário;1998;Agosto;2018;
RENILDA MARIA DE ARAUJO;2.072,59;ASG EFETIVOS;Estatutário;1988;Agosto;2018;
RICARDO SERGIO BARBOSA;1.450,48;VIGILANTE;Estatutário;2017;Agosto;2018;
RICARDO TEIXEIRA DE MOURA;954,00;ENTREVISTADOR DO CADASTRO UNICO/PBF;CONTRATADO;2018;Agosto;2018;
RIDALVO PAIVA DE LUCENA;1.029,21;DIGITADOR (40h);Estatutário;2016;Agosto;2018;
RISONEIDE FELIX DA SILVA MATEUS;1.328,12;ASG EFETIVOS;Estatutário;1999;Agosto;2018;
RITA DE CASSIA LOURENÇO DE MEDEIROS;985,71;CUID. DE CRIANÇA COM DEFICIÊNCIA - CONTRATO;CONTRATADO;2018;Agosto;2018;
RITA FERNANDES DOS SANTOS;564,72;PROFESSOR - ADICIONAIS;Estatutário;2018;Agosto;2018;
RITA FERNANDES DOS SANTOS;2.117,74;PROF. POLIVALENTE ENS. FUNDAMENTAL - I (30Hs);Estatutário;2017;Agosto;2018;
RITA JACI DE OLIVEIRA;1.539,64;ASG EFETIVOS;N/A;N/A;Agosto;2018;
RITA QUEIROZ DE AZEVEDO ALVES;1.576,20;ASG EFETIVOS;Estatutário;1988;Agosto;2018;
RITA SHIRLY DE MEDEIROS;3.047,00;PROF III-A PFIII-D(30H);Estatutário;1998;Agosto;2018;
RIVANEIDE DE FATIMA IVO DE ALMEIDA;3.064,80;PROF. I-A PFI-C (30H)*;Estatutário;2002;Agosto;2018;
ROBERLANDIA ARAUJO DA SILVA;2.117,74;PROF POLIVAL ENS INFANTIL - II-A (30Hs);Estatutário;2017;Agosto;2018;
ROBERTA PRISCILA MEDEIROS DE ARAUJO;997,50;CUIDADOR DE CRIANÇA (INFANTIL);Estatutário;2015;Agosto;2018;
ROBERTA VERAS SALDANHA;2.839,67;PROF. III-A PFIII-C (30H)*;Estatutário;2002;Agosto;2018;
ROBERTO OLIVEIRA DE PAIVA;1.327,94;TELEFONISTA (40h);Estatutário;1999;Agosto;2018;
ROBERTO SANDRO DE OLIVEIRA;1.452,11;MOTORISTA (40h);Estatutário;2007;Agosto;2018;
RODRIGO OLIVEIRA DA FONSECA;3.400,00;FONOAUDIOLOGO - 40HS EF;Estatutário;2015;Agosto;2018;
ROGERIO SOARES DE BRITO;1.704,60;GARI (40h);Estatutário;1999;Agosto;2018;
ROMUALDO ARAUJO DE LIRA;2.059,52;ASG EFETIVOS;Estatutário;1998;Agosto;2018;
RONALDO BEZERRA MARIZ;4.272,19;VETERINÁRIO;N/A;N/A;Agosto;2018;
RONNIE VON DE OLIVEIRA;3.047,00;PROF III-A PFIII-D (30H);Estatutário;1998;Agosto;2018;
RONNIE VON DE OLIVEIRA;677,11;PROFESSOR - ADICIONAIS;Estatutário;2018;Agosto;2018;
ROSA CRISTINA SOARES;3.300,93;PROF III-A PFIII-D(30H);N/A;N/A;Agosto;2018;
ROSA MARIA DA SILVA BESERRA;2.084,94;AGENTE COM. DE SAUDE (40h);Estatutário;1996;Agosto;2018;
ROSANGELA DE FATIMA GARCIA S FREITAS;3.169,69;ASSISTENTE SOCIAL EF (30H);Estatutário;2003;Agosto;2018;
ROSANGELA PEREIRA DA SILVA;3.047,00;PROF III-A PFIII-D (30H);Estatutário;1998;Agosto;2018;
ROSEANE OLIVEIRA DOS SANTOS;3.200,00;PSICÓLOGO(A) - 40Hs;Estatutário;2017;Agosto;2018;
ROSEMBERG DE SOUZA BRITO;1.256,84;AGENTE COM. DE SAUDE (40h);Estatutário;2015;Agosto;2018;
ROSICLEIDE SOUZA DO CARMO LIMA;1.539,64;ASG EFETIVOS;N/A;N/A;Agosto;2018;
ROSINALVA ALVES DA COSTA;1.558,89;AUX. DE ENFERMAGEM;Estatutário;1999;Agosto;2018;
ROXANA SILVA;2.329,51;PROF.(AEE) ATEND EDUC ESPECIALIZADO - III-A (30H);Estatutário;2015;Agosto;2018;
RUI LOPES DA SILVA;1.296,41;MOTORISTA (40h);Estatutário;2003;Agosto;2018;
RUVIA LOURENA LOPES SANTOS;1.638,65;AUXILIAR DE SAUDE BUCAL (40Hs);Estatutário;2015;Agosto;2018;
SÂMARA DANIELLY DE MEDEIROS ALVES;4.600,00;ENFERMEIRO;Estatutário;2015;Agosto;2018;
SAMARA ZAYANE LOPES DE MEDEIROS;2.079,64;AUXILIAR ADMINISTRATIVO (40Hs);N/A;N/A;Agosto;2018;
SANDRA AZEVEDO QUEIROZ;2.500,00;NUTRICIONISTA EF (40Hs);Estatutário;2015;Agosto;2018;
SANDRA KALINA ARAÚJO DA COSTA;3.893,38;PROF. III-A PFIII-D (40H);Estatutário;2002;Agosto;2018;
SANDRA MARIA DA SILVA IZIDIO;1.808,89;AGENTE COM. DE SAUDE (40h);N/A;N/A;Agosto;2018;
SANDRA MARIA SOARES PINHEIRO;1.943,69;AGENTE COM. DE SAUDE (40h);Estatutário;2000;Agosto;2018;
SANDRA PEREIRA DA SILVA;2.963,14;PROF. III-A PFIII-C (30H)*;N/A;N/A;Agosto;2018;
SANIELY FREITAS ARAUJO;2.500,00;PROCURADOR ESPECIAL;Comissionado;2017;Agosto;2018;
SANTANA DA SILVA LIMA BEZERRA;1.947,44;AGENTE COM. DE SAUDE (40h);Estatutário;1996;Agosto;2018;
SARA LOPES DE SA;1.664,08;PSICOLOGO (20H);Estatutário;2000;Agosto;2018;
SARON CARDOSO DE BRITO;1.335,60;GARI (40h);Estatutário;2017;Agosto;2018;
SAULO KAYRON MEDEIROS DE ARAUJO;2.117,74;PROF. POLIVALENTE ENS. FUNDAMENTAL - I (30Hs);Estatutário;2015;Agosto;2018;
SEBASTIANA MELO DE AQUINO;1.236,19;ASG EFETIVOS;N/A;N/A;Agosto;2018;
SEBASTIAO BELARMINO PEREIRA FILHO;2.459,64;TECNICO DE ENFERMAGEM (30);Estatutário;1998;Agosto;2018;
SEBASTIAO FELINTO SEGUNDO;3.047,00;PROF III-A PFIII-D (30H);Estatutário;1998;Agosto;2018;
SEBASTIAO VICENTE FERREIRA;2.059,52;GARI (40h);Estatutário;1998;Agosto;2018;
SEFORA KALINE LOURENCO DE MEDEIROS;1.385,68;ATENDENTE DE ENFERMAGEM;Estatutário;1998;Agosto;2018;
SEGILANE DOS SANTOS LIMA;2.117,74;PROF POLIVAL ENS INFANTIL - II-A (30Hs);Estatutário;2016;Agosto;2018;
SELLYANNE CRISTINA DA SILVA DE SOUZA;2.117,74;PROF. POLIVALENTE ENS.  INFANTIL- I (30Hs);Estatutário;2018;Agosto;2018;
SELLYANNE CRISTINA DA SILVA DE SOUZA;395,31;PROFESSOR - ADICIONAIS;Estatutário;2018;Agosto;2018;
SELMA LOPES DE ARAUJO FLAUSINO;1.537,14;ASG EFETIVOS;N/A;N/A;Agosto;2018;
SERGIO GUILHERME FILHO;1.319,69;VIGIA (40h);Estatutário;1998;Agosto;2018;
SERGIVALDO MARQUES DOS SANTOS;1.327,94;AGENTE ADMINISTRATIVO (40h);Estatutário;2000;Agosto;2018;
SIDNEY SOUZA DE MEDEIROS;2.117,74;PROFESSOR DE MATEMATTICA - II-A (30Hs);Estatutário;2015;Agosto;2018;
SILMARA DE MEDEIROS DIAS;1.044,10;ASG EFETIVOS;Estatutário;2017;Agosto;2018;
SILVANIA PEREIRA DE ARAUJO;1.204,48;ASG EFETIVOS;Estatutário;2003;Agosto;2018;
SIMONE GOMES DA SILVA;1.506,84;AGENTE COM. DE SAUDE (40h);Estatutário;2015;Agosto;2018;
SOLANGE FERREIRA DOS SANTOS CLEMENTE;1.327,94;AGENTE ADMINISTRATIVO (40h);Estatutário;1999;Agosto;2018;
SONARA CRISTINA FERREIRA DA SILVA;985,71;CUID. DE CRIANÇA COM DEFICIÊNCIA - CONTRATO;CONTRATADO;2018;Agosto;2018;
SONIA MARIA DA SILVA;2.199,49;ASG EFETIVOS;Estatutário;1998;Agosto;2018;
SONIA MARIA DE MOURA PEREIRA;2.581,52;PROF. II-A PFII-C (30H)*;N/A;N/A;Agosto;2018;
SONIA MARIA DE MOURA PEREIRA;496,37;PROFESSOR - ADICIONAIS;Estatutário;2018;Agosto;2018;
SONIA MARIA PINHEIRO DA CRUZ;823,09;PROFESSOR - ADICIONAIS;Estatutário;2018;Agosto;2018;
SONIA MARIA PINHEIRO DA CRUZ;2.839,67;PROF. III-A PFIII-C (30H)*;Estatutário;1999;Agosto;2018;
STEFANY SUELLY VENCERLAU DE OLIVEIRA;2.117,74;PROF. POLIVALENTE ENS. FUNDAMENTAL - I (30Hs);Estatutário;2018;Agosto;2018;
STEFANY SUELLY VENCERLAU DE OLIVEIRA;1.129,44;PROFESSOR - ADICIONAIS;Estatutário;2018;Agosto;2018;
SUELI VICENTE DOS SANTOS SILVA;1.787,44;AGENTE COM. DE SAUDE (40h);Estatutário;1996;Agosto;2018;
SUZANA MEDEIROS DE ARAUJO SANTOS;1.342,22;TECNICO DE ENFERMAGEM (40H);Estatutário;2016;Agosto;2018;
SUZANA TERCIA DE MEDEIROS;1.209,71;AGENTE ADMINISTRATIVO (40h);Estatutário;2004;Agosto;2018;
TACIANA MARIA FELICIANO DE SOUZA;4.550,00;ODONTÓLOGO EF -(40Hs);Estatutário;2015;Agosto;2018;
TAIZA MEDEIROS DE ARAUJO;2.117,74;PROFESSOR DE MATEMATTICA - II-A (30Hs);Estatutário;2015;Agosto;2018;
TAYANNE SHIRLEY DE MEDEIROS SILVA;375,00;ATENDENTE DE FARMACIA (40Hs);N/A;N/A;Agosto;2018;
TAYANNE SHIRLEY DE MEDEIROS SILVA;1.029,21;ATENDENTE DE FARMACIA (40Hs);N/A;N/A;Agosto;2018;
THASIA THALLYNNY DE CASTRO SILVA;4.884,25;ODONTÓLOGO EF -(40Hs);Estatutário;2016;Agosto;2018;
THENILY MARCELLY ALVES DE ARAUJO;2.117,74;PROF. POLIVALENTE ENS. FUNDAMENTAL - I (30Hs);Estatutário;2015;Agosto;2018;
THIAGO ESPINOLA DE MEDEIROS;2.117,74;PROF. DE LINGUA PORTUGUESA - II-A (30Hs);Estatutário;2015;Agosto;2018;
TULIO CESAR VIEIRA DE ARAUJO;3.900,00;ENFERMEIRO;Estatutário;2015;Agosto;2018;
UALISON BEZERRA COSTA UCHOA;10.116,54;MEDICO  ESF (20H);Estatutário;2015;Agosto;2018;
UBIRAJARA ALVES DOS SANTOS;1.808,89;AGENTE COM. DE SAUDE (40h);N/A;N/A;Agosto;2018;
VALBA PATROCINIO DOS SANTOS;1.385,68;DATILOGRAFO (40h);Estatutário;1998;Agosto;2018;
VALCACIA BATISTA DE SOUZA;752,50;DIGITADOR (40h);Estatutário;2003;Agosto;2018;
VALCACIA MIRELLA MEDEIROS PEREIRA;4.862,27;ENFERMEIRO;Estatutário;2015;Agosto;2018;
VALDENILVA GOMES DOS SANTOS;1.144,80;ASG EFETIVOS;Estatutário;2017;Agosto;2018;
VALDENUZIA DE BRITO RODRIGUES;2.997,74;PROF POLIVAL ENS INFANTIL - II-A (30Hs);Estatutário;2015;Agosto;2018;
VALDERLI BATISTA DE MEDEIROS;1.646,50;AUXILIAR DE SAUDE BUCAL (40Hs);Estatutário;2015;Agosto;2018;
VALDINEZ VIEIRA DA SILVA;1.385,68;DIGITADOR (40h);Estatutário;1998;Agosto;2018;
VALDIR DE MEDEIROS AZEVEDO;15.600,00;PREFEITO;Estatutario em cargo eletivo;2003;Agosto;2018;
VALERIA RABELO CARNEIRO FREITAS;1.736,44;ODONTOLOGO EF (20Hs);Estatutário;1998;Agosto;2018;
VANIA LUCIA BATISTA DE ARAÚJO;3.047,00;PROF III-A PFIII-D (30H);Estatutário;1998;Agosto;2018;
VANILSON PAULO DE MEDEIROS;3.927,10;PROF III-A PFIII-D (30H);N/A;N/A;Agosto;2018;
VANUSA OLIVEIRA DE BRITO ALVES;3.047,00;PROF III-A PFIII-D (30H);Estatutário;1998;Agosto;2018;
VERUSKA LOPES FORTUNATO;4.900,00;ODONTÓLOGO EF -(40Hs);Estatutário;2015;Agosto;2018;
VICTOR HUGO DE OLIVEIRA SANTOS;2.117,74;PROF. DE CIENCIAS DA NATUREZA - II-A (30Hs);Estatutário;2015;Agosto;2018;
VICTOR RICHELLY DE BRITO NASCIMENTO;2.117,74;PROF. DE EDUCAÇÃO FÍSICA - II-A (30Hs);Estatutário;2016;Agosto;2018;
VILANIR GOMES DE MEDEIROS BRITO;3.427,88;SUPERVISOR II-A SPIII-D (30)*;Estatutário;1998;Agosto;2018;
VINICIUS LUCIO GODEIRO;20.533,33;MEDICO ESF (40H);Estatutário;2017;Agosto;2018;
VIRGÍNIA MARIA DE MEDEIROS;1.999,95;AGENTE COMUNITARIO DE COMBATE ÀS ENDEMIAS;Estatutário;2015;Agosto;2018;
VITAL OTAVIO DE OLIVEIRA;1.759,59;GARI (40h);N/A;N/A;Agosto;2018;
VIVANIA ARAÚJO DA SILVA;2.839,67;PROF. III-A PFIII-C (30H)*;Estatutário;2002;Agosto;2018;
VIVANIA ARAÚJO DA SILVA;411,55;PROFESSOR - ADICIONAIS;Estatutário;2017;Agosto;2018;
VIVIANE LOPES PEREIRA RODRIGUES;1.385,68;AGENTE ADMINISTRATIVO (40h);Estatutário;1998;Agosto;2018;
WALLESKA JULIANE COSTA LEITE;2.117,74;PROF. DE CIENCIAS DA NATUREZA - II-A (30Hs);Estatutário;2016;Agosto;2018;
WELLINGTON FRANCISCO DA SILVA;1.228,71;AUXILIAR ADMINISTRATIVO (40Hs);Estatutário;2015;Agosto;2018;
WELMA MARIA DA SILVA;997,50;CUIDADOR DE CRIANÇA (INFANTIL);Estatutário;2015;Agosto;2018;
WENDEL OLIVEIRA FELIPE;1.297,50;AUXILIAR ADMINISTRATIVO (40Hs);Estatutário;2015;Agosto;2018;
WILLAMY DOMINGOS DE OLIVEIRA JOVENTINO;997,50;DIGITADOR (40h);Estatutário;2015;Agosto;2018;
WILSON DOMINGOS ALVES DA SILVA;2.052,02;GARI (40h);Estatutário;1998;Agosto;2018;
WINSTON DE ARAUJO TEIXEIRA;2.500,00;PROCURADOR;Estatutário;2017;Agosto;2018;
ZILDA MARIA DOS SANTOS;2.117,74;COORDENADOR PEDAGÓGICO II-A;Estatutário;2015;Agosto;2018;
ZILMARIA DOS SANTOS BEZERRA;1.150,00;CHEFE DO SETOR DE COMPRAS;Comissionado;2017;Agosto;2018;
