Nome;Salario;Cargo;Vinculo;Ingresso;Mes;Ano
ACACIO SILVA CAMPOS FILHO;11.454,55;MEDICO(CONT INDIVIDUAIS);CONTRATADO (PGF);2017;Agosto;2017;
ADAISA DANTAS DE MEDEIROS;2.740,70;PROF III-A PFIII-D (30H);Estatutário;2002;Agosto;2017;
ADEILVA PEREIRA DA SILVA TRINDADE;937,00;CONSELHEIRO (40h);N/A;N/A;Agosto;2017;
ADELY CRISTINA MARTINS DE ARAUJO;1.738,84;COORDENADOR ADMINISTRATIVO;N/A;N/A;Agosto;2017;
ADENILDA MARIA DE SOUZA;2.660,88;PROF. III-A PFIII-C (30H)*;Estatutário;2002;Agosto;2017;
ADERITO VITAL DE ARAUJO JUNIOR;968,07;CHEFE ADMINISTRATIVO DO ABATEDOURO;Comissionado;2017;Agosto;2017;
ADONILSON DA SILVA;1.804,60;VIGIA (40h);Estatutário;1981;Agosto;2017;
ADRIANA LINHARES COSTA;981,07;ASG EFETIVOS;Estatutário;2017;Agosto;2017;
ADRIANO ALVES DA SILVA;1.326,07;TECNICO DE ENFERMAGEM (40H);Estatutário;2015;Agosto;2017;
ADRIANO MOURA DA SILVA;950,00;GARI (40h);Estatutário;2017;Agosto;2017;
AECIO NOGUEIRA MORAIS ROCHA;3.250,00;SECRETARIO MUNICIPAL;Comissionado;2017;Agosto;2017;
AGEDILVA PEREIRA DA SILVA;2.278,89;AUX. DE ENFERMAGEM;N/A;N/A;Agosto;2017;
AGMAR DAYARA LOPES DE SÁ E SILVA;950,00;ASG EFETIVOS;Estatutário;2017;Agosto;2017;
ALAIDE QUEIROZ DE OLIVEIRA;2.660,88;PROF. III-A PFIII-C (30H)*;Estatutário;1999;Agosto;2017;
ALBA LUCIA DOS SANTOS GOMES ARRUDA;2.660,88;PROF. III-A PFIII-C (30H)*;Estatutário;2000;Agosto;2017;
ALBERTO CLEMENTE DE ARAÚJO;3.000,00;PROCURADOR GERAL;Comissionado;2017;Agosto;2017;
ALBERTO SILVA FELIPE;950,00;ASG EFETIVOS;Estatutário;2017;Agosto;2017;
ALCILENE MARIA DOS SANTOS;1.264,70;ASG EFETIVOS;Estatutário;1999;Agosto;2017;
ALCINA COSTA DA SILVA OLIVEIRA;3.708,27;PROF. III-A PFIII-F (30)*;Estatutário;1986;Agosto;2017;
ALDENIR FERNANDES DE ARAUJO;2.660,88;PROF. III-A PFIII-C (30H)*;Estatutário;2000;Agosto;2017;
ALDENORA BEZERRA DOS SANTOS;1.737,76;TELEFONISTA (40h);Estatutário;1986;Agosto;2017;
ALDERISA MARIA DE SOUZA;1.209,71;ASG EFETIVOS;Estatutário;2003;Agosto;2017;
ALDILENE RODRIGUES DE MENEZES SILVA;1.264,70;ASG EFETIVOS;Estatutário;1999;Agosto;2017;
ALDO FERNANDES DE OLIVEIRA;4.130,91;SUPERVISOR II-A SP-III-D (40H);Estatutário;2000;Agosto;2017;
ALESSANDRA ARAUJO DE MEDEIROS;1.982,72;PROF POLIVAL ENS INFANTIL - II-A (30Hs);Estatutário;2015;Agosto;2017;
ALEX NUNES DA SILVA;1.714,64;MOTORISTA (40h);N/A;N/A;Agosto;2017;
ALEX TEIXEIRA DO AMARAL;937,00;CHEFE DO SETOR DE ENSINO DE LINGUA ESTRANGEIRA;Comissionado;2017;Agosto;2017;
ALEXSANDRA RODRIGUES DOS SANTOS;937,00;CUID. DE CRIANÇA COM DEFICIÊNCIA - CONTRATO;CONTRATADO;2017;Agosto;2017;
ALEXSANDRO FERNANDES DOS SANTOS;1.555,94;MOTORISTA (40h);Estatutário;2015;Agosto;2017;
ALINE CRISTINA MOURA DE MEDEIROS ARAUJO;968,07;CHEFE DO SETOR DE GESTÃO DO TRABALHO;Comissionado;2017;Agosto;2017;
ALINE SAMARA DE OLIVEIRA SILVA;1.130,50;CUIDADOR DE CRIANÇA (INFANTIL);Estatutário;2017;Agosto;2017;
ALISSON MEDEIROS DE OLIVEIRA;950,00;ASG EFETIVOS;Estatutário;2017;Agosto;2017;
ALLANDERSON MATHEUS PAULO E SILVA;1.466,00;DIGITADOR (40h);Estatutário;2016;Agosto;2017;
ALVANY SILVA DE SOUZA;1.400,00;DIRETOR DO DEPARTAMENTO DE TURISMO;Comissionado;2017;Agosto;2017;
AMANDA CORDEIRO DE MEDEIROS;1.982,72;PROF. ENS. FUNDAMENTAL - I (30Hs);Estatutário;2015;Agosto;2017;
AMANDA DELAYNE LOPES PALHARES;997,50;FISCAL DE TRIBUTOS (40h);Estatutário;2016;Agosto;2017;
AMARALINA DA SILVA SANTOS;950,00;ASG EFETIVOS;Estatutário;2017;Agosto;2017;
AMINADABE LIRA RODRIGUES;2.804,15;PROF. ENS. FUNDAMENTAL - I (30Hs);Estatutário;2015;Agosto;2017;
ANA FRANCISCA SANTANA DE LIMA;3.137,90;PROF III-A PFIII-D(30H);N/A;N/A;Agosto;2017;
ANA FRANCISCA SANTANA DE LIMA;238,32;PROFESSOR - ADICIONAIS;Estatutário;2013;Agosto;2017;
ANA KAROLYNE XAVIER BEZERRA;950,00;ASG EFETIVOS;Estatutário;2017;Agosto;2017;
ANA LUCIA ASSIS DE MEDEIROS;1.982,72;PROF. ENS. FUNDAMENTAL - I (30Hs);Estatutário;2015;Agosto;2017;
ANA LUCIA BARBOSA DA SILVA;1.808,89;AGENTE COM. DE SAUDE (40h);N/A;N/A;Agosto;2017;
ANA MARIA BATISTA DE ARAUJO ALVES;2.093,53;PROFESSOR ANOS INICIAIS -CONTRATATO ;N/A;N/A;Agosto;2017;
ANA MARIA LOPES BEZERRA;1.854,89;TECNICO DE CADASTRO;Estatutário;1999;Agosto;2017;
ANA PAULA ALVES MUNIZ;1.982,72;PROF. ENS. FUNDAMENTAL - I (30Hs);Estatutário;2015;Agosto;2017;
ANA PAULA DA SILVA ALBANO;1.012,14;ASG EFETIVOS;Estatutário;2017;Agosto;2017;
ANA PAULA DE MEDEIROS;968,07;ORIENTADOR SOCIAL (40H);CONTRATADO;2017;Agosto;2017;
ANA PAULA DE MOURA;1.428,57;AUXILIAR DE SAUDE BUCAL (40Hs);Estatutário;2015;Agosto;2017;
ANA SANTANA ALEXANDRE VALE;1.464,70;ASG EFETIVOS;Estatutário;1998;Agosto;2017;
ANAILMA MARIA PEREIRA;1.326,84;ASG EFETIVOS;Estatutário;1998;Agosto;2017;
ANAILSON JOSE PEREIRA;1.000,00;PROFESSOR ANOS INICIAIS -CONTRATATO ;CONTRATADO;2017;Agosto;2017;
ANALDETE AUGUSTA DE MORAIS SILVA;1.264,70;ASG EFETIVOS;Estatutário;1998;Agosto;2017;
ANDRE LUIZ FIDELES CAMPOS;997,50;RECEPCIONISTA -EF (40Hs);Estatutário;2016;Agosto;2017;
ANGEANIA PAULA DE LIMA;2.280,13;COORDENADOR PEDAGÓGICO II-A;Estatutário;2015;Agosto;2017;
ANGELA COSTA DE ARAUJO;1.982,72;COORDENADOR PEDAGÓGICO II-A;Estatutário;2017;Agosto;2017;
ANNE CAROLINE MONTEIRO ROQUE;3.900,00;ENFERMEIRO;Estatutário;2015;Agosto;2017;
ANTENOR CASSIANO;1.834,56;GARI (40h);Estatutário;1998;Agosto;2017;
ANTONIA BARBOSA DA SILVA;1.264,70;ASG EFETIVOS;Estatutário;1999;Agosto;2017;
ANTONIA FELIPE DOS SANTOS CRUZ;1.264,70;ASG EFETIVOS;Estatutário;1998;Agosto;2017;
ANTONIA LURDETE MENEZES DA FONSECA;1.264,70;ASG EFETIVOS;Estatutário;1998;Agosto;2017;
ANTONIA OLIVEIRA BEZERRA;6.400,00;MEDICO PLANTONISTA;CONTRATADO;2017;Agosto;2017;
ANTONIA OLIVEIRA BEZERRA;14.000,00;MEDICO;CONTRATADO (PGF);2016;Agosto;2017;
ANTONIA OLIVEIRA DA SILVA FLORENCIO;1.534,65;ASG EFETIVOS;Estatutário;1998;Agosto;2017;
ANTONIO ALVES DA SILVA;1.784,58;GARI (40h);Estatutário;1998;Agosto;2017;
ANTONIO DOMINGOS DA SILVA FILHO;1.909,64;GARI (40h);N/A;N/A;Agosto;2017;
ANTONIO FRANCISCO DA FONSECA;4.370,52;PROF. III-A PFIII-C (40H)*;Estatutário;1999;Agosto;2017;
ANTONIO KLEBER MEDEIROS DANTAS;950,00;ASG EFETIVOS;Estatutário;2017;Agosto;2017;
ANTONIO MARCOS SARAIVA DE LIMA;2.348,53;PROF. II-A PFII-B (30H)*;Estatutário;2002;Agosto;2017;
ANTONIO PINHEIRO DE SOUZA;1.484,65;GARI (40h);Estatutário;1998;Agosto;2017;
ANTONIO RANIERE SANTOS;1.922,90;AGENTE COM. DE SAUDE (40h);Estatutário;2006;Agosto;2017;
ANTONIO ROBERTO LOPES DE MELO;3.250,00;SECRETARIO MUNICIPAL;Comissionado;2017;Agosto;2017;
ANTONIO SEBASTIÃO DA SILVA NETO ;937,00;CHEFE DE SETOR DE PROGRAMAS ESPECIAIS;Comissionado;2017;Agosto;2017;
ANTONIO SEGUNDO CARLOS DE FREITAS;1.607,43;MOTORISTA (40h);Estatutário;2003;Agosto;2017;
ANTONIO VAGNE PINTO MELO;1.186,07;ASG EFETIVOS;Estatutário;2017;Agosto;2017;
ARICIA RODRIGUES DIÓGENES;1.250,00;FARMACÊUTICO-EF (20HS);Estatutário;2015;Agosto;2017;
ARINALDO LOPES DE ARAUJO;1.977,94;FISCAL DE URBANISMO (40h);Estatutário;1999;Agosto;2017;
ARINALVA DA SILVA LIMA;1.327,94;AUX. DE ENFERMAGEM;Estatutário;1998;Agosto;2017;
ARINALVA LOPES DE ARAUJO;1.327,94;AGENTE ADMINISTRATIVO (40h);Estatutário;1998;Agosto;2017;
ARISLANIO KEDSON INACIO DE LIMA;997,50;CUIDADOR DE CRIANÇA (INFANTIL);Estatutário;2017;Agosto;2017;
ARLENE BEZERRA DE ARAUJO;3.098,18;SUPERVISOR II-A SPIII-D (30)*;Estatutário;1998;Agosto;2017;
ARLETE ALICE DA SILVA;1.907,13;ASG EFETIVOS;Estatutário;1998;Agosto;2017;
ARMANDO DANTAS DE CARVALHO NETO;1.654,87;OPERADOR DE MOTO NIVELADORA - EF;Estatutário;2015;Agosto;2017;
ARNILDO FELICIANO DA SILVA;238,32;PROFESSOR - ADICIONAIS;Estatutário;2011;Agosto;2017;
ARNILDO FELICIANO DA SILVA;3.535,10;PROF III-A PFIII-D(30H);Estatutário;1998;Agosto;2017;
ARYAN PETRUS LOPES SOUZA ARAUJO;1.323,96;MOTORISTA (40h);Estatutário;2015;Agosto;2017;
AUKLLEY MEDEIROS CABRAL;2.500,00;PSICÓLOGO(A) - 40Hs;Estatutário;2017;Agosto;2017;
AURENI CANDIDA DA SILVA;2.280,13;COORDENADOR PEDAGÓGICO II-A;Estatutário;2015;Agosto;2017;
BENEDITA MARIA JOSE MELO BARRA;2.313,17;PROF POLIVAL ENS INFANTIL - II-A (30Hs);Estatutário;2015;Agosto;2017;
BENEDITA MARIA JOSE MELO BARRA;198,27;PROFESSOR - ADICIONAIS;Estatutário;2017;Agosto;2017;
BETANIA FRANCISCA DA SILVA;1.697,44;AGENTE COM. DE SAUDE (40h);Estatutário;1996;Agosto;2017;
BRUNO EDSON DA SILVA;1.012,14;VIGILANTE;Estatutário;2017;Agosto;2017;
BRUNO RAFAEL GOIS DE OLIVEIRA;950,00;ASG EFETIVOS;Estatutário;2017;Agosto;2017;
CAINHARA LOPES BEZERRA;3.288,40;PROF. III-A PFIII-C (30H)*;Estatutário;2002;Agosto;2017;
CAMILA CARLA DANTAS SOARES;1.250,00;FISCAL SANITARIO ENFERMEIRO (20H);Estatutário;2017;Agosto;2017;
CARLA DEYSE SILVA;1.045,00;TECNICO DE ENFERMAGEM (40H);Estatutário;2016;Agosto;2017;
CARLA LUCIO ALVES;1.982,72;PSICOPEDAGOGO - EF (30Hs);Estatutário;2015;Agosto;2017;
CARLA NATALI DA SILVA SIMAO;997,50;CUIDADOR DE CRIANÇA (INFANTIL);Estatutário;2015;Agosto;2017;
CARLA SIMONE IVO DE ARAUJO;2.313,17;PROF POLIVAL ENS INFANTIL - II-A (30Hs);Estatutário;2015;Agosto;2017;
CARLA SIMONE IVO DE ARAUJO;198,27;PROFESSOR - ADICIONAIS;Estatutário;2016;Agosto;2017;
CARLOS ALBERTO RODRIGUES;1.687,10;GARI (40h);Estatutário;1998;Agosto;2017;
CARLOS ANTONIO CASSIANO DA SILVA;1.028,57;MOTORISTA (40h);Estatutário;2015;Agosto;2017;
CARLOS HENRIQUE DUARTE UBARANA;2.414,68;MOTORISTA (40h);N/A;N/A;Agosto;2017;
CASSIA VIRGINIA DE SOUZA;937,00;CHEFE DE SETOR DE HABITAÇÃO;Comissionado;2017;Agosto;2017;
CELIA MARTINS BARROS VIANA;2.241,33;PROF. I-A PFI-F (SQ) (30H;Estatutário;1987;Agosto;2017;
CELIA SUELLE DE MELO;1.247,50;AUXILIAR DE SAUDE BUCAL (40Hs);Estatutário;2015;Agosto;2017;
CELINALDO BARBOSA DA SILVA;999,30;CHEFE DO SETOR DE TRANSPORTE ESCOLAR;N/A;N/A;Agosto;2017;
CELIO ALVES DA SILVA;1.400,00;SECRETARIO ADJUNTO;Comissionado;2017;Agosto;2017;
CESARIANA REJANE GOMES ALEXANDRE;1.326,84;ASG EFETIVOS;Estatutário;1999;Agosto;2017;
CICERA FAUSTINA DA COSTA SANTOS;1.000,00;PROFESSOR ANOS INICIAIS -CONTRATATO ;CONTRATADO;2017;Agosto;2017;
CIRILO NOGUEIRA JUNIOR;1.982,72;PROF POLIVAL ENS INFANTIL - II-A (30Hs);Estatutário;2016;Agosto;2017;
CLARISSA RACKEL BATISTA AZEVEDO;3.400,00;ODONTÓLOGO EF -(40Hs);Estatutário;2015;Agosto;2017;
CLAUDIA LUANA DANTAS OLIVEIRA;1.982,72;PROF. ENS. FUNDAMENTAL - I (30Hs);Estatutário;2017;Agosto;2017;
CLAUDIO PINHEIRO GOMES;2.525,89;MOTORISTA (40h);N/A;N/A;Agosto;2017;
CLAUDISSEIA NERI DE MORAIS;1.327,94;AUX. DE ENFERMAGEM;Estatutário;1998;Agosto;2017;
CLEDILSON AUGUSTO DE ARAUJO;1.264,70;ASG EFETIVOS;Estatutário;1998;Agosto;2017;
CLEDINALVA FERNANDES DE SOUZA;3.938,10;PROF. III-A PFIII-C (40H)*;N/A;N/A;Agosto;2017;
CLEDJANE BATISTA DE MEDEIROS;2.500,00;ASSISTENTE SOCIAL EF (30H);Estatutário;2017;Agosto;2017;
CLEIDE BEZERRA DE MOURA SANTOS;2.449,16;PROF. I-A PFI-D (30H)*;Estatutário;1986;Agosto;2017;
CLEIDSON DANTAS BALBINO;1.982,72;PROF. DE EDUCAÇÃO FÍSICA - II-A (30Hs);Estatutário;2015;Agosto;2017;
