Nome;Salario;Cargo;Vinculo;Ingresso;Mes;Ano
ACACIO SILVA CAMPOS FILHO;9.000,00;MEDICO(CONT INDIVIDUAIS);CONTRATADO (PGF);2017;Julho;2017;
ADAISA DANTAS DE MEDEIROS;2.740,70;PROF III-A PFIII-D (30H);Estatutário;2002;Julho;2017;
ADEILVA PEREIRA DA SILVA TRINDADE;937,00;CONSELHEIRO (40h);Eletivo;2017;Julho;2017;
ADELY CRISTINA MARTINS DE ARAUJO;1.877,60;COORD. ADMINISTRATIVO-EF (40Hs);Estatutário;2016;Julho;2017;
ADENILDA MARIA DE SOUZA;2.660,88;PROF. III-A PFIII-C (30H)*;Estatutário;2002;Julho;2017;
ADERITO VITAL DE ARAUJO JUNIOR;968,07;CHEFE ADMINISTRATIVO DO ABATEDOURO;Comissionado;2017;Julho;2017;
ADONILSON DA SILVA;1.804,60;VIGIA (40h);Estatutário;1981;Julho;2017;
ADRIANA LINHARES COSTA;981,07;ASG EFETIVOS;Estatutário;2017;Julho;2017;
ADRIANO ALVES DA SILVA;1.295,00;TECNICO DE ENFERMAGEM (40H);Estatutário;2015;Julho;2017;
ADRIANO MOURA DA SILVA;950,00;GARI (40h);Estatutário;2017;Julho;2017;
AECIO NOGUEIRA MORAIS ROCHA;3.250,00;SECRETARIO MUNICIPAL;Comissionado;2017;Julho;2017;
AGEDILVA PEREIRA DA SILVA;2.375,89;AUX. DE ENFERMAGEM;N/A;N/A;Julho;2017;
AGMAR DAYARA LOPES DE SÁ E SILVA;950,00;ASG EFETIVOS;Estatutário;2017;Julho;2017;
ALAIDE QUEIROZ DE OLIVEIRA;2.660,88;PROF. III-A PFIII-C (30H)*;Estatutário;1999;Julho;2017;
ALBA LUCIA DOS SANTOS GOMES ARRUDA;2.660,88;PROF. III-A PFIII-C (30H)*;Estatutário;2000;Julho;2017;
ALBERTO CLEMENTE DE ARAÚJO;3.000,00;PROCURADOR GERAL;Comissionado;2017;Julho;2017;
ALBERTO SILVA FELIPE;950,00;ASG EFETIVOS;Estatutário;2017;Julho;2017;
ALCILENE MARIA DOS SANTOS;1.264,70;ASG EFETIVOS;Estatutário;1999;Julho;2017;
ALCINA COSTA DA SILVA OLIVEIRA;3.708,27;PROF. III-A PFIII-F (30)*;Estatutário;1986;Julho;2017;
ALDENIR FERNANDES DE ARAUJO;2.660,88;PROF. III-A PFIII-C (30H)*;Estatutário;2000;Julho;2017;
ALDENORA BEZERRA DOS SANTOS;1.737,76;TELEFONISTA (40h);Estatutário;1986;Julho;2017;
ALDERISA MARIA DE SOUZA;1.152,11;ASG EFETIVOS;Estatutário;2003;Julho;2017;
ALDILENE RODRIGUES DE MENEZES SILVA;1.264,70;ASG EFETIVOS;Estatutário;1999;Julho;2017;
ALDO FERNANDES DE OLIVEIRA;4.130,91;SUPERVISOR II-A SP-III-D (40H);Estatutário;2000;Julho;2017;
ALESSANDRA ARAUJO DE MEDEIROS;1.982,72;PROF POLIVAL ENS INFANTIL - II-A (30Hs);Estatutário;2015;Julho;2017;
ALEX NUNES DA SILVA;1.059,64;MOTORISTA (40h);Estatutário;2015;Julho;2017;
ALEX TEIXEIRA DO AMARAL;937,00;CHEFE DO SETOR DE ENSINO DE LINGUA ESTRANGEIRA;Comissionado;2017;Julho;2017;
ALEXSANDRA RODRIGUES DOS SANTOS;1.218,09;CUID. DE CRIANÇA COM DEFICIÊNCIA - CONTRATO;CONTRATADO;2017;Julho;2017;
ALEXSANDRO FERNANDES DOS SANTOS;1.487,93;MOTORISTA (40h);Estatutário;2015;Julho;2017;
ALINE CRISTINA MOURA DE MEDEIROS ARAUJO;968,07;CHEFE DO SETOR DE GESTÃO DO TRABALHO;Comissionado;2017;Julho;2017;
ALISSON MEDEIROS DE OLIVEIRA;950,00;ASG EFETIVOS;Estatutário;2017;Julho;2017;
ALLANDERSON MATHEUS PAULO E SILVA;1.466,00;DIGITADOR (40h);Estatutário;2016;Julho;2017;
ALVANY SILVA DE SOUZA;1.400,00;DIRETOR DO DEPARTAMENTO DE TURISMO;Comissionado;2017;Julho;2017;
AMANDA CORDEIRO DE MEDEIROS;1.982,72;PROF. ENS. FUNDAMENTAL - I (30Hs);Estatutário;2015;Julho;2017;
AMANDA DELAYNE LOPES PALHARES;997,50;FISCAL DE TRIBUTOS (40h);Estatutário;2016;Julho;2017;
AMARALINA DA SILVA SANTOS;950,00;ASG EFETIVOS;Estatutário;2017;Julho;2017;
AMINADABE LIRA RODRIGUES;2.511,44;PROF. ENS. FUNDAMENTAL - I (30Hs);Estatutário;2015;Julho;2017;
ANA CAROLINE DA SILVA;937,00;ENTREVISTADOR DO CADASTRO UNICO/PBF;CONTRATADO;2017;Julho;2017;
ANA FRANCISCA SANTANA DE LIMA;3.376,22;PROF III-A PFIII-D(30H);Estatutário;1999;Julho;2017;
ANA KAROLYNE XAVIER BEZERRA;950,00;ASG EFETIVOS;Estatutário;2017;Julho;2017;
ANA LUCIA ASSIS DE MEDEIROS;1.982,72;PROF. ENS. FUNDAMENTAL - I (30Hs);Estatutário;2015;Julho;2017;
ANA LUCIA BARBOSA DA SILVA;1.808,89;AGENTE COM. DE SAUDE (40h);N/A;N/A;Julho;2017;
ANA MARIA LOPES BEZERRA;1.391,17;TECNICO DE CADASTRO;Estatutário;1999;Julho;2017;
ANA MARIA RODRIGUES DA SILVA MEDEIROS;69,44;PROFESSOR CONTRATADO(SUP 30H);CONTRATADO;2017;Julho;2017;
ANA PAULA ALVES MUNIZ;1.982,72;PROF. ENS. FUNDAMENTAL - I (30Hs);Estatutário;2015;Julho;2017;
ANA PAULA DE MEDEIROS;999,14;ORIENTADOR SOCIAL (40H);CONTRATADO;2017;Julho;2017;
ANA PAULA DE MOURA;1.397,50;AUXILIAR DE SAUDE BUCAL (40Hs);Estatutário;2015;Julho;2017;
ANA SANTANA ALEXANDRE VALE;1.464,70;ASG EFETIVOS;Estatutário;1998;Julho;2017;
ANAILMA MARIA PEREIRA;1.326,84;ASG EFETIVOS;Estatutário;1998;Julho;2017;
ANAILSON JOSE PEREIRA;1.000,00;PROFESSOR ANOS INICIAIS -CONTRATATO ;CONTRATADO;2017;Julho;2017;
ANALDETE AUGUSTA DE MORAIS SILVA;1.264,70;ASG EFETIVOS;Estatutário;1998;Julho;2017;
ANDRE LUIZ FIDELES CAMPOS;997,50;RECEPCIONISTA -EF (40Hs);Estatutário;2016;Julho;2017;
ANGEANIA PAULA DE LIMA;2.280,13;COORDENADOR PEDAGÓGICO II-A;Estatutário;2015;Julho;2017;
ANGELA COSTA DE ARAUJO;1.982,72;COORDENADOR PEDAGÓGICO II-A;Estatutário;2017;Julho;2017;
ANNE CAROLINE MONTEIRO ROQUE;3.900,00;ENFERMEIRO;Estatutário;2015;Julho;2017;
ANTENOR CASSIANO;1.484,65;GARI (40h);Estatutário;1998;Julho;2017;
ANTONIA BARBOSA DA SILVA;1.264,70;ASG EFETIVOS;Estatutário;1999;Julho;2017;
ANTONIA FELIPE DOS SANTOS CRUZ;1.264,70;ASG EFETIVOS;Estatutário;1998;Julho;2017;
ANTONIA LURDETE MENEZES DA FONSECA;1.264,70;ASG EFETIVOS;Estatutário;1998;Julho;2017;
ANTONIA OLIVEIRA BEZERRA;17.200,00;MEDICO;CONTRATADO (PGF);2016;Julho;2017;
ANTONIA OLIVEIRA DA SILVA FLORENCIO;1.484,65;ASG EFETIVOS;Estatutário;1998;Julho;2017;
ANTONIO ALVES DA SILVA;1.747,09;GARI (40h);N/A;N/A;Julho;2017;
ANTONIO DOMINGOS DA SILVA FILHO;2.877,96;GARI (40h);Estatutário;1985;Julho;2017;
ANTONIO FRANCISCO DA FONSECA;3.547,84;PROF. III-A PFIII-C (40H)*;Estatutário;1999;Julho;2017;
ANTONIO KLEBER MEDEIROS DANTAS;950,00;ASG EFETIVOS;Estatutário;2017;Julho;2017;
ANTONIO MARCOS SARAIVA DE LIMA;2.348,53;PROF. II-A PFII-B (30H)*;Estatutário;2002;Julho;2017;
ANTONIO PINHEIRO DE SOUZA;1.484,65;GARI (40h);Estatutário;1998;Julho;2017;
ANTONIO RANIERE SANTOS;1.519,66;AGENTE COM. DE SAUDE (40h);Estatutário;2006;Julho;2017;
ANTONIO ROBERTO LOPES DE MELO;999,14;CONSELHEIRO (40h);Eletivo;2016;Julho;2017;
ANTONIO SEBASTIÃO DA SILVA NETO ;937,00;CHEFE DE SETOR DE PROGRAMAS ESPECIAIS;Comissionado;2017;Julho;2017;
ANTONIO SEGUNDO CARLOS DE FREITAS;1.576,36;MOTORISTA (40h);N/A;N/A;Julho;2017;
ANTONIO VAGNE PINTO MELO;1.550,00;ASG EFETIVOS;Estatutário;2017;Julho;2017;
ARIANA PEREIRA DE ARAUJO;1.530,43;AGENTE ADMINISTRATIVO CONTRATO (40h) ;N/A;N/A;Julho;2017;
ARICIA RODRIGUES DIÓGENES;1.250,00;FARMACÊUTICO-EF (20HS);Estatutário;2015;Julho;2017;
ARINALDO LOPES DE ARAUJO;1.977,94;FISCAL DE URBANISMO (40h);Estatutário;1999;Julho;2017;
ARINALVA DA SILVA LIMA;1.327,94;AUX. DE ENFERMAGEM;Estatutário;1998;Julho;2017;
ARINALVA LOPES DE ARAUJO;1.327,94;AGENTE ADMINISTRATIVO (40h);Estatutário;1998;Julho;2017;
ARISLANIO KEDSON INACIO DE LIMA;997,50;CUIDADOR DE CRIANÇA (INFANTIL);Estatutário;2017;Julho;2017;
ARLENE BEZERRA DE ARAUJO;3.098,18;SUPERVISOR II-A SPIII-D (30)*;Estatutário;1998;Julho;2017;
ARLETE ALICE DA SILVA;1.484,65;ASG EFETIVOS;Estatutário;1998;Julho;2017;
ARMANDO DANTAS DE CARVALHO NETO;1.592,73;OPERADOR DE MOTO NIVELADORA - EF;Estatutário;2015;Julho;2017;
ARNILDO FELICIANO DA SILVA;3.376,22;PROF III-A PFIII-D(30H);Estatutário;1998;Julho;2017;
ARYAN PETRUS LOPES SOUZA ARAUJO;997,50;MOTORISTA (40h);Estatutário;2015;Julho;2017;
AURENI CANDIDA DA SILVA;2.280,13;COORDENADOR PEDAGÓGICO II-A;Estatutário;2015;Julho;2017;
BENEDITA MARIA JOSE MELO BARRA;2.511,44;PROF POLIVAL ENS INFANTIL - II-A (30Hs);Estatutário;2015;Julho;2017;
BETANIA FRANCISCA DA SILVA;1.697,44;AGENTE COM. DE SAUDE (40h);Estatutário;1996;Julho;2017;
BRUNO EDSON DA SILVA;1.072,14;VIGILANTE;Estatutário;2017;Julho;2017;
BRUNO RAFAEL GOIS DE OLIVEIRA;950,00;ASG EFETIVOS;Estatutário;2017;Julho;2017;
CAINHARA LOPES BEZERRA;3.046,51;PROF. III-A PFIII-C (30H)*;Estatutário;2002;Julho;2017;
CAMILA CARLA DANTAS SOARES;1.455,00;FISCAL SANITARIO ENFERMEIRO (20H);Estatutário;2017;Julho;2017;
CARLA DEYSE SILVA;1.393,33;TECNICO DE ENFERMAGEM (40H);Estatutário;2016;Julho;2017;
CARLA LUCIO ALVES;1.982,72;PSICOPEDAGOGO - EF (30Hs);Estatutário;2015;Julho;2017;
CARLA NATALI DA SILVA SIMAO;997,50;CUIDADOR DE CRIANÇA (INFANTIL);Estatutário;2015;Julho;2017;
CARLA SIMONE IVO DE ARAUJO;2.511,44;PROF POLIVAL ENS INFANTIL - II-A (30Hs);Estatutário;2015;Julho;2017;
CARLOS ALBERTO RODRIGUES;1.484,65;GARI (40h);Estatutário;1998;Julho;2017;
CARLOS ANTONIO CASSIANO DA SILVA;1.297,50;MOTORISTA (40h);Estatutário;2015;Julho;2017;
CARLOS HENRIQUE DUARTE UBARANA;2.683,61;MOTORISTA (40h);N/A;N/A;Julho;2017;
CASSIA VIRGINIA DE SOUZA;937,00;CHEFE DE SETOR DE HABITAÇÃO;Comissionado;2017;Julho;2017;
CELIA MARTINS BARROS VIANA;2.241,33;PROF. I-A PFI-F (SQ) (30H;Estatutário;1987;Julho;2017;
CELIA SUELLE DE MELO;1.247,50;AUXILIAR DE SAUDE BUCAL (40Hs);Estatutário;2015;Julho;2017;
CELINALDO BARBOSA DA SILVA;968,07;CHEFE DE SETOR DE PROTOCOLO E ARQUIVO;Comissionado;2017;Julho;2017;
CELIO ALVES DA SILVA;1.400,00;SECRETARIO ADJUNTO;Comissionado;2017;Julho;2017;
CESARIANA REJANE GOMES ALEXANDRE;1.464,70;ASG EFETIVOS;Estatutário;1999;Julho;2017;
CICERA FAUSTINA DA COSTA SANTOS;1.299,99;PROFESSOR ANOS INICIAIS -CONTRATATO ;CONTRATADO;2017;Julho;2017;
CIRILO NOGUEIRA JUNIOR;1.982,72;PROF POLIVAL ENS INFANTIL - II-A (30Hs);Estatutário;2016;Julho;2017;
CLARISSA RACKEL BATISTA AZEVEDO;3.900,00;ODONTÓLOGO EF -(40Hs);Estatutário;2015;Julho;2017;
CLAUDIO PINHEIRO GOMES;3.025,89;MOTORISTA (40h);N/A;N/A;Julho;2017;
CLAUDISSEIA NERI DE MORAIS;1.927,61;AUX. DE ENFERMAGEM;N/A;N/A;Julho;2017;
CLEDILSON AUGUSTO DE ARAUJO;1.352,18;ASG EFETIVOS;Estatutário;1998;Julho;2017;
CLEDINALVA FERNANDES DE SOUZA;3.547,84;PROF. III-A PFIII-C (40H)*;Estatutário;1998;Julho;2017;
CLEDJANE BATISTA DE MEDEIROS;2.500,00;ASSISTENTE SOCIAL EF (30H);Estatutário;2017;Julho;2017;
CLEIDE BEZERRA DE MOURA SANTOS;2.449,16;PROF. I-A PFI-D (30H)*;Estatutário;1986;Julho;2017;
CLEIDSON DANTAS BALBINO;1.982,72;PROF. DE EDUCAÇÃO FÍSICA - II-A (30Hs);Estatutário;2015;Julho;2017;
CLETO EUZEBIO DE ALMEIDA;2.418,99;PROF. II-A PFII-C (30H)*;Estatutário;1999;Julho;2017;
CLEUNICE CRISTINA SILVA ARAUJO;1.982,72;PROF. DE LINGUA PORTUGUESA - II-A (30Hs);Estatutário;2016;Julho;2017;
CLOVILMA MARIA SILVA OLIVEIRA;1.982,72;PROF. ENS. FUNDAMENTAL - I (30Hs);Estatutário;2015;Julho;2017;
CLOVIS MARTINS DA COSTA;1.327,94;FISCAL DE URBANISMO (40h);Estatutário;1999;Julho;2017;
CREDIMARIA MARIA DA FONSECA;2.246,42;PROF. II-A PFII-B (30H)*;Estatutário;2003;Julho;2017;
CYNARA CYBELE DE MEDEIROS GALVÃO LOPES;1.300,00;DIRETOR DO DEPARTAMENTO DE AGRICULTURA E PECUÁRIA;Comissionado;2017;Julho;2017;
CYNTHIANE LOUYSE MENEZES DE ARAUJO;1.600,00;FISIOTERAPEUTA EF - (20hS);Estatutário;2015;Julho;2017;
