Nome;Salario;Cargo;Vinculo;Ingresso;Mes;Ano
ACACIO SILVA CAMPOS FILHO;9.000,00;MEDICO(CONT INDIVIDUAIS);CONTRATADO (PGF);2017;Junho;2018;
ADAISA DANTAS DE MEDEIROS;3.099,39;PROF III-A PFIII-D (30H);N/A;N/A;Junho;2018;
ADEILVA PEREIRA DA SILVA TRINDADE;954,00;CONSELHEIRO (40h);Conselheiro Tutelar;2017;Junho;2018;
ADELY CRISTINA MARTINS DE ARAUJO;1.697,50;COORD. ADMINISTRATIVO-EF (40Hs);N/A;N/A;Junho;2018;
ADENILDA MARIA DE SOUZA;2.949,05;PROF. III-A PFIII-C (30H)*;Estatutário;2002;Junho;2018;
ADERITO VITAL DE ARAUJO JUNIOR;954,00;CHEFE ADMINISTRATIVO DO ABATEDOURO;Comissionado;2017;Junho;2018;
ADONILSON DA SILVA;1.804,60;VIGIA (40h);Estatutário;1981;Junho;2018;
ADRIANA LINHARES COSTA;1.849,70;ASG EFETIVOS;Estatutário;2017;Junho;2018;
ADRIANO ALVES DA SILVA;1.683,31;TECNICO DE ENFERMAGEM (40H);Estatutário;2015;Junho;2018;
ADRIANO MOURA DA SILVA;1.335,60;GARI (40h);Estatutário;2017;Junho;2018;
AECIO NOGUEIRA MORAIS ROCHA;3.250,00;SECRETARIO MUNICIPAL;Comissionado;2017;Junho;2018;
AGEDILVA PEREIRA DA SILVA;2.273,63;AUX. DE ENFERMAGEM;Estatutário;1998;Junho;2018;
AGMAR DAYARA LOPES DE SÁ E SILVA;954,00;ASG EFETIVOS;Estatutário;2017;Junho;2018;
ALAIDE QUEIROZ DE OLIVEIRA;3.018,46;PROF. III-A PFIII-C (30H)*;Estatutário;1999;Junho;2018;
ALBA LUCIA DOS SANTOS GOMES ARRUDA;3.099,39;PROF III-A PFIII-D (30H);N/A;N/A;Junho;2018;
ALBERTO CLEMENTE DE ARAÚJO;3.000,00;PROCURADOR GERAL;Comissionado;2017;Junho;2018;
ALBERTO SILVA FELIPE;1.144,80;ASG EFETIVOS;Estatutário;2017;Junho;2018;
ALCILENE MARIA DOS SANTOS;1.484,65;ASG EFETIVOS;Estatutário;1999;Junho;2018;
ALCINA COSTA DA SILVA OLIVEIRA;972,52;PROF. III-A PFIII-F (30)*;Estatutário;1986;Junho;2018;
ALCINA COSTA DA SILVA OLIVEIRA;0,00;PROFESSOR - ADICIONAIS;N/A;N/A;Junho;2018;
ALDENIR FERNANDES DE ARAUJO;3.099,40;PROF III-A PFIII-D (30H);Estatutário;2000;Junho;2018;
ALDENORA BEZERRA DOS SANTOS;2.005,11;TELEFONISTA (40h);N/A;N/A;Junho;2018;
ALDERISA MARIA DE SOUZA;1.264,70;ASG EFETIVOS;Estatutário;2003;Junho;2018;
ALDILENE RODRIGUES DE MENEZES SILVA;1.264,70;ASG EFETIVOS;Estatutário;1999;Junho;2018;
ALDO FERNANDES DE OLIVEIRA;4.671,51;SUPERVISOR II-A SP-III-D (40H);Estatutário;2000;Junho;2018;
ALESSANDRA ARAUJO DE MEDEIROS;2.252,76;PROF POLIVAL ENS INFANTIL - II-A (30Hs);N/A;N/A;Junho;2018;
ALEX NUNES DA SILVA;1.060,92;MOTORISTA (40h);Estatutário;2015;Junho;2018;
ALEXSANDRO FERNANDES DOS SANTOS;1.555,94;MOTORISTA (40h);Estatutário;2015;Junho;2018;
ALINE CRISTINA MOURA DE MEDEIROS ARAUJO;1.303,71;CHEFE DO SETOR DE GESTÃO DO TRABALHO;Comissionado;2017;Junho;2018;
ALINE SAMARA DE OLIVEIRA SILVA;997,50;CUIDADOR DE CRIANÇA (INFANTIL);Estatutário;2017;Junho;2018;
ALLANDERSON MATHEUS PAULO E SILVA;1.474,50;DIGITADOR (40h);Estatutário;2016;Junho;2018;
ALMAIZA PATRICIA DANTAS DE MEDEIROS;954,00;ENTREVISTADOR DO CADASTRO UNICO/PBF;CONTRATADO;2018;Junho;2018;
ALVANY SILVA DE SOUZA;1.866,67;DIRETOR DO DEPARTAMENTO DE TURISMO;Comissionado;2017;Junho;2018;
AMANDA CORDEIRO DE MEDEIROS;2.252,76;PROF. ENS. FUNDAMENTAL - I (30Hs);N/A;N/A;Junho;2018;
AMANDA DELAYNE LOPES PALHARES;1.904,32;FISCAL DE TRIBUTOS (40h);Estatutário;2016;Junho;2018;
AMARALINA DA SILVA SANTOS;1.526,40;ASG EFETIVOS;Estatutário;2017;Junho;2018;
AMINADABE LIRA RODRIGUES;3.877,76;PROF. ENS. FUNDAMENTAL - I (30Hs);N/A;N/A;Junho;2018;
ANA FRANCISCA SANTANA DE LIMA;3.099,40;PROF III-A PFIII-D(30H);Estatutário;1999;Junho;2018;
ANA FRANCISCA SANTANA DE LIMA;677,10;PROFESSOR - ADICIONAIS;Estatutário;2013;Junho;2018;
ANA KAROLYNE XAVIER BEZERRA;1.272,00;ASG EFETIVOS;Estatutário;2017;Junho;2018;
ANA LUCIA ASSIS DE MEDEIROS;2.252,76;PROF. ENS. FUNDAMENTAL - I (30Hs);N/A;N/A;Junho;2018;
ANA LUCIA BARBOSA DA SILVA;1.808,89;AGENTE COM. DE SAUDE (40h);N/A;N/A;Junho;2018;
ANA MARIA LOPES BEZERRA;1.391,17;TECNICO DE CADASTRO;Estatutário;1999;Junho;2018;
ANA PAULA ALVES MUNIZ;2.252,76;PROF. ENS. FUNDAMENTAL - I (30Hs);N/A;N/A;Junho;2018;
ANA PAULA ALVES MUNIZ;352,95;PROFESSOR - ADICIONAIS;Estatutário;2018;Junho;2018;
ANA PAULA DA SILVA ALBANO;1.208,22;ASG EFETIVOS;Estatutário;2017;Junho;2018;
ANA PAULA DE MEDEIROS;985,71;ORIENTADOR SOCIAL (40H);CONTRATADO;2018;Junho;2018;
ANA PAULA DE MOURA;1.796,50;AUXILIAR DE SAUDE BUCAL (40Hs);Estatutário;2015;Junho;2018;
ANA SANTANA ALEXANDRE VALE;1.739,64;ASG EFETIVOS;N/A;N/A;Junho;2018;
ANAILMA MARIA PEREIRA;1.484,65;ASG EFETIVOS;Estatutário;1998;Junho;2018;
ANALDETE AUGUSTA DE MORAIS SILVA;1.484,65;ASG EFETIVOS;Estatutário;1998;Junho;2018;
ANDRE LUIZ FIDELES CAMPOS;1.197,00;RECEPCIONISTA -EF (40Hs);Estatutário;2016;Junho;2018;
ANGEANIA PAULA DE LIMA;2.590,67;COORDENADOR PEDAGÓGICO II-A;N/A;N/A;Junho;2018;
ANGELA COSTA DE ARAUJO;2.958,67;COORDENADOR PEDAGÓGICO II-A;N/A;N/A;Junho;2018;
ANNE CAROLINE MONTEIRO ROQUE;6.780,00;ENFERMEIRO;Estatutário;2015;Junho;2018;
ANTENOR CASSIANO;2.007,03;GARI (40h);Estatutário;1998;Junho;2018;
ANTONIA BARBOSA DA SILVA;1.484,65;ASG EFETIVOS;Estatutário;1999;Junho;2018;
ANTONIA FELIPE DOS SANTOS CRUZ;1.264,70;ASG EFETIVOS;Estatutário;1998;Junho;2018;
ANTONIA LURDETE MENEZES DA FONSECA;1.539,64;ASG EFETIVOS;N/A;N/A;Junho;2018;
ANTONIA OLIVEIRA BEZERRA;8.000,00;MEDICO PLANTONISTA;CONTRATADO;2017;Junho;2018;
ANTONIA OLIVEIRA BEZERRA;14.000,00;MEDICO;CONTRATADO (PGF);2016;Junho;2018;
ANTONIA OLIVEIRA DA SILVA FLORENCIO;1.539,64;ASG EFETIVOS;N/A;N/A;Junho;2018;
ANTONIO ALVES DA SILVA;1.947,05;GARI (40h);Estatutário;1998;Junho;2018;
ANTONIO DOMINGOS DA SILVA FILHO;2.326,29;GARI (40h);Estatutário;1985;Junho;2018;
ANTONIO FRANCISCO DA FONSECA;4.024,62;PROF. III-A PFIII-C (40H)*;Estatutário;1999;Junho;2018;
ANTONIO FRANCISCO DO NASCIMENTO DE OLIVEIRA JUNIOR;3.375,00;CONTADOR;Estatutário;2017;Junho;2018;
ANTONIO KLEBER MEDEIROS DANTAS;1.272,00;ASG EFETIVOS;Estatutário;2017;Junho;2018;
ANTONIO MARCOS SARAIVA DE LIMA;2.668,39;PROF. II-A PFII-B (30H)*;Estatutário;2002;Junho;2018;
ANTONIO PINHEIRO DE SOUZA;1.759,59;GARI (40h);N/A;N/A;Junho;2018;
ANTONIO RANIERE SANTOS;1.519,66;AGENTE COM. DE SAUDE (40h);Estatutário;2006;Junho;2018;
ANTONIO ROBERTO LOPES DE MELO;3.250,00;SECRETARIO MUNICIPAL;Comissionado;2017;Junho;2018;
ANTONIO SEBASTIÃO DA SILVA NETO ;954,00;CHEFE DE SETOR DE PROGRAMAS ESPECIAIS;Comissionado;2017;Junho;2018;
ANTONIO SEGUNDO CARLOS DE FREITAS;1.564,70;MOTORISTA (40h);Estatutário;2003;Junho;2018;
ARICIA RODRIGUES DIÓGENES;2.687,50;FARMACÊUTICO-EF (20HS);N/A;N/A;Junho;2018;
ARICIA RODRIGUES DIÓGENES;750,00;FARMACÊUTICO-EF (20HS);N/A;N/A;Junho;2018;
ARINALDO LOPES DE ARAUJO;1.977,94;FISCAL DE URBANISMO (40h);Estatutário;1999;Junho;2018;
ARINALVA DA SILVA LIMA;1.558,89;AUX. DE ENFERMAGEM;Estatutário;1998;Junho;2018;
ARINALVA LOPES DE ARAUJO;1.385,68;AGENTE ADMINISTRATIVO (40h);Estatutário;1998;Junho;2018;
ARISLANIO KEDSON INACIO DE LIMA;997,50;CUIDADOR DE CRIANÇA (INFANTIL);Estatutário;2017;Junho;2018;
ARLETE ALICE DA SILVA;1.910,13;ASG EFETIVOS;Estatutário;1998;Junho;2018;
ARMANDO DANTAS DE CARVALHO NETO;1.440,00;OPERADOR DE MOTO NIVELADORA - EF;Estatutário;2015;Junho;2018;
ARNILDO FELICIANO DA SILVA;677,10;PROFESSOR - ADICIONAIS;Estatutário;2011;Junho;2018;
ARNILDO FELICIANO DA SILVA;3.226,34;PROF III-A PFIII-D(30H);Estatutário;1998;Junho;2018;
ARYAN PETRUS LOPES SOUZA ARAUJO;1.197,00;MOTORISTA (40h);Estatutário;2015;Junho;2018;
AUKLLEY MEDEIROS CABRAL;2.500,00;PSICÓLOGO(A) - 40Hs;Estatutário;2017;Junho;2018;
AURENI CANDIDA DA SILVA;2.590,67;COORDENADOR PEDAGÓGICO II-A;N/A;N/A;Junho;2018;
BENEDITA MARIA JOSE MELO BARRA;2.252,76;PROF POLIVAL ENS INFANTIL - II-A (30Hs);N/A;N/A;Junho;2018;
BENEDITA MARIA JOSE MELO BARRA;564,72;PROFESSOR - ADICIONAIS;Estatutário;2017;Junho;2018;
BETANIA FRANCISCA DA SILVA;1.454,95;AGENTE COM. DE SAUDE (40h);Estatutário;1996;Junho;2018;
BRENO MAGELA BEZERRA DA COSTA;1.250,00;FARMACÊUTICO-EF (20HS);Estatutário;2015;Junho;2018;
BRUNO EDSON DA SILVA;1.346,44;VIGILANTE;Estatutário;2017;Junho;2018;
BRUNO RAFAEL GOIS DE OLIVEIRA;1.144,80;ASG EFETIVOS;Estatutário;2017;Junho;2018;
CAINHARA LOPES BEZERRA;411,54;PROFESSOR - ADICIONAIS;Estatutário;2018;Junho;2018;
CAINHARA LOPES BEZERRA;3.018,46;PROF. III-A PFIII-C (30H)*;Estatutário;2002;Junho;2018;
CAMILA CARLA DANTAS SOARES;2.250,00;FISCAL SANITARIO ENFERMEIRO (20H);Estatutário;2017;Junho;2018;
CARLA DEYSE SILVA;1.254,00;TECNICO DE ENFERMAGEM (40H);Estatutário;2016;Junho;2018;
CARLA LUCIO ALVES;2.252,76;PSICOPEDAGOGO - EF (30Hs);N/A;N/A;Junho;2018;
CARLA NATALI DA SILVA SIMAO;997,50;CUIDADOR DE CRIANÇA (INFANTIL);Estatutário;2015;Junho;2018;
CARLA SIMONE IVO DE ARAUJO;564,72;PROFESSOR - ADICIONAIS;Estatutário;2016;Junho;2018;
CARLA SIMONE IVO DE ARAUJO;2.252,76;PROF POLIVAL ENS INFANTIL - II-A (30Hs);N/A;N/A;Junho;2018;
CARLOS ALBERTO RODRIGUES;1.854,56;GARI (40h);Estatutário;1998;Junho;2018;
CARLOS ANTONIO CASSIANO DA SILVA;1.329,21;MOTORISTA (40h);Estatutário;2015;Junho;2018;
CARLOS HENRIQUE DUARTE UBARANA;2.043,82;MOTORISTA (40h);Estatutário;2015;Junho;2018;
CASSIA VIRGINIA DE SOUZA;1.356,80;CHEFE DE SETOR DE HABITAÇÃO;Comissionado;2017;Junho;2018;
CELIA MARTINS BARROS VIANA;3.250,72;PROF. II-A PF II-A (30H)*;N/A;N/A;Junho;2018;
CELIA SUELLE DE MELO;1.646,50;AUXILIAR DE SAUDE BUCAL (40Hs);Estatutário;2015;Junho;2018;
CELINALDO BARBOSA DA SILVA;985,71;CHEFE DO SETOR DE TRANSPORTE ESCOLAR;Comissionado;2017;Junho;2018;
CELIO ALVES DA SILVA;1.866,67;SECRETARIO ADJUNTO;Comissionado;2017;Junho;2018;
CESARIANA REJANE GOMES ALEXANDRE;1.484,65;ASG EFETIVOS;Estatutário;1999;Junho;2018;
CIRILO NOGUEIRA JUNIOR;2.252,76;PROF POLIVAL ENS INFANTIL - II-A (30Hs);N/A;N/A;Junho;2018;
CLARISSA RACKEL BATISTA AZEVEDO;4.900,00;ODONTÓLOGO EF -(40Hs);Estatutário;2015;Junho;2018;
CLAUDIA LUANA DANTAS OLIVEIRA;2.252,76;PROF. ENS. FUNDAMENTAL - I (30Hs);N/A;N/A;Junho;2018;
CLAUDIO PINHEIRO GOMES;2.625,39;MOTORISTA (40h);N/A;N/A;Junho;2018;
CLAUDISSEIA NERI DE MORAIS;2.216,30;AUX. DE ENFERMAGEM;Estatutário;1998;Junho;2018;
CLEDILSON AUGUSTO DE ARAUJO;1.319,69;ASG EFETIVOS;Estatutário;1998;Junho;2018;
CLEDINALVA FERNANDES DE SOUZA;4.786,50;PROF. III-A PFIII-D (40H);N/A;N/A;Junho;2018;
CLEDJANE BATISTA DE MEDEIROS;4.250,00;ASSISTENTE SOCIAL EF (30H);Estatutário;2017;Junho;2018;
CLEIDSON DANTAS BALBINO;2.252,76;PROF. DE EDUCAÇÃO FÍSICA - II-A (30Hs);N/A;N/A;Junho;2018;
CLETO EUZEBIO DE ALMEIDA;2.744,05;PROF. II-A PFII-C (30H)*;Estatutário;1999;Junho;2018;
CLEUNICE CRISTINA SILVA ARAUJO;2.252,76;PROF. DE LINGUA PORTUGUESA - II-A (30Hs);N/A;N/A;Junho;2018;
CLOVILMA MARIA SILVA OLIVEIRA;2.252,76;PROF. ENS. FUNDAMENTAL - I (30Hs);N/A;N/A;Junho;2018;
CLOVIS MARTINS DA COSTA;1.327,94;FISCAL DE URBANISMO (40h);Estatutário;1999;Junho;2018;
CREDIMARIA MARIA DA FONSECA;2.552,38;PROF. II-A PFII-B (30H)*;Estatutário;2003;Junho;2018;
CYNTHIANE LOUYSE MENEZES DE ARAUJO;1.600,00;FISIOTERAPEUTA EF - (20hS);Estatutário;2015;Junho;2018;
DALIANE ARAUJO DA CRUZ;1.144,80;ASG EFETIVOS;Estatutário;2017;Junho;2018;
DALVA MARIA DE MOURA;3.018,46;PROF. III-A PFIII-C (30H)*;Estatutário;2000;Junho;2018;
DALVACI BATISTA DE OLIVEIRA MARQUES;4.132,49;PROF. III-A PFIII-D (40H);Estatutário;1999;Junho;2018;
DALVACI BEZERRA ARAUJO DELGADO;3.252,40;AUX. DE ENFERMAGEM;N/A;N/A;Junho;2018;
DAMIANA DA CONCEIÇÃO DA SILVA;1.313,50;TECNICO DE ENFERMAGEM (30);Estatutário;1998;Junho;2018;
DAMIANA DA CRUZ DOS SANTOS SILVA;1.537,14;ASG EFETIVOS;N/A;N/A;Junho;2018;
DAMIAO DENER BEZERRA DE ARAUJO;1.152,11;GARI (40h);Estatutário;2004;Junho;2018;
DAMIAO FIDELIS DE ARAUJO;1.947,44;AGENTE COM. DE SAUDE (40h);Estatutário;1996;Junho;2018;
DAMIAO JOSE DE ARAUJO;1.523,46;OPERADOR DE TRATOR DE PNEUS;Estatutário;2015;Junho;2018;
DAMIAO MARCIO DA SILVA;1.808,89;AGENTE COM. DE SAUDE (40h);N/A;N/A;Junho;2018;
DANIELE CRISTINE PEREIRA DA SILVA;997,50;CUIDADOR DE CRIANÇA (INFANTIL);Estatutário;2017;Junho;2018;
DANILO BEZERRA ARAÚJO;2.000,00;ASSESSOR TECNICO NIV SUPERIOR;Comissionado;2017;Junho;2018;
DARCSON NOGUEIRA DANTAS FILHO;6.252,27;ENFERMEIRO;Estatutário;2015;Junho;2018;
DAVID FERNANDES BARROS;1.346,44;ASG EFETIVOS;Estatutário;2017;Junho;2018;
DAYANNE KALLYNE MORAIS DE ARAUJO OLIVEIRA;6.280,00;ENFERMEIRO;Estatutário;2016;Junho;2018;
DEBORA LIVIA DE QUEIROZ BANDEIRA;14.000,00;MEDICO;CONTRATADO (PGF);2016;Junho;2018;
DEBORA LIVIA DE QUEIROZ BANDEIRA;7.200,00;MEDICO PLANTONISTA;CONTRATADO;2017;Junho;2018;
DEILZA CARDOSO BATALHA;1.648,89;AGENTE COM. DE SAUDE (40h);Estatutário;2000;Junho;2018;
DENISE MARIA MELO DA SILVA;6.000,00;ASSISTENTE SOCIAL EF (30H);Estatutário;2015;Junho;2018;
DERLAN MOURA DOS SANTOS;2.394,80;MOTORISTA (40h);Estatutário;2015;Junho;2018;
DINA AURELIA DE MORAIS ARAUJO;1.909,64;TELEFONISTA (40h);N/A;N/A;Junho;2018;
DINARTE MARTINS DA FONSECA JUNIOR;1.447,25;AGENTE COMUNITARIO DE COMBATE ÀS ENDEMIAS;Estatutário;2015;Junho;2018;
DINARTE SOBREIRA FORMIGA;1.498,51;MOTORISTA (40h);Estatutário;2016;Junho;2018;
EDILENE ARAUJO MOREIRA;2.252,76;PROF. ENS. FUNDAMENTAL - I (30Hs);N/A;N/A;Junho;2018;
EDILENE ARAUJO MOREIRA;352,95;PROFESSOR - ADICIONAIS;Estatutário;2018;Junho;2018;
EDILEUZA FERREIRA RODRIGUES;1.958,89;AGENTE COM. DE SAUDE (40h);N/A;N/A;Junho;2018;
EDILEUZA RUFINO DE MELO;2.744,05;PROF. II-A PFII-C (30H)*;Estatutário;2000;Junho;2018;
EDILSON PEREIRA DA SILVA;1.241,42;AGENTE ADMINISTRATIVO (40h);Estatutário;2004;Junho;2018;
EDILZA AUTA DE ARAUJO MELO;5.443,94;PROF. III-A PFIII-F (40)*;N/A;N/A;Junho;2018;
EDINALVA BATISTA DA SILVA;1.236,19;ASG EFETIVOS;N/A;N/A;Junho;2018;
EDINALVA DANTAS DE ARAUJO SANTOS;1.128,96;CUIDADOR DE CRIANÇA (INFANTIL);Estatutário;2015;Junho;2018;
EDIVAN FERNANDES DA COSTA;1.972,05;MOTORISTA (40h);Estatutário;2003;Junho;2018;
EDMAR SOARES PINHEIRO;1.484,65;VIG.SANITARIO (40h);Estatutário;1998;Junho;2018;
EDNALDO BEZERRA DA SILVA;3.678,36;PROF. III-A PFIII-F (30)*;Estatutário;1984;Junho;2018;
EDNILSON DOS SANTOS SILVA;1.031,71;ASSESSOR ESPECIAL DE GABINETE;Comissionado;2017;Junho;2018;
EDNILZA FERREIRA DOS SANTOS ALMEIDA;1.335,60;ASG EFETIVOS;Estatutário;1998;Junho;2018;
EDSON DOS SANTOS BRITO;1.144,80;ASG EFETIVOS;Estatutário;2017;Junho;2018;
EIDER LOPES BARBOSA;2.037,76;MOTORISTA (40h);Estatutário;1986;Junho;2018;
ELANE MENDES DE CARVALHO LOPES;3.311,63;PROF. ENS. FUNDAMENTAL - I (30Hs);Estatutário;2017;Junho;2018;
ELIANA MARIA DE FIGUEIREDO;4.301,81;PROF. III-A PFIII-D (40H);Estatutário;1998;Junho;2018;
ELIANA MARIA DE SOUZA;2.252,76;COORDENADOR PEDAGÓGICO II-A;N/A;N/A;Junho;2018;
ELIANE SOARES DE SOUZA;1.197,00;CUIDADOR DE CRIANÇA (INFANTIL);Estatutário;2015;Junho;2018;
ELIETE MARQUES DOS SANTOS FERNANDES;1.553,15;ASG EFETIVOS;Estatutário;1998;Junho;2018;
ELISANGELA PATRICIA NUNES ABRANTES;5.939,72;FISIOTERAPEUTA;N/A;N/A;Junho;2018;
ELITA SAMARA DAVI DA SILVA;1.197,00;CUIDADOR DE CRIANÇA (INFANTIL);Estatutário;2015;Junho;2018;
ELIZABETHE DIAS DE AZEVEDO;1.331,71;CHEFE DO SETOR DE ALMOXARIFADO E DISTRIBUIÇÃO;Comissionado;2017;Junho;2018;
ELIZIMAR BEZERRA DE SOUZA ARRUDA;3.472,59;PROF. II-A PFII-F (30H)*;Estatutário;1982;Junho;2018;
ELMA GABRIELLA BEZERRA DE OLIVEIRA COSTA;1.060,92;ATENDENTE DE FARMACIA (40Hs);Estatutário;2015;Junho;2018;
ELMA GABRIELLA BEZERRA DE OLIVEIRA COSTA;375,00;ATENDENTE DE FARMACIA (40Hs);N/A;N/A;Junho;2018;
ELVIRO FERREIRA NETO;2.252,76;INSPETOR ESCOLAR  II-A (30hs);N/A;N/A;Junho;2018;
EMANUELLA SOARES GALVÃO;1.272,00;CHEFE DO SETOR ADMINISTRATIVO DO ESF/ACS/NASF;Comissionado;2017;Junho;2018;
ENICLEIDE AUGUSTO DE ARAUJO;1.958,89;AGENTE COM. DE SAUDE (40h);N/A;N/A;Junho;2018;
ENOLEIDE FERREIRA DANTAS;2.252,76;PROF. ENS. FUNDAMENTAL - I (30Hs);N/A;N/A;Junho;2018;
ERIDALVA TRINDADE DA SILVA;2.252,76;PROF POLIVAL ENS INFANTIL - II-A (30Hs);N/A;N/A;Junho;2018;
ERIFRAN PAULO DE SOUZA;3.234,14;PROF III-A PFIII-D (30H);N/A;N/A;Junho;2018;
ERINALDA BATISTA SILVA;1.519,66;AGENTE COM. DE SAUDE (40h);Estatutário;2005;Junho;2018;
ERINEIDE BEZERRA DE AQUINO;3.099,40;PROF III-A PFIII-D (30H);Estatutário;2000;Junho;2018;
ERINEIDE BEZERRA DE AQUINO;677,10;PROFESSOR - ADICIONAIS;Estatutário;2017;Junho;2018;
ERINEIDE RAMALHO DA SILVA FELINTO;1.686,27;ASG EFETIVOS;Estatutário;1999;Junho;2018;
ERIVAN ALMEIDA DE BRITO;649,44;PROFESSOR - ADICIONAIS;Estatutário;2011;Junho;2018;
ERIVAN ALMEIDA DE BRITO;3.711,82;PROF. II-A PFII-F (30H)*;N/A;N/A;Junho;2018;
ERIVAN FERNANDES DE FREITAS;1.759,59;GARI (40h);N/A;N/A;Junho;2018;
ERIZE DANTAS DA SILVA;1.751,17;AUXILIAR DE SAUDE BUCAL (40Hs);Estatutário;2015;Junho;2018;
ERNANDES NOGUEIRA DE LUCENA;1.526,40;ASG EFETIVOS;Estatutário;2017;Junho;2018;
ERONILSON JUSTINIANO DA SILVA;1.000,00;ASSESSOR ESPECIAL DE GABINETE;Comissionado;2017;Junho;2018;
ESTELA GARCIA DA SILVA MEDEIROS;4.250,00;PSICÓLOGO(A) - 40Hs;Estatutário;2015;Junho;2018;
EUDFRAN DA SILVA;1.673,66;ASG EFETIVOS;N/A;N/A;Junho;2018;
EUKARINE DO NASCIMENTO DUDA AZEVEDO;2.252,76;PROFESSOR DE MATEMATTICA - II-A (30Hs);N/A;N/A;Junho;2018;
EVA FRANCISCA DA SILVA;985,71;CONSELHEIRO (40h);Conselheiro Tutelar;2016;Junho;2018;
EVA VILMA BATALHA DA SILVA;4.301,77;PROF. III-A PFIII-D (40H);Estatutário;1998;Junho;2018;
EVANDRO MACEDO DOS SANTOS;1.819,58;GARI (40h);Estatutário;1998;Junho;2018;
EXPEDITO SIMAO DA SILVA;1.759,59;GARI (40h);N/A;N/A;Junho;2018;
FABIA MIRANDA SILVA DE ARAUJO;1.227,06;ASG EFETIVOS;Estatutário;2017;Junho;2018;
FABIANA MEDEIROS DA SILVA;954,00;CONSELHEIRO (40h);Conselheiro Tutelar;2017;Junho;2018;
FABIOLA DA COSTA ALVES;954,00;ASG EFETIVOS;Estatutário;2017;Junho;2018;
FABIOLA DA COSTA SILVA;997,50;AUXILIAR ADMINISTRATIVO (40Hs);Estatutário;2015;Junho;2018;
FABRICIA NATALIA DE ARAUJO;985,71;ORIENTADOR SOCIAL (40H);CONTRATADO;2018;Junho;2018;
FABRICIO LEITE DANTAS;1.687,50;FARMACEUTICO 20H;Estatutário;2017;Junho;2018;
FATIMA LIDUINA CARDOSO DE SOUZA;1.686,27;ASG EFETIVOS;Estatutário;1999;Junho;2018;
FERNANDO LUIZ DA SILVA;1.648,89;AGENTE COM. DE SAUDE (40h);Estatutário;2000;Junho;2018;
FLAVIA NETHANIA GURGEL PEREIRA;2.252,76;PROF.(AEE) ATEND EDUC ESPECIALIZADO - II-A (30Hs);N/A;N/A;Junho;2018;
FLAVIO LEYDSON PEREIRA DA SILVA;1.330,00;DIGITADOR (40h);Estatutário;2015;Junho;2018;
FLORIZA DE MACEDO NETA SILVA;2.252,76;COORDENADOR PEDAGÓGICO II-A;N/A;N/A;Junho;2018;
FRANCIELIA GUEDES DA SILVA;1.017,42;CHEFE DE SETOR DE PROTEÇÃO SOCIAL ESPECIAL;Comissionado;2017;Junho;2018;
FRANCILENE PEREIRA DE MELO;3.234,14;PROF III-A PFIII-D (30H);N/A;N/A;Junho;2018;
FRANCINEIDE BARROSO DE ARAUJO;1.958,89;AGENTE COM. DE SAUDE (40h);N/A;N/A;Junho;2018;
FRANCINEIDE GOMES BEZERRA;1.484,65;ASG EFETIVOS;Estatutário;1998;Junho;2018;
FRANCINEIDE PEREIRA DA SILVA;1.684,63;ASG EFETIVOS;Estatutário;1998;Junho;2018;
FRANCINETE BEZERRA DE ARAÚJO;1.264,70;ASG EFETIVOS;Estatutário;2000;Junho;2018;
FRANCINETE MARIA DA SILVA;3.440,33;PROF III-A PFIII-D (30H);N/A;N/A;Junho;2018;
FRANCINETE PEREIRA GUIMARAES RIBEIRO;2.125,78;PARTEIRA;N/A;N/A;Junho;2018;
FRANCINILDO FELICIANO DOS SANTOS;2.119,50;GARI (40h);Estatutário;1998;Junho;2018;
FRANCINILDO SILVESTRE DA SILVA;2.817,62;PROF II-A PFII-D (30;Estatutário;1999;Junho;2018;
FRANCINILDO SILVESTRE DA SILVA;615,55;PROFESSOR - ADICIONAIS;Estatutário;2011;Junho;2018;
FRANCINILSON BATISTA DA SILVA;3.250,00;SECRETARIO MUNICIPAL;Comissionado;2017;Junho;2018;
FRANCISCA ALDENIR DA SILVA ALVES;1.291,85;TECNICO DE ENFERMAGEM (30);Estatutário;1998;Junho;2018;
FRANCISCA ALVES DE ARAUJO;2.253,63;AUX. DE ENFERMAGEM;Estatutário;1998;Junho;2018;
FRANCISCA ALVES DE MOURA;2.252,76;PROF POLIVAL ENS INFANTIL - II-A (30Hs);N/A;N/A;Junho;2018;
FRANCISCA BEZERRA DE MEDEIROS ;1.264,70;ASG EFETIVOS;Estatutário;1998;Junho;2018;
FRANCISCA DAS CHAGAS BATISTA GOMES;954,00;MERENDEIRA(O) - CONTRATOS;CONTRATADO;2018;Junho;2018;
FRANCISCA DAS CHAGAS CARLOS DE FREITAS;1.327,94;DATILOGRAFO (40h);Estatutário;1998;Junho;2018;
FRANCISCA DOS SANTOS SILVA;3.226,34;PROF III-A PFIII-D (30H);Estatutário;1998;Junho;2018;
FRANCISCA FREITAS DA SILVA;1.791,74;AUX. DE ENFERMAGEM;Estatutário;1998;Junho;2018;
FRANCISCA GILVANEIDE HOLANDA DO CARMO;8.042,27;ENFERMEIRO;Estatutário;2015;Junho;2018;
FRANCISCA HELENA DE VASCONCELOS;423,19;PROFESSOR - ADICIONAIS;Comissionado;2013;Junho;2018;
FRANCISCA HELENA DE VASCONCELOS;3.226,35;PROF III-A PFIII-D (30H);Estatutário;1998;Junho;2018;
FRANCISCA MARIA CONSTANTINO DE OLIVEIRA;3.226,34;PROF III-A PFIII-D (30H);Estatutário;1998;Junho;2018;
FRANCISCA MARIA DANTAS;1.569,64;ASG EFETIVOS;N/A;N/A;Junho;2018;
FRANCISCA MARIA DOS SANTOS FIGUEIREDO;4.231,66;PROF. III-A PFIII-F (30)*;N/A;N/A;Junho;2018;
FRANCISCA MARIA DOS SANTOS SILVA;1.268,13;TECNICO DE ENFERMAGEM (30);Estatutário;1999;Junho;2018;
FRANCISCA PEREIRA DAS CHAGAS;985,71;ORIENTADOR SOCIAL (40H);CONTRATADO;2018;Junho;2018;
FRANCISCA ROSANA DANTAS;1.264,70;ASG EFETIVOS;Estatutário;1998;Junho;2018;
FRANCISCA SOUZA LIMA;3.226,34;PROF III-A PFIII-D (30H);Estatutário;1998;Junho;2018;
FRANCISCA TEIXEIRA DA SILVA OLIVEIRA;1.204,48;ASG EFETIVOS;Estatutário;2003;Junho;2018;
FRANCISCO AVELINO DE BRITO;3.019,66;PROF. I-A PFI-F (30H)*;Estatutário;1982;Junho;2018;
FRANCISCO AYRES DA SILVA;1.478,98;ASG EFETIVOS;Estatutário;2017;Junho;2018;
FRANCISCO BALBINO DA C. FILHO;2.039,57;GARI (40h);N/A;N/A;Junho;2018;
FRANCISCO CAMPANHA SILVA DE OLIVEIRA;2.461,51;MOTORISTA (40h);Estatutário;2015;Junho;2018;
FRANCISCO CANINDE DE MEDEIROS SENA;4.250,00;MAESTRO;Estatutário;2016;Junho;2018;
FRANCISCO CANINDE FERREIRA;3.226,34;PROF III-A PFIII-D(30H);Estatutário;1998;Junho;2018;
FRANCISCO CANINDE SOARES;2.333,34;SECRETARIO ADJUNTO;Comissionado;2017;Junho;2018;
FRANCISCO DAS CHAGAS DE SOUZA;1.655,02;ASG EFETIVOS;Estatutário;1986;Junho;2018;
FRANCISCO DAS CHAGAS PEREIRA DA SILVA;2.598,83;GARI (40h);N/A;N/A;Junho;2018;
FRANCISCO DE ASSIS BRITO CARDOSO FILHO;22.365,00;MEDICO ESF (40H);Estatutário;2017;Junho;2018;
FRANCISCO DE ASSIS DA SILVA;2.744,05;PROF. II-A PFII-C (30H)*;Estatutário;1999;Junho;2018;
FRANCISCO DE ASSIS DOS SANTOS;3.670,83;PROF. III-A PFIII-F (30)*;Estatutário;1988;Junho;2018;
FRANCISCO DE ASSIS DOS SANTOS;714,38;PROFESSOR - ADICIONAIS;Estatutário;2017;Junho;2018;
FRANCISCO DE ASSIS JUNIOR;985,71;DIRETOR DEPTO DE MAQUINAS E FROTA;Comissionado;2017;Junho;2018;
FRANCISCO DE ASSIS SILVA;1.947,29;ELETRICISTA (40h);Estatutário;1998;Junho;2018;
FRANCISCO DEGBERTO MEDEIROS DOS SANTOS;1.400,00;SECRETARIO ADJUNTO;Comissionado;2017;Junho;2018;
FRANCISCO DONIZETE DE SOUZA;3.320,31;PROF. IV-A PF IV- C (30)*;Estatutário;1999;Junho;2018;
FRANCISCO GEILSON SILVA DE ARRUDA;2.666,66;DIRETOR DO SETOR DE INFRAESTRUTURA;Comissionado;2017;Junho;2018;
FRANCISCO JEAN DA SILVA MORAIS;1.463,00;TECNICO EM RADIOLOGIA;Estatutário;2015;Junho;2018;
FRANCISCO LOURENCO FILHO;4.225,00;AG.F.TRIBUTOS;Estatutário;1988;Junho;2018;
FRANCISCO MARINHEIRO DE SOUZA FILHO;1.327,94;AGENTE ADMINISTRATIVO (40h);Estatutário;2000;Junho;2018;
FRANCISCO MONTEIRO;2.252,76;PROF. DE CIENCIAS DA NATUREZA - II-A (30Hs);N/A;N/A;Junho;2018;
FRANCISCO RIVONALDO MENEZES FREITAS;1.454,95;DIGITADOR (40h);Estatutário;1996;Junho;2018;
FRANCKTO PEREIRA DA SILVA;997,50;CUIDADOR DE CRIANÇA (NECESSIDADES ESPECIAIS);Estatutário;2015;Junho;2018;
FYLIPPE FERNANDES DE MELO COSTA;3.250,00;SECRETARIO MUNICIPAL;Comissionado;2017;Junho;2018;
GABRIEL FIDELIS ALVES DE ARAUJO;1.272,00;ASG EFETIVOS;Estatutário;2017;Junho;2018;
GABRIELLE MORAIS ARRUDA COSTA;6.780,00;ENFERMEIRO;Estatutário;2015;Junho;2018;
GEISA DA SILVA FELICIANO DE LIMA;1.200,00;ASSESSOR EM PREGOES;Comissionado;2017;Junho;2018;
GEISA MARCIA GOMES DE OLIVEIRA;1.236,19;ASG EFETIVOS;N/A;N/A;Junho;2018;
GENILDA LIMA DOS SANTOS;3.226,34;PROF III-A PFIII-D(30H);Estatutário;1998;Junho;2018;
GENILDO ASSIS DE MEDEIROS;3.226,34;PROF III-A PFIII-D (30H);Estatutário;1998;Junho;2018;
GENILIA LIMA DOS SANTOS;4.189,22;PROF. III-A PFIII-C (40H)*;Estatutário;1998;Junho;2018;
GENILIA LIMA DOS SANTOS;329,23;PROFESSOR - ADICIONAIS;Estatutário;2018;Junho;2018;
GERALDO GUTEMBERG PEREIRA;1.671,88;ELETRICISTA (40h);Estatutário;1998;Junho;2018;
GERALDO PEREIRA DOS SANTOS;1.400,00;SECRETARIO ADJUNTO;Comissionado;2017;Junho;2018;
GERVASIO BEZERRA DE MEDEIROS;1.576,20;ASG EFETIVOS;Estatutário;1987;Junho;2018;
GESSYCA DA SILVA LOPES SOUZA;2.252,76;PROF. ENS. FUNDAMENTAL - I (30Hs);N/A;N/A;Junho;2018;
GESSYCA DA SILVA LOPES SOUZA;564,72;PROFESSOR - ADICIONAIS;Estatutário;2018;Junho;2018;
GILDEONE JERONIMO DE SOUZA;2.252,76;PROF. DE EDUCAÇÃO FÍSICA - II-A (30Hs);N/A;N/A;Junho;2018;
GILDETE BEZERRA DE MEDEIROS TAVARES;1.454,95;AGENTE ADMINISTRATIVO (40h);Estatutário;1996;Junho;2018;
GILSON DE BRITO NERI;2.104,69;MOTORISTA (40h);Estatutário;1999;Junho;2018;
GILVAN FELIPE DA SILVA;1.759,59;GARI (40h);N/A;N/A;Junho;2018;
GIRLANE LOPES DE ARAUJO;1.385,68;DATILOGRAFO (40h);Estatutário;1998;Junho;2018;
GISA CARLA GOMES DE OLIVEIRA MEDEIROS;3.018,46;PROF. III-A PFIII-C (30H)*;Estatutário;2002;Junho;2018;
GISA CARLA GOMES DE OLIVEIRA MEDEIROS;411,54;PROFESSOR - ADICIONAIS;Estatutário;2018;Junho;2018;
GISLAN JUSTINO DE MEDEIROS;1.241,42;MOTORISTA (40h);Estatutário;2006;Junho;2018;
GLADIANA LOPES DUARTE;2.097,44;AGENTE COM. DE SAUDE (40h);Estatutário;1996;Junho;2018;
GLAUCIA FERNANDES DE AZEVEDO;5.100,00;ODONTÓLOGO EF -(40Hs);Estatutário;2015;Junho;2018;
GLECIO ALVES MARIZ;1.526,40;ASG EFETIVOS;Estatutário;2017;Junho;2018;
GLEDSON MICHELL ALBERTO DE ARAUJO;1.460,73;MOTORISTA (40h);Estatutário;2015;Junho;2018;
GLENIO DE AZEVEDO ALVES;2.252,76;PROF. DE HISTÓRIA/CULTURA - II-A (30Hs);N/A;N/A;Junho;2018;
GUSTAVO BATISTA DE ARAUJO;1.330,00;DIGITADOR (40h);Estatutário;2015;Junho;2018;
HÉBIA JANAÍNA NOBRE DE MEDEIROS;1.029,21;AUXILIAR DE SAUDE BUCAL (40Hs);Estatutário;2016;Junho;2018;
HELDER SHAKIELLY DE MEDEIROS;997,50;DIGITADOR (40h);Estatutário;2015;Junho;2018;
HELENA EUZEBIO DE ALMEIDA SANTOS;3.108,96;AUX. DE ENFERMAGEM;N/A;N/A;Junho;2018;
HELENA PINHEIRO DOS SANTOS;1.484,65;ASG EFETIVOS;Estatutário;1999;Junho;2018;
HELIMÁRIO MOREIRA PEREIRA ;3.359,97;SECRETARIO MUNICIPAL;Estatutário;2004;Junho;2018;
HERCULES CAWARINNY DA SILVA SOUZA;1.144,80;ASG EFETIVOS;Estatutário;2017;Junho;2018;
HERMINIO PEREIRA DE LUCENA NETO;2.500,00;CONTROLADOR(A);Comissionado;2017;Junho;2018;
HERVILA GABRIELA TAVARES DE MEDEIROS;3.333,33;ASSISTENTE SOCIAL EF (30H);Estatutário;2015;Junho;2018;
HIAGO VIEIRA GURGEL DE LIMA;2.252,76;PROF. DE HISTÓRIA/CULTURA - II-A (30Hs);N/A;N/A;Junho;2018;
HISSA HAMYLLE MENEZES MOTA;4.329,86;ASSISTENTE SOCIAL EF (30H);Estatutário;2017;Junho;2018;
IALYSON IRINEU COSTA ROCHA;1.800,00;DIRETOR ADM DA UNIDADE HOSPITALAR;Comissionado;2017;Junho;2018;
IAMANY LOPES GARCIA;6.442,27;ENFERMEIRO;Estatutário;2015;Junho;2018;
IARA KALIANE PINHEIRO DOS SANTOS;1.148,86;TECNICO DE ENFERMAGEM (30);N/A;N/A;Junho;2018;
IEDA SILVA DE LIMA;2.590,67;COORDENADOR PEDAGÓGICO II-A;N/A;N/A;Junho;2018;
ILANA CRUZ SILVA;997,50;CUIDADOR DE CRIANÇA (INFANTIL);Estatutário;2015;Junho;2018;
ILANY KELLE GOMES DE ARAUJO;1.400,00;DIRETOR DEPTO DE ATENÇÃO BÁSICA;Comissionado;2017;Junho;2018;
ILZA MARIA DE LIMA FERREIRA;1.327,94;AGENTE ADMINISTRATIVO (40h);Estatutário;1999;Junho;2018;
INÁCIA RIBEIRO MARIZ;2.252,76;INSPETOR ESCOLAR  II-A (30hs);N/A;N/A;Junho;2018;
INACIO ELIZIARIO FERREIRA;1.759,59;GARI (40h);N/A;N/A;Junho;2018;
INGRID INES DE AQUINO SANTOS;1.209,71;AGENTE ADMINISTRATIVO (40h);N/A;N/A;Junho;2018;
IONARA DE SOUZA JANUARIO;6.780,00;ENFERMEIRO;Estatutário;2015;Junho;2018;
IRACEMA CAVALCANTE;1.285,71;TECNICO DE ENFERMAGEM (40H);Estatutário;2015;Junho;2018;
IRANILSA RAIMUNDA DOS SANTOS;3.343,98;PROF. II-A PFII-F (30H)*;Estatutário;1986;Junho;2018;
IRANY DE BRITO LEITE CASSIANO;755,31;PROF. II-A PFII-C (30H)*;Estatutário;2002;Junho;2018;
IRINEIDE ATANAZIO DE ARAÚJO SANTOS;1.296,41;ASG EFETIVOS;Estatutário;1999;Junho;2018;
ISA RAQUEL SOARES DE QUEIROZ;6.280,00;ENFERMEIRO;Estatutário;2016;Junho;2018;
ISABEL LIANA DE MEDEIROS AMARAL;1.346,84;AGENTE COM. DE SAUDE (40h);Estatutário;2015;Junho;2018;
ISMAEL ALMEIDA DA SILVA;1.367,12;MOTORISTA (40h);Estatutário;2015;Junho;2018;
ITAMARA MIRANDA BEZERRA DOS SANTOS;2.252,76;PROF. ENS. FUNDAMENTAL - I (30Hs);N/A;N/A;Junho;2018;
IVANALDO RODRIGUES DE LIRA;1.715,78;GARI (40h);Estatutário;1986;Junho;2018;
IVANETE DA FONSECA DANTAS;2.252,76;INSPETOR ESCOLAR  II-A (30hs);N/A;N/A;Junho;2018;
IVANETE MARIA DE MEDEIROS;2.194,06;ASG EFETIVOS;Estatutário;1988;Junho;2018;
IVANILDO DE MEDEIROS HIGINO;1.305,33;ASG EFETIVOS;Estatutário;2017;Junho;2018;
IVANILTON VICENTE DA SILVA;954,00;MERENDEIRA(O) - CONTRATOS;CONTRATADO;2018;Junho;2018;
IVO GOMES DA SILVA;3.226,34;PROF III-A PFIII-D (30H);Estatutário;1998;Junho;2018;
IVONALDO LOPES DE ARAÚJO;4.301,77;PROF. III-A PFIII-D (40H);Estatutário;1998;Junho;2018;
IVONALDO LOPES DE ARAÚJO;338,55;PROFESSOR - ADICIONAIS;Estatutário;2015;Junho;2018;
IVONALDO PEREIRA LOPES;1.970,59;AGENTE DE PORTARIA (40h);N/A;N/A;Junho;2018;
IVONEIDE LOPES DE ARAUJO E SILVA;3.226,34;PROF III-A PFIII-D (30H);Estatutário;1998;Junho;2018;
IVONILDO LOPES DE ARAUJO;1.808,89;AGENTE COM. DE SAUDE (40h);N/A;N/A;Junho;2018;
IZAURA MARIA BATISTA DE ARAUJO BEZERRA;954,00;CHEFE DO SETOR DE EPIDEMIOLOGIA;Comissionado;2017;Junho;2018;
JACILENE PEREIRA DE ARAUJO;1.197,00;CUIDADOR DE CRIANÇA (INFANTIL);Estatutário;2015;Junho;2018;
JAILMA RODRIGUES DE ARAUJO;1.851,74;AUX. DE ENFERMAGEM;Estatutário;1998;Junho;2018;
JAILSON SERGIO DOS SANTOS;2.041,97;MOTORISTA (40h);Estatutário;2003;Junho;2018;
JAILSON SOUZA DO CARMO;2.933,04;PROF II-A PFII-D (30;Estatutário;1998;Junho;2018;
JAIR CELIO SILVA DE MEDEIROS;1.144,80;ASG EFETIVOS;Estatutário;2017;Junho;2018;
JAIR MEDEIROS DE ARAUJO;1.468,10;ASG EFETIVOS;Estatutário;2017;Junho;2018;
JALMIR FERREIRA DE LIMA;4.301,77;PROF. III-A PFIII-D (40H);Estatutário;1998;Junho;2018;
JAMISON GONZAGA DE SOUZA;1.400,00;SECRETARIO ADJUNTO;Comissionado;2017;Junho;2018;
JANAINA CRISTINA CÍCERO DE BRITO;985,71;CHEFE DO SETOR PEDAG DE ESTAB DE ENS ANOS INICIAIS;Comissionado;2017;Junho;2018;
JANAINA DA SILVA TEIXEIRA;2.590,67;COORDENADOR PEDAGÓGICO II-A;N/A;N/A;Junho;2018;
JANAINA DE LIMA FERREIRA;2.252,76;PROF POLIVAL ENS INFANTIL - II-A (30Hs);N/A;N/A;Junho;2018;
JANAINA RAFIA DE BRITO;2.252,76;PROF. DE CIENCIAS DA NATUREZA - II-A (30Hs);N/A;N/A;Junho;2018;
JANAINA TORRES DE ARAUJO;4.250,00;ADVOGADO;Estatutário;2015;Junho;2018;
JANAT ERIKA FERNANDES DE MEDEIROS;997,50;CUIDADOR DE CRIANÇA (INFANTIL);Estatutário;2015;Junho;2018;
JANE KECIA DE MEDEIROS;2.252,76;PROF POLIVAL ENS INFANTIL - II-A (30Hs);N/A;N/A;Junho;2018;
JANICE DE MEDEIROS FERREIRA;1.176,51;ASG EFETIVOS;Estatutário;2017;Junho;2018;
JANICLEIDE SOUZA DO CARMO;985,71;ORIENTADOR SOCIAL PROG CRIANÇA FELIZ(40H);CONTRATADO;2018;Junho;2018;
JANILSON PAULO FERREIRA DA SILVA;1.300,00;DIRETOR DO DEPARTAMENTO DE ESPORTES;Comissionado;2017;Junho;2018;
JAURI DE FREITAS SANTOS;1.847,57;ELETRICISTA (40h);N/A;N/A;Junho;2018;
JAZRAEL JOSE MORAIS SILVA;1.144,80;ASG EFETIVOS;Estatutário;2017;Junho;2018;
JEAN JOSE DA SILVA;3.250,00;SECRETARIO MUNICIPAL;Comissionado;2017;Junho;2018;
JEANNE ALVES DO AMARAL;1.484,65;ASG EFETIVOS;Estatutário;1998;Junho;2018;
JECKSON PEREIRA DA SILVA MATIAS;1.197,00;MOTORISTA (40h);Estatutário;2015;Junho;2018;
JERLÂNIA FRANCISCA NERES;954,00;CHEFE DE SETOR DE PROTOCOLO E ARQUIVO;Comissionado;2017;Junho;2018;
JESSICA DANTAS XAVIER;3.375,00;NUTRICIONISTA EF (40Hs);Estatutário;2016;Junho;2018;
JESSICA FERNANDA DE MEDEIROS JUSTINIANO;2.252,76;PROF. DE LINGUA PORTUGUESA - II-A (30Hs);N/A;N/A;Junho;2018;
JESSICA VICENTE DE SOUZA;997,50;AGENTE SOCIAL (40H);Estatutário;2015;Junho;2018;
JESSYCA LUANA SANTOS BRITO;3.333,33;PSICÓLOGO(A) - 40Hs;Estatutário;2015;Junho;2018;
JOAILSON LIMA DE ARAUJO;2.119,05;GARI (40h);Estatutário;1987;Junho;2018;
JOALLYSON MORAIS DANTAS;1.639,14;GARI (40h);N/A;N/A;Junho;2018;
JOALSE ALVES DE BRITO;2.252,76;PROF. ENS. FUNDAMENTAL - I (30Hs);N/A;N/A;Junho;2018;
JOANA DARC DE MOURA SILVA;1.328,12;DIGITADOR (40h);Estatutário;2003;Junho;2018;
JOAO ALVES DE ARAÚJO;1.327,94;AGENTE ADMINISTRATIVO (40h);Estatutário;1998;Junho;2018;
JOAO BATISTA DE BRITO;12.000,00;MEDICO PLANTONISTA;N/A;N/A;Junho;2018;
JOAO BATISTA DE SOUZA;600,00;CARGO REQUISITADO;Cedido;2017;Junho;2018;
JOAO BATISTA DUTRA;1.947,44;AGENTE COM. DE SAUDE (40h);Estatutário;1996;Junho;2018;
JOAO BATISTA JUNIOR;1.485,28;MOTORISTA (40h);Estatutário;2017;Junho;2018;
JOAO FELICIANO DO CARMO JUNIOR;1.784,58;PEDREIRO (40h);Estatutário;2000;Junho;2018;
JOAO LOPES DE ARAUJO NETO;1.787,44;AGENTE COM. DE SAUDE (40h);Estatutário;1996;Junho;2018;
JOAO MARIA PEREIRA;1.264,70;AGENTE SERV.ESPORTIVO;Estatutário;2002;Junho;2018;
JOAO PAULO DA SILVA;954,00;CONSELHEIRO (40h);Conselheiro Tutelar;2016;Junho;2018;
JOAO PAULO LUCENA DE MEDEIROS;2.813,63;PROFESSOR DE GEOGRAFIA - II-A (30Hs);N/A;N/A;Junho;2018;
JOAO PAULO SEGUNDO COSTA;1.468,10;ASG EFETIVOS;Estatutário;2017;Junho;2018;
JOAQUIM ALVES DA COSTA NETO;997,50;DIGITADOR (40h);Estatutário;2015;Junho;2018;
JOCIVAN CONSTANTINO PEREIRA;2.143,43;TECNICO DE ENFERMAGEM (30);N/A;N/A;Junho;2018;
JOELMA BATISTA DE ARAUJO;2.575,04;ASG EFETIVOS;Estatutário;1987;Junho;2018;
JOELMA DE FATIMA LOPES DE MEDEIROS;1.385,68;AGENTE ADMINISTRATIVO (20H);Estatutário;1998;Junho;2018;
JOELMA GALDINO DE ALENCAR ALEXANDRE;3.099,40;PROF III-A PFIII-D (30H);Estatutário;1999;Junho;2018;
JOHNY LOPES DE ARAUJO;1.360,92;MOTORISTA (40h);Estatutário;2015;Junho;2018;
JOILMA ANTONIA DA SILVA ESTEVAM;1.264,70;ASG EFETIVOS;Estatutário;1999;Junho;2018;
JOILMA OLIVEIRA DE ARAÚJO;1.539,64;ASG EFETIVOS;N/A;N/A;Junho;2018;
JONATHAN CLEMENTE DE OLIVEIRA E SILVA;1.197,00;AUXILIAR ADMINISTRATIVO (40Hs);Estatutário;2016;Junho;2018;
JONNHY VALE DE FIGUEIREDO;6.625,00;BIOQUIMICO-EF (40Hs);Estatutário;2016;Junho;2018;
JORGE LUIZ GURGEL GUERRA JUNIOR;1.460,73;MOTORISTA (40h);Estatutário;2015;Junho;2018;
JOSE ANTONIO BATISTA DE ARAUJO;1.947,44;AGENTE COM. DE SAUDE (40h);Estatutário;1996;Junho;2018;
JOSE ANTONIO BATISTA DE ARAUJO;2.117,96;MOTORISTA (40h);Estatutário;1987;Junho;2018;
JOSE DE ANCHIETA ARAUJO MEDEIROS;1.264,70;ASG EFETIVOS;Estatutário;1998;Junho;2018;
JOSE DE ANCHIETA BATISTA DOS SANTOS;1.327,94;FISCAL DE TRIBUTOS (40h);Estatutário;1999;Junho;2018;
JOSE DE SOUZA NETO;1.335,60;GARI (40h);Estatutário;2017;Junho;2018;
JOSE DOMINGOS DA SILVA;954,00;MERENDEIRA(O) - CONTRATOS;CONTRATADO;2018;Junho;2018;
JOSE FRANCISCO DA SILVA;1.648,89;AGENTE COM. DE SAUDE (40h);Estatutário;2000;Junho;2018;
JOSE JEFFERSON DE OLIVEIRA FELINTO;1.821,80;GARI (40h);Estatutário;2017;Junho;2018;
JOSE JOANILSON BEZERRA DE ALMEIDA;1.697,44;AGENTE COM. DE SAUDE (40h);Estatutário;1996;Junho;2018;
JOSE JOAQUIM BEZERRA;1.103,35;ASG EFETIVOS;Estatutário;1984;Junho;2018;
JOSE JOAQUIM DOS SANTOS FILHO;1.909,55;GARI (40h);Estatutário;1998;Junho;2018;
JOSÉ JOSEMIR DA TRINDADE SILVA;4.520,70;MOTORISTA (40h);Estatutário;2016;Junho;2018;
JOSE PEDRO DE ARAUJO NETO;7.800,00;VICE-PREFEITO;N/A;N/A;Junho;2018;
JOSE PEREIRA DA SILVA;2.278,91;GARI (40h);N/A;N/A;Junho;2018;
JOSÉ PETRÔNIO DANTAS DE ARAUJO;1.297,50;MOTORISTA (40h);Estatutário;2015;Junho;2018;
JOSE ROMUALDO DA CRUZ;1.264,70;ASG EFETIVOS;Estatutário;1999;Junho;2018;
JOSÉ TAIRONE COSTA DE MEDEIROS;1.419,60;AGENTE COMUNITARIO DE COMBATE ÀS ENDEMIAS;Estatutário;2015;Junho;2018;
JOSE VIANA DE SALES;1.924,55;MOTORISTA (40h);Estatutário;2002;Junho;2018;
JOSE VIANA DE SALES JUNIOR;1.150,00;CHEFE DO SETOR DE COMPRAS;Comissionado;2017;Junho;2018;
JOSE VIEIRA FILHO;2.059,52;GARI (40h);Estatutário;1998;Junho;2018;
JOSEANE MARIA ESTEVAM DA SILVA;1.236,19;ASG EFETIVOS;N/A;N/A;Junho;2018;
JOSEANE SARAIVA DE OLIVEIRA;2.000,00;ASSESSOR TECNICO NIV SUPERIOR;Comissionado;2017;Junho;2018;
JOSEFA BEZERRA DE BRITO ;3.227,67;PROF. I-A PFI-F (30H)*;N/A;N/A;Junho;2018;
JOSEMIR LOPES DE ALMEIDA;1.264,70;ASG EFETIVOS;Estatutário;1998;Junho;2018;
JOSENILDA MARIA DA SILVA;1.327,94;AGENTE ADMINISTRATIVO (40h);Estatutário;1998;Junho;2018;
JOSILANE MARINHO QUEIROZ;1.616,63;AGENTE COM. DE SAUDE (40h);Estatutário;1997;Junho;2018;
JOSILENE MOURA DOS SANTOS;1.484,65;ASG EFETIVOS;Estatutário;1998;Junho;2018;
JOSILMA OLIVEIRA DA SILVA MOURA;2.817,62;PROF II-A PFII-D (30;Estatutário;1999;Junho;2018;
JOSIMAR MARQUES DE OLIVEIRA;1.734,65;AGENTE COM. DE SAUDE (40h);Estatutário;2002;Junho;2018;
JOSIMARIA SILVA DE ARAÚJO;3.226,34;PROF III-A PFIII-D(30H);Estatutário;1998;Junho;2018;
JOSINEIDE SOARES DO NASCIMENTO;1.152,11;ASG EFETIVOS;Estatutário;2004;Junho;2018;
JOSUE JOAO ALEXANDRE DA SILVA;985,71;CONSELHEIRO (40h);Conselheiro Tutelar;2016;Junho;2018;
JOSUE LUCIO DE ARAUJO;2.001,22;GARI (40h);Estatutário;1998;Junho;2018;
JOYCE ELIDA DANTAS DOS SANTOS;1.253,75;ASG EFETIVOS;Estatutário;2017;Junho;2018;
JOYCE RAYMIZAM GOMES DOS SANTOS;997,50;RECEPCIONISTA -EF (40Hs);Estatutário;2015;Junho;2018;
JOZEILMA MATEUS DA SILVA;1.484,65;ASG EFETIVOS;Estatutário;1999;Junho;2018;
JUCIARA DA SILVA TEIXEIRA;2.590,67;COORDENADOR PEDAGÓGICO II-A;N/A;N/A;Junho;2018;
JUCILENE MARIA DE ARAUJO TRIUNFO;3.226,35;PROF III-A PFIII-D (30H);Estatutário;1998;Junho;2018;
JUCIMAR PEREIRA DANTAS;3.250,00;SECRETARIO MUNICIPAL;Comissionado;2017;Junho;2018;
JULIANA GOMES CORTES;1.504,00;TECNICO DE ENFERMAGEM (40H);Estatutário;2015;Junho;2018;
JULIANNE GABRIELLE TAVARES DE MEDEIROS;954,00;ASG EFETIVOS;Estatutário;2017;Junho;2018;
JULIETA BATISTA DE ALMEIDA;1.539,64;ASG EFETIVOS;N/A;N/A;Junho;2018;
JULYANA COSTA CABRAL;2.465,00;FISIOTERAPEUTA EF - (20hS);Estatutário;2015;Junho;2018;
JURCELIA PEREIRA DANTAS;1.319,69;ASG EFETIVOS;Estatutário;1998;Junho;2018;
KATIA CILENE DA SILVA BARBOSA;3.226,35;PROF III-A PFIII-D (30H);Estatutário;1998;Junho;2018;
KATIA CILENE DA SILVA BARBOSA;423,19;PROFESSOR - ADICIONAIS;Estatutário;2017;Junho;2018;
KATIENY MIRRAELLY DE PONTES DOS SANTOS;1.600,00;DIRETOR DEPTO DE ATENÇÃO HOSPITALAR E URGENCIA;Comissionado;2017;Junho;2018;
KEDILVA ARAÚJO DE MEDEIROS CABRAL;5.432,81;PROF. III-A PFIII-F (40)*;N/A;N/A;Junho;2018;
KENNIA KELLY DE BRITO ARAUJO;954,00;ORIENTADOR SOCIAL (40H);CONTRATADO;2018;Junho;2018;
KEYWERTON DE VASCONCELOS BRITO;1.460,73;MOTORISTA (40h);Estatutário;2015;Junho;2018;
LAIR FERNANDES DA SILVA;2.742,59;MOTORISTA (40h);Estatutário;1984;Junho;2018;
LAIS REGINA DA COSTA PEREIRA;6.780,00;ODONTÓLOGO EF -(40Hs);Estatutário;2015;Junho;2018;
LAUDECI OLIVEIRA DOS SANTOS;1.940,74;AUX. DE ENFERMAGEM;Estatutário;1998;Junho;2018;
LAUDINEIDE CONSTANTINO DE ARAUJO;3.589,90;PROF III-A PFIII-D (30H);N/A;N/A;Junho;2018;
LAVOISIER PEREIRA COSTA;1.328,12;DIGITADOR (40h);Estatutário;2003;Junho;2018;
LAYANNE DE MEDEIROS COSTA ALMEIDA;2.252,76;PROF. ENS. FUNDAMENTAL - I (30Hs);N/A;N/A;Junho;2018;
LAZARO DAMIAO DA SILVA;1.183,82;ASG EFETIVOS;Estatutário;2004;Junho;2018;
LAZARO TAVARES DE FARIAS;954,00;ASG EFETIVOS;Estatutário;2017;Junho;2018;
LEANDRO MORAIS GIFFONE OVIDIO;6.780,00;ODONTÓLOGO EF -(40Hs);Estatutário;2015;Junho;2018;
LEILANIA RODRIGUES DE SOUZA;1.303,71;ASG EFETIVOS;Estatutário;2017;Junho;2018;
LENI CAMPANHA DA SILVA;1.558,89;AUX. DE ENFERMAGEM;Estatutário;1999;Junho;2018;
LENI SOARES DE BRITO;5.234,57;PROF. III-A PFIII-F (40)*;N/A;N/A;Junho;2018;
LENIRA FIRMINO DE SOUZA ARAÚJO;3.826,35;PROF III-A PFIII-D (30H);N/A;N/A;Junho;2018;
LENIVANIA MARIA OLEGARIO DE OLIVEIRA;3.099,40;PROF III-A PFIII-D (30H);Estatutário;1999;Junho;2018;
LEONILDES DA SILVA COSTA;3.072,76;COORDENADOR PEDAGÓGICO II-A;N/A;N/A;Junho;2018;
LEYDSON LOPES BEZERRA;954,00;VIGILANTE;Estatutário;2017;Junho;2018;
LIDIA RODRIGUES COSTA;1.869,75;TECNICO DE ENFERMAGEM (40H);Estatutário;2015;Junho;2018;
LIDIANE CRISTINA DE ARAUJO;1.400,00;SECRETARIO ADJUNTO;Comissionado;2017;Junho;2018;
LINDALVA SILVESTRE DE VASCONCELOS;2.817,62;PROF II-A PFII-D (30;Estatutário;1998;Junho;2018;
LINDEMBERG CLEMENTE BARBOSA;2.112,20;COVEIRO (40h);Estatutário;2002;Junho;2018;
LINDOELSON CLEMENTINO DE MORAIS;1.029,21;MOTORISTA (40h);Estatutário;2015;Junho;2018;
LINDOMAR SILVESTRE DE VASCONCELOS;2.478,52;AGENTE COM. DE SAUDE (40h);Estatutário;2000;Junho;2018;
LIZANDRA MARIA DE ARAUJO;1.254,00;TECNICO DE ENFERMAGEM (40H);Estatutário;2015;Junho;2018;
LIZANDRA MEDEIROS DOS SANTOS;2.252,76;PROF. DE LINGUA PORTUGUESA - II-A (30Hs);Estatutário;2015;Junho;2018;
LUCAS FELIPE FERNANDES BARROS ;954,00;ASG EFETIVOS;Estatutário;2017;Junho;2018;
LUCIA DE FATIMA DA SILVA BARBOSA;1.789,84;AGENTE COM. DE SAUDE (40h);N/A;N/A;Junho;2018;
LUCIA ELIZABETH BEZERRA SOARES;2.117,74;PROF. I-A PFI-A (30H) (10EF);Estatutário;2000;Junho;2018;
LUCIA MARGARETE EETEVAM DE ARAÚJO;1.264,70;ASG EFETIVOS;Estatutário;1998;Junho;2018;
LUCIANA MEDEIROS DE OLIVEIRA;2.252,76;PROF. ENS. FUNDAMENTAL - I (30Hs);N/A;N/A;Junho;2018;
LUCICLEIDE DAS CHAGAS PEREIRA;1.558,89;AGENTE COM. DE SAUDE (40h);Estatutário;2000;Junho;2018;
LUCICLELIA TOMAZ DE AQUINO;2.196,08;PROF.ENS. FUNDAMENTAL NIVEL- I (30Hs);Cedido;2017;Junho;2018;
LUCIDESTO RODRIGUES DA CRUZ;1.834,56;PEDREIRO (40h);Estatutário;2000;Junho;2018;
LUCIENE RUFINO DA SILVA;1.413,95;ASG EFETIVOS;N/A;N/A;Junho;2018;
LUCIMEIRE RODRIGUES DA SILVA;1.441,50;AUXILIAR DE SAUDE BUCAL (40Hs);Estatutário;2015;Junho;2018;
LUCINETE VALENTIM DE MEDEIROS ARAUJO;3.018,46;PROF. III-A PFIII-C (30H)*;Estatutário;2000;Junho;2018;
LUCIVANIA MARIA DE OLIVEIRA;2.364,57;AUX. DE ENFERMAGEM;N/A;N/A;Junho;2018;
LUIZ BALBINO ARAUJO FILHO;1.047,38;ASG EFETIVOS;Estatutário;2009;Junho;2018;
LUIZ GONZAGA DA CRUZ;2.498,64;MOTORISTA (40h);N/A;N/A;Junho;2018;
LUIZA CARLA DA COSTA;1.272,00;ASG EFETIVOS;Estatutário;2017;Junho;2018;
LUSIENE GALDINO DE MENESES;985,71;CHEFE DO SETOR DE VILANCIA EM SAUDE;Comissionado;2017;Junho;2018;
LUZIA MARIA ALVES DE ARAUJO;2.252,76;INSPETOR ESCOLAR  II-A (30hs);N/A;N/A;Junho;2018;
LUZIA PAULINA DOS SANTOS BRITO;1.413,95;ASG EFETIVOS;N/A;N/A;Junho;2018;
LUZIA RAQUEL DA COSTA SILVA;2.252,76;PROF POLIVAL ENS INFANTIL - II-A (30Hs);N/A;N/A;Junho;2018;
LUZIA RAQUEL DA COSTA SILVA;352,95;PROFESSOR - ADICIONAIS;Estatutário;2018;Junho;2018;
LUZINETE FIRMINO DE SOUZA;1.215,53;ASG EFETIVOS;Estatutário;2003;Junho;2018;
MACIÉLIO ALVES DE MEDEIROS;1.440,00;OPERADOR DE MOTO NIVELADORA - EF;Estatutário;2015;Junho;2018;
MACILON BEZERRA DE ARAÚJO NETO;5.416,66;SECRETARIO MUNICIPAL;Comissionado;2017;Junho;2018;
MADSON CESAR DOS SANTOS SILVA;1.335,42;CHEFE DO SETOR DE INFORMATICA;Comissionado;2017;Junho;2018;
MADSON SHERMAN CARLOS ARAUJO;1.334,76;VIGILANTE;Estatutário;2017;Junho;2018;
MAGALLY DE ARAUJO VIEIRA DE MELO;4.250,00;ASSISTENTE SOCIAL EF (30H);Estatutário;2015;Junho;2018;
MAGLEIDSON DA SILVA SOUZA;1.144,80;ASG EFETIVOS;Estatutário;2017;Junho;2018;
MAGNA MANUELA DANTAS FERNANDES;2.252,76;PROF.(AEE) ATEND EDUC ESPECIALIZADO - II-A (30Hs);N/A;N/A;Junho;2018;
MAGUILON SOARES GOMES;3.226,35;PROF III-A PFIII-D (30H);Estatutário;1998;Junho;2018;
MANACES DE BRITO NERI;1.869,56;MOTORISTA (40h);Estatutário;2003;Junho;2018;
MANOEL FELICIANO DA CRUZ FILHO;1.701,29;GARI (40h);Estatutário;1998;Junho;2018;
MANOEL NAUTIFRAN DA CUNHA;1.589,28;GARI (40h);Estatutário;2017;Junho;2018;
MARCELO JOSE DE LIMA;4.301,77;PROF. III-A PFIII-D (40H);Estatutário;1998;Junho;2018;
MARCIA REGINA DE ARAUJO;2.096,74;AUX. DE ENFERMAGEM;Estatutário;1998;Junho;2018;
MARCIELMA DOS SANTOS ARAUJO;2.252,76;PROF. ENS. FUNDAMENTAL - I (30Hs);N/A;N/A;Junho;2018;
MARCIELMA DOS SANTOS ARAUJO;564,72;PROFESSOR - ADICIONAIS;Estatutário;2015;Junho;2018;
MARCILENE SHEYLA BESERRA DE OLIVEIRA;1.228,71;COORD. ADMINISTRATIVO-EF (40Hs);Estatutário;2015;Junho;2018;
MARCIO SALES DE SOUZA;954,00;ENTREVISTADOR DO CADASTRO UNICO/PBF;CONTRATADO;2018;Junho;2018;
MARCIVANIA ARAUJO DE MEDEIROS ALVES;1.616,63;ATENDENTE DE ENFERMAGEM;Estatutário;1998;Junho;2018;
MARCONDES MEDEIROS DA SILVA;1.454,17;AGENTE COMUNITARIO DE COMBATE ÀS ENDEMIAS;Estatutário;2015;Junho;2018;
MARCONI PEREIRA DE OLIVEIRA JUNIOR;1.144,80;ASG EFETIVOS;Estatutário;2017;Junho;2018;
MARCOS ANTONIO DANTAS DE ARAÚJO;4.301,77;PROF. III-A PFIII-D (40H);Estatutário;1998;Junho;2018;
MARGARETH SOARES;4.664,44;PROF. III-A PFIII-F (30)*;N/A;N/A;Junho;2018;
MARGARIDA ANA DOS SANTOS;1.558,89;AUX. DE ENFERMAGEM;Estatutário;1999;Junho;2018;
MARGARIDA BEZERRA SOBRINHO;3.226,35;PROF III-A PFIII-D (30H);Estatutário;1998;Junho;2018;
MARGARIDA IVONETE DE ARAUJO LOPES;2.744,05;PROF. II-A PFII-C (30H)*;Estatutário;1999;Junho;2018;
MARGARIDA MARIA DA SILVA;1.958,89;AGENTE COM. DE SAUDE (40h);Estatutário;1998;Junho;2018;
MARGARIDA SEGUNDA DE ARAUJO SOARES;1.241,42;DIGITADOR (40h);Estatutário;2003;Junho;2018;
MARIA ADRIANA DA SILVA;1.396,50;AUXILIAR DE SAUDE BUCAL (40Hs);Estatutário;2015;Junho;2018;
MARIA ADRINA PEREIRA DA SILVA;1.686,27;ASG EFETIVOS;Estatutário;2000;Junho;2018;
MARIA ALDENICE BATISTA DA R.ESTEVAM;1.327,94;AGENTE ADMINISTRATIVO (40h);Estatutário;1999;Junho;2018;
MARIA ALVES BATISTA;954,00;CHEFE DE SETOR DE PROTEÇÃO SOCIAL BASICA;Comissionado;2017;Junho;2018;
MARIA AMELIA CAMARA PEREIRA;1.893,77;AUX. DE ENFERMAGEM;Estatutário;1998;Junho;2018;
MARIA APARECIDA BATISTA PEREIRA DE ARAUJO;2.475,98;AUX. DE ENFERMAGEM;Estatutário;1988;Junho;2018;
MARIA APARECIDA DA CRUZ LOPES;2.078,53;AGENTE ADMINISTRATIVO (20H);N/A;N/A;Junho;2018;
MARIA APARECIDA MOURA DE SOUZA;3.226,35;PROF III-A PFIII-D (30H);Estatutário;1998;Junho;2018;
MARIA APARECIDA VICENTE DE SOUZA;997,50;AGENTE DE ABORDAGEM (40HS);Estatutário;2017;Junho;2018;
MARIA AUCILENE DE JESUS SILVA;1.264,70;ASG EFETIVOS;Estatutário;1999;Junho;2018;
MARIA AURÉLIA DE MORAIS NETA NUNES;985,71;CHEFE DO SETOR ADMINISTRATIVO DO CAPS;Comissionado;2017;Junho;2018;
MARIA BETANIA ALMEIDA DE MEDEIROS;1.264,70;ASG EFETIVOS;Estatutário;1999;Junho;2018;
MARIA CONCEIÇÃO ALVES DE MEDEIROS;1.985,65;ASG EFETIVOS;N/A;N/A;Junho;2018;
MARIA CONCEIÇÃO DE SOUZA MARQUES;1.558,89;TELEFONISTA (40h);Estatutário;1999;Junho;2018;
MARIA CRISTINA DE ARAUJO;1.663,88;TECNICO DE ENFERMAGEM (40H);Estatutário;2015;Junho;2018;
MARIA DA CONCEIÇÃO ALVES DE MOURA;954,00;CHEFE DE SETOR EXECUTIVO DOS CONSELHOS;Comissionado;2017;Junho;2018;
MARIA DA CONCEIÇÃO DA SILVA;1.597,94;ASG EFETIVOS;Estatutário;1998;Junho;2018;
MARIA DA CONCEIÇAO DE MOURA;2.514,44;AUX. DE ENFERMAGEM;Estatutário;2003;Junho;2018;
MARIA DA CONCEIÇÃO L DA SILVA;1.958,89;AGENTE COM. DE SAUDE (40h);N/A;N/A;Junho;2018;
MARIA DA CONCEIÇÃO NERY DA SILVA;3.226,34;PROF III-A PFIII-D(30H);Estatutário;1998;Junho;2018;
MARIA DA GLORIA DOS SANTOS;1.204,48;ASG EFETIVOS;Estatutário;2003;Junho;2018;
MARIA DA GUIA DA CRUZ ;3.226,35;PROF III-A PFIII-D (30H);Estatutário;1998;Junho;2018;
MARIA DA GUIA DA SILVA;1.546,13;FISCAL SANITARIO TECNICO (40h);Estatutário;2017;Junho;2018;
MARIA DA GUIA DE VASCONCELOS;1.783,59;TECNICO DE ENFERMAGEM (40H);N/A;N/A;Junho;2018;
MARIA DA GUIA LOPES BEZERRA;2.668,39;PROF. II-A PFII-B (30H)*;Estatutário;2002;Junho;2018;
MARIA DA GUIA PAULINO DOS SANTOS;2.744,05;PROF. II-A PFII-C (30H)*;Estatutário;2000;Junho;2018;
MARIA DA GUIA SILVA DE OLIVEIRA;1.484,65;ASG EFETIVOS;Estatutário;2000;Junho;2018;
MARIA DA GUIA TOMAZ DE AQUINO;1.236,19;ASG EFETIVOS;N/A;N/A;Junho;2018;
MARIA DA LUZ DE LUCENA;3.678,36;PROF. III-A PFIII-F (30)*;Estatutário;1986;Junho;2018;
MARIA DA NATIVIDADE LOPES DA COSTA;1.539,64;ASG EFETIVOS;N/A;N/A;Junho;2018;
MARIA DA PAZ DE ARAUJO;4.904,85;PROF. III-A PFIII-F (40)*;Estatutário;1987;Junho;2018;
MARIA DA PAZ DE FIGUEIREDO;2.744,05;PROF. II-A PFII-C (30H)*;Estatutário;2000;Junho;2018;
MARIA DA PAZ DE FIGUEIREDO;224,48;PROFESSOR - ADICIONAIS;Estatutário;2017;Junho;2018;
MARIA DA PAZ LEITE DE OLIVEIRA;3.010,68;PROF. III-A PFIII-C (30H)*;N/A;N/A;Junho;2018;
MARIA DAGUIA ALVES FELICIANO;400,00;CARGO REQUISITADO;Cedido;2017;Junho;2018;
MARIA DAMIANA NERI DA SILVA;1.633,11;TECNICO DE ENFERMAGEM (30);N/A;N/A;Junho;2018;
MARIA DANUBIA BATISTA FONSECA;1.739,64;ASG EFETIVOS;N/A;N/A;Junho;2018;
MARIA DARC ALMEIDA DE MEDEIROS;1.737,76;AGENTE ADMINISTRATIVO (40h);Estatutário;1986;Junho;2018;
MARIA DAS DORES ALEXANDRE DE MEDEIROS;1.539,64;ASG EFETIVOS;N/A;N/A;Junho;2018;
MARIA DAS DORES FERREIRA;2.817,62;PROF II-A PFII-D (30;Estatutário;1999;Junho;2018;
MARIA DAS GRACAS ALVES DA SILVA;550,14;PROFESSOR - ADICIONAIS;Estatutário;2012;Junho;2018;
MARIA DAS GRACAS ALVES DA SILVA;3.099,40;PROF III-A PFIII-D(30H);Estatutário;1999;Junho;2018;
MARIA DAS GRACAS ALVES NUNES SANTOS;3.351,82;PROF. I-A PFI-F (30H)*;N/A;N/A;Junho;2018;
MARIA DAS GRAÇAS JUSTINO DE ARAÚJO;2.861,22;PROF. II-A PFII-C (30H)*;N/A;N/A;Junho;2018;
MARIA DAS GRACAS SALUSTIANO DE SOUZA;1.808,89;AGENTE COM. DE SAUDE (40h);N/A;N/A;Junho;2018;
MARIA DAS GRACAS SANTOS DE MEDEIROS;2.252,76;PROF. ENS. FUNDAMENTAL - I (30Hs);N/A;N/A;Junho;2018;
MARIA DAS NEVES BEZERRA DA SILVA;1.484,65;COZINHEIRO (40);Estatutário;1998;Junho;2018;
MARIA DAS NEVES DE BRITO DINIZ;1.413,95;ASG EFETIVOS;N/A;N/A;Junho;2018;
MARIA DE FATIMA ALVES DE ARAUJO;1.484,65;AUX. DE ENFERMAGEM;Estatutário;2003;Junho;2018;
MARIA DE FATIMA DE ARAUJO;1.327,94;AGENTE DE PORTARIA (40h);Estatutário;2000;Junho;2018;
MARIA DE FATIMA LOPES FERNANDES;210,78;ASG EFETIVOS;Estatutário;1998;Junho;2018;
MARIA DE FATIMA MOURA DA SILVA;1.697,44;AGENTE COM. DE SAUDE (40h);Estatutário;1996;Junho;2018;
MARIA DE FATIMA SANTANA DE L ALMEIDA;1.484,65;ASG EFETIVOS;Estatutário;1999;Junho;2018;
MARIA DE JESUS DOS SANTOS ARAUJO;1.911,74;AUX. DE ENFERMAGEM;Estatutário;1998;Junho;2018;
MARIA DE LOURDES;1.616,63;AUX. DE ENFERMAGEM;Estatutário;1998;Junho;2018;
MARIA DE LOURDES DA COSTA;2.539,81;AUX. DE ENFERMAGEM;N/A;N/A;Junho;2018;
MARIA DE LOURDES DA SILVA;658,83;PROF. I-A PFI-C (30H)*;N/A;N/A;Junho;2018;
MARIA DE LOURDES DE MEDEIROS NETA;1.319,69;ASG EFETIVOS;Estatutário;1998;Junho;2018;
MARIA DILMA FERNANDES DE ARAUJO;1.808,89;AGENTE COM. DE SAUDE (40h);N/A;N/A;Junho;2018;
MARIA DO CARMO PEREIRA DA SILVA;1.679,66;AGENTE COM. DE SAUDE (40h);N/A;N/A;Junho;2018;
MARIA DO CEU ROQUE;1.484,65;ASG EFETIVOS;Estatutário;1998;Junho;2018;
MARIA DO ROSARIO LOPES;1.655,02;AGENTE ADMINISTRATIVO (40h);Estatutário;1988;Junho;2018;
MARIA DO ROSARIO LOPES;600,00;VICE DIRETOR (VDE-1);Estatutário;2017;Junho;2018;
MARIA DO ROSARIO PEREIRA DE MEDEIROS;1.506,84;AGENTE COM. DE SAUDE (40h);Estatutário;2015;Junho;2018;
MARIA DO SOCORRO DAVID DE SALES;1.361,58;ASG EFETIVOS;Estatutário;2003;Junho;2018;
MARIA DO SOCORRO DE BRITO DINIZ ;2.306,83;AUX. DE ENFERMAGEM;Estatutário;2000;Junho;2018;
MARIA DO SOCORRO GOMES DE ARAUJO;3.226,35;PROF III-A PFIII-D (30H);Estatutário;1998;Junho;2018;
MARIA DO SOCORRO NERY DA SILVA;3.226,34;PROF III-A PFIII-D(30H);Estatutário;1998;Junho;2018;
MARIA DO SOCORRO SOARES TEIXEIRA;3.630,63;SUPERVISOR II-A SPIII-D (30)*;Estatutário;1998;Junho;2018;
MARIA DULCINEIDE MARTINS PINHEIRO;1.254,00;TECNICO DE ENFERMAGEM (40H);Estatutário;2015;Junho;2018;
MARIA EDILEUSA ALVES SOARES;2.096,05;TECNICO DE ENFERMAGEM (40H);Estatutário;2006;Junho;2018;
MARIA ELIZABETE ARAUJO DE MEDEIROS;1.947,44;AGENTE COM. DE SAUDE (40h);Estatutário;1996;Junho;2018;
MARIA ELIZABETH DE LIMA FELICIANO SOARES;1.346,84;AGENTE COM. DE SAUDE (40h);Estatutário;2015;Junho;2018;
MARIA ELIZETE DE ARAUJO;3.018,46;PROF. III-A PFIII-C (30H)*;Estatutário;2000;Junho;2018;
MARIA ELZA TEIXEIRA ;2.668,39;PROF. II-A PFII-B (30H)*;Estatutário;2000;Junho;2018;
MARIA FRANCISCA ALEXANDRE DA CRUZ;1.539,64;ASG EFETIVOS;N/A;N/A;Junho;2018;
MARIA FRANCISCA MOURA DE SOUZA;3.226,35;PROF III-A PFIII-D (30H);Estatutário;1998;Junho;2018;
MARIA GEOVANIA OLIVEIRA DE SOUSA;2.252,76;PROF POLIVAL ENS INFANTIL - II-A (30Hs);N/A;N/A;Junho;2018;
MARIA GOMES DE ARAÚJO;4.844,62;PROF. III-A PFIII-C (40H)*;Estatutário;1999;Junho;2018;
MARIA GORETH DE ARAUJO;1.791,74;AUX. DE ENFERMAGEM;Estatutário;1998;Junho;2018;
MARIA HELENA DA CONCEICAO;612,96;ASG EFETIVOS;Estatutário;1988;Junho;2018;
MARIA HELENISE MOREIRA PEREIRA;1.558,89;AGENTE COM. DE SAUDE (40h);Estatutário;2000;Junho;2018;
MARIA ILZA NERY;3.351,82;PROF. I-A PFI-F (30H)*;N/A;N/A;Junho;2018;
MARIA IRANICE JALES LOPES;1.613,95;ASG EFETIVOS;N/A;N/A;Junho;2018;
MARIA IRANILCE FERREIRA FREIRE;1.264,70;ASG EFETIVOS;Estatutário;1999;Junho;2018;
MARIA JOILMA DE BRITO;1.558,89;AUX. DE ENFERMAGEM;Estatutário;1999;Junho;2018;
MARIA JOSE ALEXANDRE;1.559,63;ASG EFETIVOS;Estatutário;1998;Junho;2018;
MARIA JOSE ARAUJO LOPES DE SA;6.120,00;AGENTE ADMINISTRATIVO (40h);Estatutário;1979;Junho;2018;
MARIA JOSE DA SILVA DANTAS;1.947,44;AGENTE COM. DE SAUDE (40h);Estatutário;1996;Junho;2018;
MARIA JOSE DE ARAUJO;2.373,63;AUX. DE ENFERMAGEM;Estatutário;1998;Junho;2018;
MARIA JOSE DUTRA DE ARAUJO;1.573,45;ASG EFETIVOS;Estatutário;1989;Junho;2018;
MARIA JOSE NERY;2.483,75;PROF. I-A PFI-C (30H)*;Estatutário;1998;Junho;2018;
MARIA JOSE SOARES DE FREITAS;1.646,50;AUXILIAR DE SAUDE BUCAL (40Hs);Estatutário;2015;Junho;2018;
MARIA LEIDIANE DE QUEIROZ;2.252,76;PROF. DE CIENCIAS DA NATUREZA - II-A (30Hs);N/A;N/A;Junho;2018;
MARIA LIDIANE DE ALMEIDA BATISTA;2.252,76;PROF POLIVAL ENS INFANTIL - II-A (30Hs);N/A;N/A;Junho;2018;
MARIA LUCIA DE MOURA;4.851,35;PROF III-A PFIII-D(30H);Estatutário;1998;Junho;2018;
MARIA LUCIA PEREIRA DE ARAUJO SILVA;1.391,17;TECNICO DE CONTABILIDADE;Estatutário;1999;Junho;2018;
MARIA LUCIANA DA SILVA;954,00;ASG EFETIVOS;Estatutário;2017;Junho;2018;
MARIA LUCIENE DA SILVA;1.419,60;AGENTE COMUNITARIO DE COMBATE ÀS ENDEMIAS;Estatutário;2015;Junho;2018;
MARIA LUCIETE PEREIRA DA CRUZ;3.141,93;PROF. III-A PFIII-C (30H)*;N/A;N/A;Junho;2018;
MARIA LUIZA CLEMENTE DOS SANTOS;1.919,69;ASG EFETIVOS;Estatutário;1998;Junho;2018;
MARIA LUZINETE DANTAS DE ARAUJO;2.252,76;PROF POLIVAL ENS INFANTIL - II-A (30Hs);N/A;N/A;Junho;2018;
MARIA LUZINETE DANTAS DE ARAUJO;564,72;PROFESSOR - ADICIONAIS;Estatutário;2015;Junho;2018;
MARIA MARGARETH BEZERRA DE OLIVEIRA SOUZ;2.935,76;PROF. III-A PFIII-B (30H);Estatutário;2002;Junho;2018;
MARIA MARGARIDA RIBEIRO DANTAS;1.319,69;ASG EFETIVOS;Estatutário;1998;Junho;2018;
MARIA NOEMIA DE MOURA BATALHA;3.018,46;PROF. III-A PFIII-C (30H)*;Estatutário;2002;Junho;2018;
MARIA REDJANE DA SILVA FONSECA;1.539,64;ASG EFETIVOS;N/A;N/A;Junho;2018;
MARIA REGINA GOMES DE ARAUJO;954,00;ORIENTADOR SOCIAL (40H);CONTRATADO;2018;Junho;2018;
MARIA RIZONETE DUTRA SILVA;1.484,65;ASG EFETIVOS;Estatutário;1999;Junho;2018;
MARIA ROSALIA ALVES MEDEIROS SILVA;1.391,17;TECNICO DE CADASTRO;Estatutário;1999;Junho;2018;
MARIA SALETE RAMALHO DA SILVA;1.197,00;CUIDADOR DE CRIANÇA (INFANTIL);Estatutário;2015;Junho;2018;
MARIA SELMA BATISTA DE MEDEIROS AZEVEDO;1.764,59;ASG EFETIVOS;N/A;N/A;Junho;2018;
MARIA SELMA PINHEIRO DOS SANTOS;2.258,44;TEC.DE ENFERMAGEM;Estatutário;1998;Junho;2018;
MARIA SUELY CARDOSO DE MEDEIROS;3.072,76;PROF POLIVAL ENS INFANTIL - II-A (30Hs);N/A;N/A;Junho;2018;
MARIA SUZANA DE MEDEIROS LOURENCO;1.324,93;TECNICO DE CONTABILIDADE;N/A;N/A;Junho;2018;
MARIANA CARLA BATISTA DOS SANTOS;6.980,00;ENFERMEIRO;Estatutário;2015;Junho;2018;
MARICELY DE FATIMA DA SILVA;3.630,63;SUPERVISOR II-A SPIII-D (30)*;Estatutário;1998;Junho;2018;
MARILDE LOPES BEZERRA;1.264,70;ASG EFETIVOS;Estatutário;1999;Junho;2018;
MARILENE DA SILVA MEDEIROS;1.717,10;ASG EFETIVOS;Estatutário;1999;Junho;2018;
MARILU MARIA DOS SANTOS SOUZA;3.226,34;PROF III-A PFIII-D (30H);Estatutário;1998;Junho;2018;
MARINA RITA DOS SANTOS;1.992,07;ASG EFETIVOS;N/A;N/A;Junho;2018;
MARINALVA DE SOUZA CABRAL PAIVA;2.813,54;AGENTE ADMINISTRATIVO (40h);Estatutário;1987;Junho;2018;
MARINALVA MENEZES DE MEDEIROS;1.858,89;ATENDENTE DE ENFERMAGEM;N/A;N/A;Junho;2018;
MARINILVA MAGNA MENEZES DE MEDEIROS;2.500,00;PROCURADOR ESPECIAL;Comissionado;2017;Junho;2018;
MARISTELA PEREIRA DE ARAUJO;2.252,76;PROF. DE HISTÓRIA/CULTURA - II-A (30Hs);N/A;N/A;Junho;2018;
MARJORIE OVIDIO BEZERRA GALVÃO;3.250,00;SECRETARIO MUNICIPAL;Comissionado;2017;Junho;2018;
MARKISON JOSE DE LIRA;2.252,76;PROF. ENS. FUNDAMENTAL - I (30Hs);N/A;N/A;Junho;2018;
MARKISON JOSE DE LIRA;352,95;PROFESSOR - ADICIONAIS;Estatutário;2015;Junho;2018;
MARLENE SANTINA DE OLIVEIRA;1.413,95;ASG EFETIVOS;N/A;N/A;Junho;2018;
MARLUCE PEREIRA GALVAO;3.018,46;PROF. III-A PFIII-C (30H)*;Estatutário;2000;Junho;2018;
MARTILENE DO CARMO COSTA;1.419,60;AGENTE COMUNITARIO DE COMBATE ÀS ENDEMIAS;Estatutário;2015;Junho;2018;
MAURO VIEIRA DA SILVA;2.644,38;GARI (40h);Estatutário;1998;Junho;2018;
MAYALISON KAIO LIMA BRITO;1.335,60;GARI (40h);Estatutário;2017;Junho;2018;
MEIRINARDY OLIMPIA DE PAIVA BRITO;3.099,40;PROF III-A PFIII-D(30H);Estatutário;2000;Junho;2018;
MEIRINARDY OLIMPIA DE PAIVA BRITO;1.862,05;PROFESSOR - ADICIONAIS;Comissionado;2013;Junho;2018;
MERCIA AMARAL DE MENEZES;2.026,75;AUX. DE ENFERMAGEM;Estatutário;1998;Junho;2018;
MICHELL ANGELO EUFRAZIO DE MEDEIROS;15.400,00;MEDICO ESF (40H);Estatutário;2016;Junho;2018;
MIGUEL ANTONIO DA COSTA SILVA;1.264,70;DIGITADOR (40h);Estatutário;2003;Junho;2018;
MILLA CHIANCA GOMES VARELA;6.430,00;ENFERMEIRO;Estatutário;2015;Junho;2018;
MIRELLE MEDEIROS ANTUNES;3.200,00;PSICÓLOGO(A) - 40Hs;Estatutário;2015;Junho;2018;
MONICA GURGEL DE OLIVEIRA;1.504,00;TECNICO DE ENFERMAGEM (40H);Estatutário;2016;Junho;2018;
MYLENA KAREN DE ARAÚJO FREITAS;954,00;ORIENTADOR SOCIAL (40H);CONTRATADO;2018;Junho;2018;
NECI ALMEIDA DOS SANTOS;2.352,15;AUX. DE ENFERMAGEM;Estatutário;1998;Junho;2018;
NEILY FABIANE MOURA DE OLIVEIRA;1.385,68;DATILOGRAFO (40h);Estatutário;1998;Junho;2018;
NEYILSON BEZERRA LOPES;954,00;ORIENTADOR SOCIAL DE ARTES MARCIAIS (40h);CONTRATADO;2018;Junho;2018;
NILDA ALVES DE MENEZES;1.319,69;ASG EFETIVOS;Estatutário;1998;Junho;2018;
NILVA ALICE TAVARES DE MEDEIROS SANTOS;5.061,77;PROF. III-A PFIII-D (40H);Estatutário;1998;Junho;2018;
NOELMA MARIA DA SILVA ;1.300,00;DIRETOR DO DEPARTAMENTO DE AGRICULTURA E PECUÁRIA;Comissionado;2017;Junho;2018;
ORESTES BEZERRA DE ARAUJO;2.004,53;GARI (40h);Estatutário;1999;Junho;2018;
ORLANDO SOUSA DE ARAUJO;1.440,00;OPERADOR DE RETROESCAVADEIRA (40Hs);Estatutário;2015;Junho;2018;
OSENIR BATISTA DE ARAUJO;2.426,83;AUX. DE ENFERMAGEM;Estatutário;1999;Junho;2018;
OTILIA DIAS PEREIRA NETA;3.226,34;PROF III-A PFIII-D (30H);Estatutário;1998;Junho;2018;
OZINEIDE DIAS DE ARAUJO;1.319,69;ASG EFETIVOS;Estatutário;1998;Junho;2018;
PALOMA MIRELLI SANTOS DO AMARAL;1.254,00;TECNICO DE ENFERMAGEM (40H);Estatutário;2015;Junho;2018;
PALOMA OLIVEIRA DA CRUZ;4.700,00;NUTRICIONISTA EF (40Hs);Estatutário;2015;Junho;2018;
PATRICIA SOUZA DO CARMO SILVA;1.029,21;CUIDADOR DE CRIANÇA (NECESSIDADES ESPECIAIS);Estatutário;2015;Junho;2018;
PAULA CHRISTINA CAVALCANTE DOS SANTOS;1.144,80;ASG EFETIVOS;Estatutário;2017;Junho;2018;
PAULINO COSME DA SILVA;1.759,59;GARI (40h);N/A;N/A;Junho;2018;
PAULO CESAR DE SOUZA;1.017,42;CHEFE DO SETOR DE ENDEMIAS;Comissionado;2017;Junho;2018;
PEDRO BATISTA DO NASCIMENTO;954,00;ORIENTADOR SOCIAL DE ARTES MANUAIS;CONTRATADO;2018;Junho;2018;
PEDRO EPAMINONDAS LOPES NETO;35.043,17;MEDICO ESF (40H);Estatutário;2015;Junho;2018;
PEDRO HENRIQUE CASSIANO ARAUJO;2.500,00;PSICÓLOGO(A) - 40Hs;Estatutário;2016;Junho;2018;
PEDRO PLÁCIDO DE ARAUJO FILHO;1.144,80;ASG EFETIVOS;Estatutário;2017;Junho;2018;
PEDRO SERGIO PEREIRA FELIX;1.203,80;MOTORISTA (40h);Estatutário;2015;Junho;2018;
PLABITO LOPES SOUTO;2.252,76;PROF. DE LINGUA PORTUGUESA - II-A (30Hs);N/A;N/A;Junho;2018;
RADIR BATISTA DOS SANTOS;1.655,02;ASG EFETIVOS;Estatutário;1986;Junho;2018;
RAFAEL ARAUJO DA CUNHA;1.419,60;AGENTE COMUNITARIO DE COMBATE ÀS ENDEMIAS;Estatutário;2015;Junho;2018;
RAFAEL GOMES DOS SANTOS;2.615,00;FISIOTERAPEUTA EF - (20hS);Estatutário;2016;Junho;2018;
RAFAEL LOPES DE MEDEIROS SILVA;4.400,00;ODONTÓLOGO EF -(40Hs);Estatutário;2016;Junho;2018;
RAFAELLA ALVES BARROSO;1.346,84;AGENTE COM. DE SAUDE (40h);Estatutário;2016;Junho;2018;
RAFAELLA CRISTINA DE SOUZA ARAUJO SENA;6.780,00;ENFERMEIRO;Estatutário;2015;Junho;2018;
RAIMUNDA BALBINO GONZAGA DE SOUZA;1.739,64;ASG EFETIVOS;N/A;N/A;Junho;2018;
RAIMUNDA BATISTA DE MEDEIROS;3.987,56;PROF. III-A PFIII-E (30H)*;N/A;N/A;Junho;2018;
RAIMUNDA FLORENCIO DE OLIVEIRA;3.142,02;PROF. III-A PFIII-C (30H)*;N/A;N/A;Junho;2018;
RAIMUNDO ALVES CAMPELO;2.059,52;GARI (40h);Estatutário;1998;Junho;2018;
RAIMUNDO GUNDIM NETO LIRA;1.430,33;ASG EFETIVOS;Estatutário;2017;Junho;2018;
RAIMUNDO PEIXOTO;1.764,59;GARI (40h);N/A;N/A;Junho;2018;
RAMON GOMES LEOPOLDO;1.419,60;AGENTE COMUNITARIO DE COMBATE ÀS ENDEMIAS;Estatutário;2015;Junho;2018;
RAQUEL ARAUJO NOBREGA;6.280,00;ENFERMEIRO;Estatutário;2015;Junho;2018;
RAQUEL TEIXEIRA DE ARAUJO COSTA;1.076,71;TECNICO DE ENFERMAGEM (40H);Estatutário;2016;Junho;2018;
RAUL DAVID SANTOS DE FREITAS;7.500,00;ODONTÓLOGO EF -(40Hs);Estatutário;2015;Junho;2018;
REGIANE DA SILVA BRITO BARROS;4.250,00;ASSISTENTE SOCIAL EF (30H);Estatutário;2015;Junho;2018;
REGINA LUCIA DOS SANTOS BATISTAS;1.367,30;TECNICO DE ENFERMAGEM (40H);Estatutário;2015;Junho;2018;
REGINALDO GALDINO DE ALENCAR;3.034,31;MOTORISTA (40h);Estatutário;1986;Junho;2018;
REINAILMA CASSIA PEREIRA;954,00;ORIENTADOR SOCIAL (40H);CONTRATADO;2018;Junho;2018;
REINAILZA CARLA PEREIRA DE MEDEIROS;1.029,21;CUIDADOR DE CRIANÇA (INFANTIL);Estatutário;2015;Junho;2018;
RENATA FONSECA NOLASCO;5.280,00;ENGENHEIRO CIVIL-EF (30Hs);Estatutário;2015;Junho;2018;
RENATA PERISLANNY SILVA NOBRE ARAUJO DE MEDEIROS;3.900,00;ENFERMEIRO;Estatutário;2017;Junho;2018;
RENATO DIAS DOS SANTOS;1.228,01;MOTORISTA (40h);Estatutário;2015;Junho;2018;
RENATO MARQUES;2.252,76;PROF. DE LINGUA PORTUGUESA - II-A (30Hs);N/A;N/A;Junho;2018;
RENILDA BATISTA DE MEDEIROS;1.616,63;ATENDENTE DE ENFERMAGEM;Estatutário;1998;Junho;2018;
RENILDA MARIA DE ARAUJO;1.818,69;ASG EFETIVOS;Estatutário;1988;Junho;2018;
RICARDO SERGIO BARBOSA;1.357,58;VIGILANTE;Estatutário;2017;Junho;2018;
RICARDO TEIXEIRA DE MOURA;954,00;ENTREVISTADOR DO CADASTRO UNICO/PBF;CONTRATADO;2018;Junho;2018;
RIDALVO PAIVA DE LUCENA;1.029,21;DIGITADOR (40h);Estatutário;2016;Junho;2018;
RISONEIDE FELIX DA SILVA MATEUS;1.328,12;ASG EFETIVOS;Estatutário;1999;Junho;2018;
RITA FERNANDES DOS SANTOS;2.252,76;PROF. ENS. FUNDAMENTAL - I (30Hs);N/A;N/A;Junho;2018;
RITA JACI DE OLIVEIRA;1.484,65;ASG EFETIVOS;Estatutário;1998;Junho;2018;
RITA QUEIROZ DE AZEVEDO ALVES;1.515,58;ASG EFETIVOS;Estatutário;1988;Junho;2018;
RITA SHIRLY DE MEDEIROS;3.226,27;PROF III-A PFIII-D(30H);Estatutário;1998;Junho;2018;
RIVANEIDE DE FATIMA IVO DE ALMEIDA;3.206,15;PROF. I-A PFI-C (30H)*;Estatutário;2002;Junho;2018;
ROBERLANDIA ARAUJO DA SILVA;3.311,63;PROF POLIVAL ENS INFANTIL - II-A (30Hs);Estatutário;2017;Junho;2018;
ROBERTA PRISCILA MEDEIROS DE ARAUJO;997,50;CUIDADOR DE CRIANÇA (INFANTIL);Estatutário;2015;Junho;2018;
ROBERTA VERAS SALDANHA;3.018,46;PROF. III-A PFIII-C (30H)*;Estatutário;2002;Junho;2018;
ROBERTO OLIVEIRA DE PAIVA;1.327,94;TELEFONISTA (40h);Estatutário;1999;Junho;2018;
ROBERTO SANDRO DE OLIVEIRA;1.452,11;MOTORISTA (40h);Estatutário;2007;Junho;2018;
RODRIGO OLIVEIRA DA FONSECA;3.200,00;FONOAUDIOLOGO - 40HS EF;Estatutário;2015;Junho;2018;
RODRIGO SANTOS DA SILVA;698,25;AUXILIAR ADMINISTRATIVO (40Hs);Estatutário;2016;Junho;2018;
ROGERIO SOARES DE BRITO;1.772,08;GARI (40h);Estatutário;1999;Junho;2018;
ROMUALDO ARAUJO DE LIRA;2.004,53;ASG EFETIVOS;Estatutário;1998;Junho;2018;
RONALDO BEZERRA MARIZ;6.490,97;VETERINÁRIO;N/A;N/A;Junho;2018;
RONNIE VON DE OLIVEIRA;3.226,35;PROF III-A PFIII-D (30H);Estatutário;1998;Junho;2018;
ROSA CRISTINA SOARES;3.503,68;PROF III-A PFIII-D(30H);N/A;N/A;Junho;2018;
ROSA MARIA DA SILVA BESERRA;2.097,44;AGENTE COM. DE SAUDE (40h);Estatutário;1996;Junho;2018;
ROSANGELA DE FATIMA GARCIA S FREITAS;5.388,47;ASSISTENTE SOCIAL EF (30H);N/A;N/A;Junho;2018;
ROSANGELA PEREIRA DA SILVA;3.226,35;PROF III-A PFIII-D (30H);Estatutário;1998;Junho;2018;
ROSEANE OLIVEIRA DOS SANTOS;3.050,00;PSICÓLOGO(A) - 40Hs;Estatutário;2017;Junho;2018;
ROSEMBERG DE SOUZA BRITO;1.346,84;AGENTE COM. DE SAUDE (40h);Estatutário;2015;Junho;2018;
ROSICLEIDE SOUZA DO CARMO LIMA;1.539,64;ASG EFETIVOS;N/A;N/A;Junho;2018;
ROSINALVA ALVES DA COSTA;1.824,47;AUX. DE ENFERMAGEM;Estatutário;1999;Junho;2018;
ROXANA SILVA;2.252,76;PROF.(AEE) ATEND EDUC ESPECIALIZADO - II-A (30Hs);N/A;N/A;Junho;2018;
RUBIA KALINKA DE OLIVEIRA JACOME;12.000,00;MEDICO(CONT INDIVIDUAIS);CONTRATADO (PGF);2017;Junho;2018;
RUI LOPES DA SILVA;1.374,25;MOTORISTA (40h);Estatutário;2003;Junho;2018;
RUVIA LOURENA LOPES SANTOS;1.521,50;AUXILIAR DE SAUDE BUCAL (40Hs);Estatutário;2015;Junho;2018;
SÂMARA DANIELLY DE MEDEIROS ALVES;7.155,55;ENFERMEIRO;Estatutário;2015;Junho;2018;
SAMARA ZAYANE LOPES DE MEDEIROS;1.197,00;AUXILIAR ADMINISTRATIVO (40Hs);Estatutário;2016;Junho;2018;
SANDRA AZEVEDO QUEIROZ;4.125,00;NUTRICIONISTA EF (40Hs);Estatutário;2015;Junho;2018;
SANDRA KALINA ARAÚJO DA COSTA;4.132,49;PROF. III-A PFIII-D (40H);Estatutário;2002;Junho;2018;
SANDRA MARIA DA SILVA;1.808,89;AGENTE COM. DE SAUDE (40h);N/A;N/A;Junho;2018;
SANDRA MARIA LOPES DE MEDEIROS;2.831,02;PROF. I-A PFI-D (30H)*;N/A;N/A;Junho;2018;
SANDRA MARIA SOARES PINHEIRO;2.078,52;AGENTE COM. DE SAUDE (40h);Estatutário;2000;Junho;2018;
SANDRA PEREIRA DA SILVA;3.141,93;PROF. III-A PFIII-C (30H)*;N/A;N/A;Junho;2018;
SANIELY FREITAS ARAUJO;2.500,00;PROCURADOR ESPECIAL;Comissionado;2017;Junho;2018;
SANTANA DA SILVA LIMA BEZERRA;2.000,63;AGENTE COM. DE SAUDE (40h);Estatutário;1996;Junho;2018;
SARA LOPES DE SA;2.828,94;PSICOLOGO (20H);Estatutário;2000;Junho;2018;
SARON CARDOSO DE BRITO;1.400,65;GARI (40h);Estatutário;2017;Junho;2018;
SAULO KAYRON MEDEIROS DE ARAUJO;2.252,76;PROF. ENS. FUNDAMENTAL - I (30Hs);N/A;N/A;Junho;2018;
SEBASTIANA MELO DE AQUINO;1.236,19;ASG EFETIVOS;N/A;N/A;Junho;2018;
SEBASTIAO BELARMINO PEREIRA FILHO;1.796,41;TECNICO DE ENFERMAGEM (30);N/A;N/A;Junho;2018;
SEBASTIAO FELINTO SEGUNDO;3.226,34;PROF III-A PFIII-D (30H);Estatutário;1998;Junho;2018;
SEBASTIAO VICENTE FERREIRA;2.109,50;GARI (40h);Estatutário;1998;Junho;2018;
SEFORA KALINE LOURENCO DE MEDEIROS;1.616,63;ATENDENTE DE ENFERMAGEM;Estatutário;1998;Junho;2018;
SEGILANE DOS SANTOS LIMA;2.252,76;PROF POLIVAL ENS INFANTIL - II-A (30Hs);N/A;N/A;Junho;2018;
SELMA LOPES DE ARAUJO FLAUSINO;2.028,68;ASG EFETIVOS;N/A;N/A;Junho;2018;
SERGIO GUILHERME FILHO;1.319,69;VIGIA (40h);Estatutário;1998;Junho;2018;
SERGIVALDO MARQUES DOS SANTOS;1.327,94;AGENTE ADMINISTRATIVO (40h);Estatutário;2000;Junho;2018;
SIDNEY SOUZA DE MEDEIROS;2.252,76;PROFESSOR DE MATEMATTICA - II-A (30Hs);N/A;N/A;Junho;2018;
SILMARA DE MEDEIROS DIAS;1.272,00;ASG EFETIVOS;Estatutário;2017;Junho;2018;
SILVANIA PEREIRA DE ARAUJO;1.413,95;ASG EFETIVOS;N/A;N/A;Junho;2018;
SIMONE FONTES LEITE ANDRADE;2.040,99;PROF POLIVAL ENS INFANTIL - II-A (30Hs);Estatutário;2015;Junho;2018;
SIMONE GOMES DA SILVA;1.506,84;AGENTE COM. DE SAUDE (40h);Estatutário;2015;Junho;2018;
SOLANGE FERREIRA DOS SANTOS CLEMENTE;1.327,94;AGENTE ADMINISTRATIVO (40h);Estatutário;1999;Junho;2018;
SONIA MARIA DA SILVA;2.144,50;ASG EFETIVOS;Estatutário;1998;Junho;2018;
SONIA MARIA DE MOURA PEREIRA;2.744,05;PROF. II-A PFII-C (30H)*;Estatutário;2002;Junho;2018;
SONIA MARIA DE MOURA PEREIRA;496,37;PROFESSOR - ADICIONAIS;Estatutário;2018;Junho;2018;
SONIA MARIA PINHEIRO DA CRUZ;3.018,46;PROF. III-A PFIII-C (30H)*;Estatutário;1999;Junho;2018;
SORLEY LUCAS VENANCIO BEZERRA;954,00;CHEFE DO SETOR DE PROGRAMAS ESPECIAIS;Comissionado;2017;Junho;2018;
SUELI VICENTE DOS SANTOS SILVA;1.787,44;AGENTE COM. DE SAUDE (40h);Estatutário;1996;Junho;2018;
SUZANA MEDEIROS DE ARAUJO SANTOS;1.344,00;TECNICO DE ENFERMAGEM (40H);Estatutário;2016;Junho;2018;
SUZANA TERCIA DE MEDEIROS;1.209,71;AGENTE ADMINISTRATIVO (40h);Estatutário;2004;Junho;2018;
TACIANA MARIA FELICIANO DE SOUZA;4.550,00;ODONTÓLOGO EF -(40Hs);Estatutário;2015;Junho;2018;
TAIZA MEDEIROS DE ARAUJO;2.252,76;PROFESSOR DE MATEMATTICA - II-A (30Hs);N/A;N/A;Junho;2018;
TAYANNE SHIRLEY DE MEDEIROS SILVA;1.228,71;ATENDENTE DE FARMACIA (40Hs);Estatutário;2016;Junho;2018;
TAYANNE SHIRLEY DE MEDEIROS SILVA;375,00;ATENDENTE DE FARMACIA (40Hs);N/A;N/A;Junho;2018;
TERESA CRISTINA DE ALBUQUERQUE PINTO MRAZKOVA;2.252,76;PROF. DE LINGUA INGLESA - II-A (30Hs);N/A;N/A;Junho;2018;
TEVENILSON LAERTE DE MEDEIROS;2.000,00;ASSESSOR TECNICO NIV SUPERIOR;Comissionado;2017;Junho;2018;
THASIA THALLYNNY DE CASTRO SILVA;4.566,66;ODONTÓLOGO EF -(40Hs);Estatutário;2016;Junho;2018;
THENILY MARCELLY ALVES DE ARAUJO;2.252,76;PROF. ENS. FUNDAMENTAL - I (30Hs);N/A;N/A;Junho;2018;
THIAGO ESPINOLA DE MEDEIROS;2.252,76;PROF. DE LINGUA PORTUGUESA - II-A (30Hs);N/A;N/A;Junho;2018;
TULIO CESAR VIEIRA DE ARAUJO;6.280,00;ENFERMEIRO;Estatutário;2015;Junho;2018;
UALISON BEZERRA COSTA UCHOA;10.307,50;MEDICO  ESF (20H);Estatutário;2015;Junho;2018;
UBIRAJARA ALVES DOS SANTOS;1.808,89;AGENTE COM. DE SAUDE (40h);N/A;N/A;Junho;2018;
VALBA PATROCINIO DOS SANTOS;1.327,94;DATILOGRAFO (40h);Estatutário;1998;Junho;2018;
VALCACIA BATISTA DE SOUZA;1.327,94;DIGITADOR (40h);Estatutário;2003;Junho;2018;
VALCACIA MIRELLA MEDEIROS PEREIRA;6.442,27;ENFERMEIRO;Estatutário;2015;Junho;2018;
VALDENILVA GOMES DOS SANTOS;1.144,80;ASG EFETIVOS;Estatutário;2017;Junho;2018;
VALDENUZIA DE BRITO RODRIGUES;3.132,76;PROF POLIVAL ENS INFANTIL - II-A (30Hs);N/A;N/A;Junho;2018;
VALDERLI BATISTA DE MEDEIROS;1.479,83;AUXILIAR DE SAUDE BUCAL (40Hs);Estatutário;2015;Junho;2018;
VALDINEZ VIEIRA DA SILVA;1.327,94;DIGITADOR (40h);N/A;N/A;Junho;2018;
VALDIR DE MEDEIROS AZEVEDO;15.600,00;PREFEITO;Estatutario em cargo eletivo;2003;Junho;2018;
VALERIA RABELO CARNEIRO FREITAS;3.530,75;DENTISTA (20H) EFETIVO;Estatutário;1998;Junho;2018;
VANIA LUCIA BATISTA DE ARAÚJO;3.226,35;PROF III-A PFIII-D (30H);Estatutário;1998;Junho;2018;
VANILSON PAULO DE MEDEIROS;4.114,24;PROF III-A PFIII-D (30H);Estatutário;1998;Junho;2018;
VANUSA OLIVEIRA DE BRITO ALVES;3.226,35;PROF III-A PFIII-D (30H);Estatutário;1998;Junho;2018;
VERUSKA LOPES FORTUNATO;4.900,00;ODONTÓLOGO EF -(40Hs);Estatutário;2015;Junho;2018;
VICTOR HUGO DE OLIVEIRA SANTOS;2.252,76;PROF. DE CIENCIAS DA NATUREZA - II-A (30Hs);N/A;N/A;Junho;2018;
VICTOR RICHELLY DE BRITO NASCIMENTO;2.252,76;PROF. DE EDUCAÇÃO FÍSICA - II-A (30Hs);N/A;N/A;Junho;2018;
VILANIR GOMES DE MEDEIROS BRITO;3.630,63;SUPERVISOR II-A SPIII-D (30)*;Estatutário;1998;Junho;2018;
VINICIUS LUCIO GODEIRO;15.400,00;MEDICO ESF (40H);Estatutário;2017;Junho;2018;
VIRGÍNIA MARIA DE MEDEIROS;1.622,40;AGENTE COMUNITARIO DE COMBATE ÀS ENDEMIAS;Estatutário;2015;Junho;2018;
VITAL OTAVIO DE OLIVEIRA;1.759,59;GARI (40h);N/A;N/A;Junho;2018;
VIVANIA ARAÚJO DA SILVA;3.018,46;PROF. III-A PFIII-C (30H)*;Estatutário;2002;Junho;2018;
VIVANIA ARAÚJO DA SILVA;658,46;PROFESSOR - ADICIONAIS;Estatutário;2017;Junho;2018;
VIVIANE LOPES PEREIRA RODRIGUES;1.385,68;AGENTE ADMINISTRATIVO (40h);Estatutário;1998;Junho;2018;
WALLESKA JULIANE COSTA LEITE;2.252,76;PROF. DE CIENCIAS DA NATUREZA - II-A (30Hs);N/A;N/A;Junho;2018;
WELLINGTON FRANCISCO DA SILVA;1.197,00;AUXILIAR ADMINISTRATIVO (40Hs);Estatutário;2015;Junho;2018;
WELMA MARIA DA SILVA;1.346,63;CUIDADOR DE CRIANÇA (INFANTIL);Estatutário;2015;Junho;2018;
WENDEL OLIVEIRA FELIPE;5.409,95;AUXILIAR ADMINISTRATIVO (40Hs);Estatutário;2015;Junho;2018;
WESCLEY FERNANDES DOS SANTOS;985,71;CHEFE DO SETOR DE LABORATORIAL;Comissionado;2017;Junho;2018;
WIDNES ROBERT ALVES DA SILVA;997,50;COORD. ADMINISTRATIVO-EF (40Hs);Estatutário;2015;Junho;2018;
WILLAMY DOMINGOS DE OLIVEIRA JOVENTINO;897,75;DIGITADOR (40h);Estatutário;2015;Junho;2018;
WILSON DOMINGOS ALVES DA SILVA;1.834,57;GARI (40h);N/A;N/A;Junho;2018;
WILZES LOPES NORTE ALVES;985,71;CHEFE DE SETOR DE ALMOXARIFADO;Comissionado;2017;Junho;2018;
WINSTON DE ARAUJO TEIXEIRA;4.000,00;PROCURADOR;Estatutário;2017;Junho;2018;
ZILDA JUSTINO DE ARAUJO;3.718,22;AUX. DE ENFERMAGEM;Estatutário;1999;Junho;2018;
ZILDA MARIA DOS SANTOS;2.590,67;COORDENADOR PEDAGÓGICO II-A;N/A;N/A;Junho;2018;
ZILMARIA DOS SANTOS BEZERRA;1.150,00;CHEFE DO SETOR DE COMPRAS;Comissionado;2017;Junho;2018;
