Nome;Salario;Cargo;Vinculo;Ingresso;Mes;Ano
ACACIO SILVA CAMPOS FILHO;12.500,00;MEDICO(CONT INDIVIDUAIS);N/A;N/A;Setembro;2017;
ADAISA DANTAS DE MEDEIROS;4.122,39;PROF III-A PFIII-D (30H);N/A;N/A;Setembro;2017;
ADEILVA PEREIRA DA SILVA TRINDADE;1.405,50;CONSELHEIRO (40h);N/A;N/A;Setembro;2017;
ADELY CRISTINA MARTINS DE ARAUJO;2.548,77;COORDENADOR ADMINISTRATIVO;N/A;N/A;Setembro;2017;
ADENILDA MARIA DE SOUZA;3.992,69;PROF. III-A PFIII-C (30H)*;N/A;N/A;Setembro;2017;
ADERITO VITAL DE ARAUJO JUNIOR;1.436,57;CHEFE ADMINISTRATIVO DO ABATEDOURO;N/A;N/A;Setembro;2017;
ADONILSON DA SILVA;2.729,38;VIGIA (40h);N/A;N/A;Setembro;2017;
ADRIANA LINHARES COSTA;1.297,74;ASG EFETIVOS;N/A;N/A;Setembro;2017;
ADRIANO ALVES DA SILVA;2.697,73;TECNICO DE ENFERMAGEM (40H);N/A;N/A;Setembro;2017;
ADRIANO MOURA DA SILVA;1.319,44;GARI (40h);N/A;N/A;Setembro;2017;
AECIO NOGUEIRA MORAIS ROCHA;4.875,00;SECRETARIO MUNICIPAL;N/A;N/A;Setembro;2017;
AGEDILVA PEREIRA DA SILVA;2.821,60;AUX. DE ENFERMAGEM;N/A;N/A;Setembro;2017;
AGMAR DAYARA LOPES DE SÁ E SILVA;1.319,44;ASG EFETIVOS;N/A;N/A;Setembro;2017;
ALAIDE QUEIROZ DE OLIVEIRA;3.993,37;PROF. III-A PFIII-C (30H)*;N/A;N/A;Setembro;2017;
ALBA LUCIA DOS SANTOS GOMES ARRUDA;3.993,37;PROF. III-A PFIII-C (30H)*;N/A;N/A;Setembro;2017;
ALBERTO CLEMENTE DE ARAÚJO;4.500,00;PROCURADOR GERAL;N/A;N/A;Setembro;2017;
ALBERTO SILVA FELIPE;1.213,89;ASG EFETIVOS;N/A;N/A;Setembro;2017;
ALCILENE MARIA DOS SANTOS;1.904,85;ASG EFETIVOS;N/A;N/A;Setembro;2017;
ALCINA COSTA DA SILVA OLIVEIRA;5.461,54;PROF. III-A PFIII-F (30)*;N/A;N/A;Setembro;2017;
ALDENIR FERNANDES DE ARAUJO;3.993,37;PROF. III-A PFIII-C (30H)*;N/A;N/A;Setembro;2017;
ALDENORA BEZERRA DOS SANTOS;2.628,29;TELEFONISTA (40h);N/A;N/A;Setembro;2017;
ALDERISA MARIA DE SOUZA;1.819,63;ASG EFETIVOS;N/A;N/A;Setembro;2017;
ALDILENE RODRIGUES DE MENEZES SILVA;1.904,85;ASG EFETIVOS;N/A;N/A;Setembro;2017;
ALDO FERNANDES DE OLIVEIRA;5.963,69;SUPERVISOR II-A SP-III-D (40H);N/A;N/A;Setembro;2017;
ALESSANDRA ARAUJO DE MEDEIROS;2.974,08;PROF POLIVAL ENS INFANTIL - II-A (30Hs);Estatutário;2015;Setembro;2017;
ALEX NUNES DA SILVA;1.594,92;MOTORISTA (40h);N/A;N/A;Setembro;2017;
ALEX TEIXEIRA DO AMARAL;1.202,70;CHEFE DO SETOR DE ENSINO DE LINGUA ESTRANGEIRA;N/A;N/A;Setembro;2017;
ALEXSANDRA RODRIGUES DOS SANTOS;937,00;CUID. DE CRIANÇA COM DEFICIÊNCIA - CONTRATO;CONTRATADO;2017;Setembro;2017;
ALEXSANDRA RODRIGUES DOS SANTOS;208,22;CUID. DE CRIANÇA COM DEFICIÊNCIA - CONTRATO;CONTRATADO;2017;Setembro;2017;
ALEXSANDRO FERNANDES DOS SANTOS;2.057,21;MOTORISTA (40h);N/A;N/A;Setembro;2017;
ALINE CRISTINA MOURA DE MEDEIROS ARAUJO;1.384,51;CHEFE DO SETOR DE GESTÃO DO TRABALHO;N/A;N/A;Setembro;2017;
ALINE SAMARA DE OLIVEIRA SILVA;1.108,33;CUIDADOR DE CRIANÇA (INFANTIL);N/A;N/A;Setembro;2017;
ALISSON MEDEIROS DE OLIVEIRA;1.026,52;ASG EFETIVOS;N/A;N/A;Setembro;2017;
ALLANDERSON MATHEUS PAULO E SILVA;2.203,50;DIGITADOR (40h);N/A;N/A;Setembro;2017;
ALVANY SILVA DE SOUZA;2.022,22;DIRETOR DO DEPARTAMENTO DE TURISMO;N/A;N/A;Setembro;2017;
AMANDA CORDEIRO DE MEDEIROS;2.974,08;PROF. ENS. FUNDAMENTAL - I (30Hs);Estatutário;2015;Setembro;2017;
AMANDA DELAYNE LOPES PALHARES;1.598,52;FISCAL DE TRIBUTOS (40h);N/A;N/A;Setembro;2017;
AMARALINA DA SILVA SANTOS;1.319,44;ASG EFETIVOS;N/A;N/A;Setembro;2017;
AMINADABE LIRA RODRIGUES;4.363,07;PROF. ENS. FUNDAMENTAL - I (30Hs);N/A;N/A;Setembro;2017;
ANA CAROLINE DA SILVA;937,00;ENTREVISTADOR DO CADASTRO UNICO/PBF;N/A;N/A;Setembro;2017;
ANA FRANCISCA SANTANA DE LIMA;4.609,67;PROF III-A PFIII-D(30H);N/A;N/A;Setembro;2017;
ANA FRANCISCA SANTANA DE LIMA;238,32;PROFESSOR - ADICIONAIS;Estatutário;2013;Setembro;2017;
ANA KAROLYNE XAVIER BEZERRA;1.266,67;ASG EFETIVOS;N/A;N/A;Setembro;2017;
ANA LUCIA ASSIS DE MEDEIROS;2.974,08;PROF. ENS. FUNDAMENTAL - I (30Hs);Estatutário;2015;Setembro;2017;
ANA LUCIA BARBOSA DA SILVA;2.557,53;AGENTE COM. DE SAUDE (40h);N/A;N/A;Setembro;2017;
ANA MARIA BATISTA DE ARAUJO ALVES;1.031,07;PROFESSOR ANOS INICIAIS -CONTRATATO ;Comissionado;2017;Setembro;2017;
ANA MARIA BATISTA DE ARAUJO ALVES;254,95;PROFESSOR ANOS INICIAIS -CONTRATATO ;Comissionado;2017;Setembro;2017;
ANA MARIA LOPES BEZERRA;2.099,84;TECNICO DE CADASTRO;N/A;N/A;Setembro;2017;
ANA PAULA ALVES MUNIZ;3.007,12;PROF. ENS. FUNDAMENTAL - I (30Hs);N/A;N/A;Setembro;2017;
ANA PAULA DA SILVA ALBANO;1.220,47;ASG EFETIVOS;N/A;N/A;Setembro;2017;
ANA PAULA DE MEDEIROS;968,07;ORIENTADOR SOCIAL (40H);N/A;N/A;Setembro;2017;
ANA PAULA DE MOURA;2.329,84;AUXILIAR DE SAUDE BUCAL (40Hs);N/A;N/A;Setembro;2017;
ANA SANTANA ALEXANDRE VALE;2.104,85;ASG EFETIVOS;N/A;N/A;Setembro;2017;
ANAILMA MARIA PEREIRA;1.966,99;ASG EFETIVOS;N/A;N/A;Setembro;2017;
ANAILSON JOSE PEREIRA;222,22;PROFESSOR ANOS INICIAIS -CONTRATATO ;CONTRATADO;2017;Setembro;2017;
ANAILSON JOSE PEREIRA;1.000,00;PROFESSOR ANOS INICIAIS -CONTRATATO ;CONTRATADO;2017;Setembro;2017;
ANALDETE AUGUSTA DE MORAIS SILVA;1.904,85;ASG EFETIVOS;N/A;N/A;Setembro;2017;
ANDRE LUIZ FIDELES CAMPOS;1.500,75;RECEPCIONISTA -EF (40Hs);N/A;N/A;Setembro;2017;
ANGEANIA PAULA DE LIMA;3.273,25;COORDENADOR PEDAGÓGICO II-A;N/A;N/A;Setembro;2017;
ANGELA COSTA DE ARAUJO;2.778,05;COORDENADOR PEDAGÓGICO II-A;N/A;N/A;Setembro;2017;
ANNE CAROLINE MONTEIRO ROQUE;8.017,50;ENFERMEIRO;N/A;N/A;Setembro;2017;
ANTENOR CASSIANO;2.536,06;GARI (40h);N/A;N/A;Setembro;2017;
ANTONIA BARBOSA DA SILVA;1.904,85;ASG EFETIVOS;N/A;N/A;Setembro;2017;
ANTONIA FELIPE DOS SANTOS CRUZ;1.904,85;ASG EFETIVOS;N/A;N/A;Setembro;2017;
ANTONIA LURDETE MENEZES DA FONSECA;1.904,85;ASG EFETIVOS;N/A;N/A;Setembro;2017;
ANTONIA OLIVEIRA BEZERRA;6.400,00;MEDICO PLANTONISTA;CONTRATADO;2017;Setembro;2017;
ANTONIA OLIVEIRA BEZERRA;21.000,00;MEDICO;N/A;N/A;Setembro;2017;
ANTONIA OLIVEIRA DA SILVA FLORENCIO;2.286,13;ASG EFETIVOS;N/A;N/A;Setembro;2017;
ANTONIO ALVES DA SILVA;2.236,13;GARI (40h);N/A;N/A;Setembro;2017;
ANTONIO DOMINGOS DA SILVA FILHO;3.302,11;GARI (40h);N/A;N/A;Setembro;2017;
ANTONIO FRANCISCO DA FONSECA;6.155,75;PROF. III-A PFIII-C (40H)*;N/A;N/A;Setembro;2017;
ANTONIO KLEBER MEDEIROS DANTAS;1.319,44;ASG EFETIVOS;N/A;N/A;Setembro;2017;
ANTONIO MARCOS SARAIVA DE LIMA;3.524,00;PROF. II-A PFII-B (30H)*;N/A;N/A;Setembro;2017;
ANTONIO PINHEIRO DE SOUZA;2.236,13;GARI (40h);N/A;N/A;Setembro;2017;
ANTONIO RANIERE SANTOS;2.201,05;AGENTE COM. DE SAUDE (40h);N/A;N/A;Setembro;2017;
ANTONIO ROBERTO LOPES DE MELO;3.791,67;SECRETARIO MUNICIPAL;N/A;N/A;Setembro;2017;
ANTONIO SEBASTIÃO DA SILVA NETO ;1.353,44;CHEFE DE SETOR DE PROGRAMAS ESPECIAIS;N/A;N/A;Setembro;2017;
ANTONIO SEGUNDO CARLOS DE FREITAS;2.217,90;MOTORISTA (40h);N/A;N/A;Setembro;2017;
ANTONIO VAGNE PINTO MELO;1.429,24;ASG EFETIVOS;N/A;N/A;Setembro;2017;
ARICIA RODRIGUES DIÓGENES;2.763,04;FARMACÊUTICO-EF (20HS);N/A;N/A;Setembro;2017;
ARINALDO LOPES DE ARAUJO;2.980,84;FISCAL DE URBANISMO (40h);N/A;N/A;Setembro;2017;
ARINALVA DA SILVA LIMA;2.004,98;AUX. DE ENFERMAGEM;N/A;N/A;Setembro;2017;
ARINALVA LOPES DE ARAUJO;2.002,34;AGENTE ADMINISTRATIVO (40h);N/A;N/A;Setembro;2017;
ARISLANIO KEDSON INACIO DE LIMA;1.330,00;CUIDADOR DE CRIANÇA (INFANTIL);N/A;N/A;Setembro;2017;
ARLENE BEZERRA DE ARAUJO;2.265,89;SUPERVISOR II-A SPIII-D (30)*;N/A;N/A;Setembro;2017;
ARLETE ALICE DA SILVA;2.598,59;ASG EFETIVOS;N/A;N/A;Setembro;2017;
ARMANDO DANTAS DE CARVALHO NETO;2.192,73;OPERADOR DE MOTO NIVELADORA - EF;N/A;N/A;Setembro;2017;
ARNILDO FELICIANO DA SILVA;238,32;PROFESSOR - ADICIONAIS;Estatutário;2011;Setembro;2017;
ARNILDO FELICIANO DA SILVA;4.609,67;PROF III-A PFIII-D(30H);N/A;N/A;Setembro;2017;
ARYAN PETRUS LOPES SOUZA ARAUJO;1.825,23;MOTORISTA (40h);N/A;N/A;Setembro;2017;
AUKLLEY MEDEIROS CABRAL;2.916,67;PSICÓLOGO(A) - 40Hs;N/A;N/A;Setembro;2017;
AURENI CANDIDA DA SILVA;3.273,25;COORDENADOR PEDAGÓGICO II-A;N/A;N/A;Setembro;2017;
BENEDITA MARIA JOSE MELO BARRA;3.387,14;PROF POLIVAL ENS INFANTIL - II-A (30Hs);N/A;N/A;Setembro;2017;
BENEDITA MARIA JOSE MELO BARRA;198,27;PROFESSOR - ADICIONAIS;Estatutário;2017;Setembro;2017;
BETANIA FRANCISCA DA SILVA;2.518,24;AGENTE COM. DE SAUDE (40h);N/A;N/A;Setembro;2017;
BRUNO EDSON DA SILVA;1.485,93;VIGILANTE;N/A;N/A;Setembro;2017;
BRUNO RAFAEL GOIS DE OLIVEIRA;1.319,44;ASG EFETIVOS;N/A;N/A;Setembro;2017;
CAINHARA LOPES BEZERRA;4.485,81;PROF. III-A PFIII-C (30H)*;N/A;N/A;Setembro;2017;
CAMILA CARLA DANTAS SOARES;2.111,76;FISCAL SANITARIO ENFERMEIRO (20H);N/A;N/A;Setembro;2017;
CARLA DEYSE SILVA;1.572,00;TECNICO DE ENFERMAGEM (40H);N/A;N/A;Setembro;2017;
CARLA LUCIO ALVES;2.974,08;PSICOPEDAGOGO - EF (30Hs);N/A;N/A;Setembro;2017;
CARLA NATALI DA SILVA SIMAO;1.498,77;CUIDADOR DE CRIANÇA (INFANTIL);N/A;N/A;Setembro;2017;
CARLA SIMONE IVO DE ARAUJO;198,27;PROFESSOR - ADICIONAIS;Estatutário;2016;Setembro;2017;
CARLA SIMONE IVO DE ARAUJO;3.387,14;PROF POLIVAL ENS INFANTIL - II-A (30Hs);N/A;N/A;Setembro;2017;
CARLOS ALBERTO RODRIGUES;2.860,15;GARI (40h);N/A;N/A;Setembro;2017;
CARLOS ANTONIO CASSIANO DA SILVA;1.542,34;MOTORISTA (40h);N/A;N/A;Setembro;2017;
CARLOS HENRIQUE DUARTE UBARANA;2.590,23;MOTORISTA (40h);N/A;N/A;Setembro;2017;
CASSIA VIRGINIA DE SOUZA;1.301,39;CHEFE DE SETOR DE HABITAÇÃO;N/A;N/A;Setembro;2017;
CELIA MARTINS BARROS VIANA;3.364,54;PROF. I-A PFI-F (SQ) (30H;N/A;N/A;Setembro;2017;
CELIA SUELLE DE MELO;1.748,77;AUXILIAR DE SAUDE BUCAL (40Hs);N/A;N/A;Setembro;2017;
CELINALDO BARBOSA DA SILVA;1.436,57;CHEFE DO SETOR DE TRANSPORTE ESCOLAR;N/A;N/A;Setembro;2017;
CELIO ALVES DA SILVA;2.100,00;SECRETARIO ADJUNTO;N/A;N/A;Setembro;2017;
CESARIANA REJANE GOMES ALEXANDRE;1.966,99;ASG EFETIVOS;N/A;N/A;Setembro;2017;
CICERA FAUSTINA DA COSTA SANTOS;222,22;PROFESSOR ANOS INICIAIS -CONTRATATO ;CONTRATADO;2017;Setembro;2017;
CICERA FAUSTINA DA COSTA SANTOS;1.000,00;PROFESSOR ANOS INICIAIS -CONTRATATO ;CONTRATADO;2017;Setembro;2017;
CIRILO NOGUEIRA JUNIOR;2.974,08;PROF POLIVAL ENS INFANTIL - II-A (30Hs);Estatutário;2016;Setembro;2017;
CLARISSA RACKEL BATISTA AZEVEDO;5.637,50;ODONTÓLOGO EF -(40Hs);N/A;N/A;Setembro;2017;
CLAUDIA LUANA DANTAS OLIVEIRA;2.313,17;PROF. ENS. FUNDAMENTAL - I (30Hs);N/A;N/A;Setembro;2017;
CLAUDIO PINHEIRO GOMES;3.273,27;MOTORISTA (40h);N/A;N/A;Setembro;2017;
CLAUDISSEIA NERI DE MORAIS;2.612,92;AUX. DE ENFERMAGEM;N/A;N/A;Setembro;2017;
